﻿[
  {
    "OINumber": "0026417",
    "Supplier": "B & H Photo Video",
    "SupplierNumber": "PE1300FB MFR"
  },
  {
    "OINumber": "0034181",
    "Supplier": "B & H Photo Video",
    "SupplierNumber": "PE1660FB"
  },
  {
    "OINumber": "0034538",
    "Supplier": "B & H Photo Video",
    "SupplierNumber": "PE1450FB"
  },
  {
    "OINumber": "0035478",
    "Supplier": "B & H Photo Video",
    "SupplierNumber": "CPE-2 PLUS"
  },
  {
    "OINumber": "0035479",
    "Supplier": "B & H Photo Video",
    "SupplierNumber": "JOT4R1540"
  },
  {
    "OINumber": "0296866",
    "Supplier": "B & H Photo Video",
    "SupplierNumber": "KOC875K1"
  },
  {
    "OINumber": "0298176",
    "Supplier": "B & H Photo Video",
    "SupplierNumber": "SODSCW830S"
  },
  {
    "OINumber": "0309891",
    "Supplier": "B & H Photo Video",
    "SupplierNumber": "PEPA730"
  },
  {
    "OINumber": "0318286",
    "Supplier": "B & H Photo Video",
    "SupplierNumber": "PADMREH69"
  },
  {
    "OINumber": "0328503",
    "Supplier": "B & H Photo Video",
    "SupplierNumber": "LMD2451TD"
  },
  {
    "OINumber": "0328558",
    "Supplier": "B & H Photo Video",
    "SupplierNumber": "CMM-103"
  },
  {
    "OINumber": "0333009",
    "Supplier": "B & H Photo Video",
    "SupplierNumber": "AJHD10MD3"
  },
  {
    "OINumber": "0333013",
    "Supplier": "B & H Photo Video",
    "SupplierNumber": "AJHD10AVA"
  },
  {
    "OINumber": "0333355",
    "Supplier": "B & H Photo Video",
    "SupplierNumber": "MUSB3GFRXST"
  },
  {
    "OINumber": "0333942-1",
    "Supplier": "B & H Photo Video",
    "SupplierNumber": "RDRUMX4L"
  },
  {
    "OINumber": "0333942-4",
    "Supplier": "B & H Photo Video",
    "SupplierNumber": "KOM2010"
  },
  {
    "OINumber": "0333942-5",
    "Supplier": "B & H Photo Video",
    "SupplierNumber": "ATAD15B"
  },
  {
    "OINumber": "0333942-6",
    "Supplier": "B & H Photo Video",
    "SupplierNumber": "ATCO1B"
  },
  {
    "OINumber": "0352952",
    "Supplier": "B & H Photo Video",
    "SupplierNumber": "LOMK520"
  },
  {
    "OINumber": "0353734",
    "Supplier": "B & H Photo Video",
    "SupplierNumber": "HD10DA"
  },
  {
    "OINumber": "0353735",
    "Supplier": "B & H Photo Video",
    "SupplierNumber": "RMB"
  },
  {
    "OINumber": "0369337",
    "Supplier": "B & H Photo Video",
    "SupplierNumber": "SONPBK1M8"
  },
  {
    "OINumber": "0378835",
    "Supplier": "B & H Photo Video",
    "SupplierNumber": "EN-EL1"
  },
  {
    "OINumber": "0378837",
    "Supplier": "B & H Photo Video",
    "SupplierNumber": "NI12244GAFS"
  },
  {
    "OINumber": "0379428",
    "Supplier": "B & H Photo Video",
    "SupplierNumber": "TRSD16GB10"
  },
  {
    "OINumber": "0383503",
    "Supplier": "B & H Photo Video",
    "SupplierNumber": "KIDTSE916"
  },
  {
    "OINumber": "0389407",
    "Supplier": "B & H Photo Video",
    "SupplierNumber": "MILCHD5000"
  },
  {
    "OINumber": "0393798",
    "Supplier": "B & H Photo Video",
    "SupplierNumber": "STDB9CONCBL6(DB9CONCABLE6)"
  },
  {
    "OINumber": "0408494",
    "Supplier": "B & H Photo Video",
    "SupplierNumber": "BLSVH2020"
  },
  {
    "OINumber": "0408495",
    "Supplier": "B & H Photo Video",
    "SupplierNumber": "GESDVI16X16B"
  },
  {
    "OINumber": "0417811",
    "Supplier": "B & H Photo Video",
    "SupplierNumber": "ATV180"
  },
  {
    "OINumber": "0418900",
    "Supplier": "B & H Photo Video",
    "SupplierNumber": "SABGP2684"
  },
  {
    "OINumber": "0418901",
    "Supplier": "B & H Photo Video",
    "SupplierNumber": "SABGP5384"
  },
  {
    "OINumber": "0418902",
    "Supplier": "B & H Photo Video",
    "SupplierNumber": "EIFS27"
  },
  {
    "OINumber": "0423974",
    "Supplier": "B & H Photo Video",
    "SupplierNumber": "BLSDIAMC"
  },
  {
    "OINumber": "0424729",
    "Supplier": "B & H Photo Video",
    "SupplierNumber": "GEEUSBD150"
  },
  {
    "OINumber": "0424731",
    "Supplier": "B & H Photo Video",
    "SupplierNumber": "AVDVIC5MSET / DVIC5MSET"
  },
  {
    "OINumber": "0424732",
    "Supplier": "B & H Photo Video",
    "SupplierNumber": "CE700A"
  },
  {
    "OINumber": "0424961",
    "Supplier": "B & H Photo Video",
    "SupplierNumber": "B&H # SASRK12"
  },
  {
    "OINumber": "0426567",
    "Supplier": "B & H Photo Video",
    "SupplierNumber": "CIC2960X24PL"
  },
  {
    "OINumber": "0427465",
    "Supplier": "B & H Photo Video",
    "SupplierNumber": "T2G-D3D-IF"
  },
  {
    "OINumber": "0427700",
    "Supplier": "B & H Photo Video",
    "SupplierNumber": "AVAVT8710 (SEE OI#0496383)"
  },
  {
    "OINumber": "0429720",
    "Supplier": "B & H Photo Video",
    "SupplierNumber": "IOGUB231"
  },
  {
    "OINumber": "0430881",
    "Supplier": "B & H Photo Video"
  },
  {
    "OINumber": "0431813",
    "Supplier": "B & H Photo Video",
    "SupplierNumber": "BLASDIMC"
  },
  {
    "OINumber": "0437215",
    "Supplier": "B & H Photo Video",
    "SupplierNumber": "HA610"
  },
  {
    "OINumber": "0442727",
    "Supplier": "B & H Photo Video",
    "SupplierNumber": "WEBU6Y0020BW"
  },
  {
    "OINumber": "0445315",
    "Supplier": "B & H Photo Video",
    "SupplierNumber": "VS-11"
  },
  {
    "OINumber": "0462967",
    "Supplier": "B & H Photo Video",
    "SupplierNumber": "SAVSF415B1"
  },
  {
    "OINumber": "0465023",
    "Supplier": "B & H Photo Video",
    "SupplierNumber": "INBNUC7I7BNH"
  },
  {
    "OINumber": "0465058",
    "Supplier": "B & H Photo Video",
    "SupplierNumber": "SK1SKBR10U"
  },
  {
    "OINumber": "0465059",
    "Supplier": "B & H Photo Video",
    "SupplierNumber": "SK1SKBR6U"
  },
  {
    "OINumber": "0465064",
    "Supplier": "B & H Photo Video",
    "SupplierNumber": "MIVTP2"
  },
  {
    "OINumber": "0468536",
    "Supplier": "B & H Photo Video",
    "SupplierNumber": "PRBNCFDIN1FH"
  },
  {
    "OINumber": "0473573",
    "Supplier": "B & H Photo Video",
    "SupplierNumber": "PEXLSLM"
  },
  {
    "OINumber": "0474510",
    "Supplier": "B & H Photo Video",
    "SupplierNumber": "BLASDIMC"
  },
  {
    "OINumber": "0478613",
    "Supplier": "B & H Photo Video"
  },
  {
    "OINumber": "0478617",
    "Supplier": "B & H Photo Video",
    "SupplierNumber": "BLSVH4040"
  },
  {
    "OINumber": "0485446",
    "Supplier": "B & H Photo Video",
    "SupplierNumber": "BLDLQ2"
  },
  {
    "OINumber": "0487310",
    "Supplier": "B & H Photo Video",
    "SupplierNumber": "KAEXTAVIP120"
  },
  {
    "OINumber": "0488307",
    "Supplier": "B & H Photo Video",
    "SupplierNumber": "BLMCHDMISDI"
  },
  {
    "OINumber": "0496383",
    "Supplier": "B & H Photo Video",
    "SupplierNumber": "HOAP41SP"
  },
  {
    "OINumber": "0500948",
    "Supplier": "B & H Photo Video",
    "SupplierNumber": "PEDSVW775"
  },
  {
    "OINumber": "0507926",
    "Supplier": "B & H Photo Video",
    "SupplierNumber": "BLHDSHDM"
  },
  {
    "OINumber": "0507927",
    "Supplier": "B & H Photo Video"
  },
  {
    "OINumber": "0507928",
    "Supplier": "B & H Photo Video",
    "SupplierNumber": "BLTERMRS"
  },
  {
    "OINumber": "0536927",
    "Supplier": "B & H Photo Video"
  },
  {
    "OINumber": "0541596",
    "Supplier": "B & H Photo Video",
    "SupplierNumber": "BLACKRACK-2"
  },
  {
    "OINumber": "955000090",
    "Supplier": "B & H Photo Video",
    "SupplierNumber": "BEHD7006"
  },
  {
    "OINumber": "955000093",
    "Supplier": "B & H Photo Video",
    "SupplierNumber": "TR32GSDC500S"
  },
  {
    "OINumber": "955000502",
    "Supplier": "B & H Photo Video",
    "SupplierNumber": "WEBYVG0010BB"
  },
  {
    "OINumber": "970392154",
    "Supplier": "B & H Photo Video"
  },
  {
    "OINumber": "980034404",
    "Supplier": "B & H Photo Video",
    "SupplierNumber": "PE1660B"
  },
  {
    "OINumber": "980140555",
    "Supplier": "B & H Photo Video",
    "SupplierNumber": "PE1660FB"
  },
  {
    "OINumber": "990313205",
    "Supplier": "B & H Photo Video",
    "SupplierNumber": "PE1200FB / 1200-000-110"
  },
  {
    "OINumber": "CNVCHIFSB018BLK",
    "Supplier": "B & H Photo Video",
    "SupplierNumber": "FSB018BLK"
  },
  {
    "OINumber": "EP081-002-01",
    "Supplier": "B & H Photo Video",
    "SupplierNumber": "LOMK200"
  },
  {
    "OINumber": "ER051-001-01",
    "Supplier": "B & H Photo Video",
    "SupplierNumber": "MVC-FD200"
  }
]