﻿[
        {
            "OINumber": "990671597",
            "Supplier": "Coburn Supply Company, Inc.",
            "SupplierNumber": "50804004 OATEY 270210"
        },
        {
            "OINumber": "HT071-001-01",
            "Supplier": "Coburn Supply Company, Inc.",
            "SupplierNumber": "10 INCH SCH 40 - NO COLLAR"
        },
        {
            "OINumber": "HT071-002-01",
            "Supplier": "Coburn Supply Company, Inc.",
            "SupplierNumber": "WCAP10/SCH 40"
        }
    ]