﻿[
  {
    "Item": "0006022-AC",
    "Supplier": "Dynacon, Inc.",
    "Sup Itm ID": "MODEL 940"
  },
  {
    "Item": "0007046",
    "Supplier": "Dynacon, Inc.",
    "Sup Itm ID": "HD11-500230A512 (500230A5123ZAAAA)"
  },
  {
    "Item": "0007046-NP",
    "Supplier": "Dynacon, Inc.",
    "Sup Itm ID": "500230A5123ZAAAA"
  },
  {
    "Item": "0007935",
    "Supplier": "Dynacon, Inc.",
    "Sup Itm ID": "HD04-DYN600WS"
  },
  {
    "Item": "0007936",
    "Supplier": "Dynacon, Inc.",
    "Sup Itm ID": "HD04-DYN7500WS"
  },
  {
    "Item": "0007937",
    "Supplier": "Dynacon, Inc.",
    "Sup Itm ID": "HD04-DYN3000WS"
  },
  {
    "Item": "0007939",
    "Supplier": "Dynacon, Inc.",
    "Sup Itm ID": "HD-4-DYN5000WS"
  },
  {
    "Item": "0008060",
    "Supplier": "Dynacon, Inc.",
    "Sup Itm ID": "62K923"
  },
  {
    "Item": "0008072",
    "Supplier": "Dynacon, Inc.",
    "Sup Itm ID": "62K942C"
  },
  {
    "Item": "0008079",
    "Supplier": "Dynacon, Inc.",
    "Sup Itm ID": "43586AM7"
  },
  {
    "Item": "0008610",
    "Supplier": "Dynacon, Inc.",
    "Sup Itm ID": "M6021-6006-31 F"
  },
  {
    "Item": "0009050",
    "Supplier": "Dynacon, Inc.",
    "Sup Itm ID": "832"
  },
  {
    "Item": "0009051",
    "Supplier": "Dynacon, Inc.",
    "Sup Itm ID": "850"
  },
  {
    "Item": "0009105",
    "Supplier": "Dynacon, Inc.",
    "Sup Itm ID": "EL10-98A535"
  },
  {
    "Item": "0009359",
    "Supplier": "Dynacon, Inc.",
    "Sup Itm ID": "M421-2006-09"
  },
  {
    "Item": "0009361",
    "Supplier": "Dynacon, Inc.",
    "Sup Itm ID": "M421-2006-15"
  },
  {
    "Item": "0009362",
    "Supplier": "Dynacon, Inc.",
    "Sup Itm ID": "M421-2006-17"
  },
  {
    "Item": "0010032-1",
    "Supplier": "Dynacon, Inc.",
    "Sup Itm ID": "3TF5222-OAK6-D"
  },
  {
    "Item": "0011297",
    "Supplier": "Dynacon, Inc.",
    "Sup Itm ID": "M6010-5101-01(MP1-2H-CR-4X25)"
  },
  {
    "Item": "0011298",
    "Supplier": "Dynacon, Inc.",
    "Sup Itm ID": "706-00046-251"
  },
  {
    "Item": "0011299",
    "Supplier": "Dynacon, Inc.",
    "Sup Itm ID": "39131-19"
  },
  {
    "Item": "0011300",
    "Supplier": "Dynacon, Inc.",
    "Sup Itm ID": "006-00085-005"
  },
  {
    "Item": "0015087",
    "Supplier": "Dynacon, Inc.",
    "Sup Itm ID": "5204-1.34"
  },
  {
    "Item": "0015089",
    "Supplier": "Dynacon, Inc.",
    "Sup Itm ID": "5204-1.58"
  },
  {
    "Item": "0015410",
    "Supplier": "Dynacon, Inc.",
    "Sup Itm ID": "EL08-1251310111"
  },
  {
    "Item": "0015448",
    "Supplier": "Dynacon, Inc.",
    "Sup Itm ID": "S664-200"
  },
  {
    "Item": "0015509",
    "Supplier": "Dynacon, Inc.",
    "Sup Itm ID": "HD04-DYN60WS"
  },
  {
    "Item": "0015524",
    "Supplier": "Dynacon, Inc.",
    "Sup Itm ID": "DYN-1008-12 2-4 RH"
  },
  {
    "Item": "0015613",
    "Supplier": "Dynacon, Inc.",
    "Sup Itm ID": "32214"
  },
  {
    "Item": "0015619",
    "Supplier": "Dynacon, Inc.",
    "Sup Itm ID": "10110LUP"
  },
  {
    "Item": "0015620",
    "Supplier": "Dynacon, Inc.",
    "Sup Itm ID": "11758LUP"
  },
  {
    "Item": "0016970",
    "Supplier": "Dynacon, Inc.",
    "Sup Itm ID": "A2FE107/61W-NZL100"
  },
  {
    "Item": "0016971",
    "Supplier": "Dynacon, Inc.",
    "Sup Itm ID": "A6VE107/HA1T-63W-VZL020A"
  },
  {
    "Item": "0016971NC",
    "Supplier": "Dynacon, Inc.",
    "Sup Itm ID": "A6VE107/HA1T-63W-VZL020A"
  },
  {
    "Item": "0020353",
    "Supplier": "Dynacon, Inc.",
    "Sup Itm ID": "6210 JEM"
  },
  {
    "Item": "0026008",
    "Supplier": "Dynacon, Inc.",
    "Sup Itm ID": "DYN-5007-03"
  },
  {
    "Item": "0026380",
    "Supplier": "Dynacon, Inc.",
    "Sup Itm ID": "M421-2006-50"
  },
  {
    "Item": "0029174-2",
    "Supplier": "Dynacon, Inc.",
    "Sup Itm ID": "PT04-7501S-A"
  },
  {
    "Item": "0029174-3",
    "Supplier": "Dynacon, Inc.",
    "Sup Itm ID": "502-075100-0001"
  },
  {
    "Item": "0029432",
    "Supplier": "Dynacon, Inc."
  },
  {
    "Item": "0030421",
    "Supplier": "Dynacon, Inc.",
    "Sup Itm ID": "MS01-DD8X8"
  },
  {
    "Item": "0031333",
    "Supplier": "Dynacon, Inc."
  },
  {
    "Item": "0031432",
    "Supplier": "Dynacon, Inc.",
    "Sup Itm ID": "DYN-1008-10 3-2 RH 0000509-00"
  },
  {
    "Item": "0031525",
    "Supplier": "Dynacon, Inc.",
    "Sup Itm ID": "1818"
  },
  {
    "Item": "0031525-1",
    "Supplier": "Dynacon, Inc.",
    "Sup Itm ID": "602-075500-7500 (BA020755007500)"
  },
  {
    "Item": "0031530",
    "Supplier": "Dynacon, Inc.",
    "Sup Itm ID": "125-1131-403"
  },
  {
    "Item": "0031531",
    "Supplier": "Dynacon, Inc.",
    "Sup Itm ID": "ZCK"
  },
  {
    "Item": "0031551",
    "Supplier": "Dynacon, Inc.",
    "Sup Itm ID": "Z788"
  },
  {
    "Item": "0031657",
    "Supplier": "Dynacon, Inc.",
    "Sup Itm ID": "NFS110-7602P"
  },
  {
    "Item": "0031659",
    "Supplier": "Dynacon, Inc.",
    "Sup Itm ID": "3UA6201-3K-D"
  },
  {
    "Item": "0031664",
    "Supplier": "Dynacon, Inc.",
    "Sup Itm ID": "3UG3064-1AR7"
  },
  {
    "Item": "0031666",
    "Supplier": "Dynacon, Inc.",
    "Sup Itm ID": "CP720-1-B-6S-125-S1"
  },
  {
    "Item": "0031667",
    "Supplier": "Dynacon, Inc.",
    "Sup Itm ID": "B-121-120"
  },
  {
    "Item": "0031826",
    "Supplier": "Dynacon, Inc.",
    "Sup Itm ID": "660157"
  },
  {
    "Item": "0031827",
    "Supplier": "Dynacon, Inc.",
    "Sup Itm ID": "65404"
  },
  {
    "Item": "0032921",
    "Supplier": "Dynacon, Inc.",
    "Sup Itm ID": "EL07-3AG04250F"
  },
  {
    "Item": "0033040R",
    "Supplier": "Dynacon, Inc."
  },
  {
    "Item": "0056203",
    "Supplier": "Dynacon, Inc.",
    "Sup Itm ID": "98401A520"
  },
  {
    "Item": "0202949",
    "Supplier": "Dynacon, Inc.",
    "Sup Itm ID": "602-090500-9014 ASSY#1701"
  },
  {
    "Item": "0203028",
    "Supplier": "Dynacon, Inc.",
    "Sup Itm ID": "602-090504-9005 ASSY#1701"
  },
  {
    "Item": "0203031",
    "Supplier": "Dynacon, Inc.",
    "Sup Itm ID": "502-090100-0042 ASSY#1701"
  },
  {
    "Item": "0205495",
    "Supplier": "Dynacon, Inc.",
    "Sup Itm ID": "8510022-1"
  },
  {
    "Item": "0207275",
    "Supplier": "Dynacon, Inc.",
    "Sup Itm ID": "A6VE160HA2T-63W-VAL020A"
  },
  {
    "Item": "0208728",
    "Supplier": "Dynacon, Inc.",
    "Sup Itm ID": "M421-2006-12-3.375"
  },
  {
    "Item": "0208729",
    "Supplier": "Dynacon, Inc.",
    "Sup Itm ID": "M421-2006-16"
  },
  {
    "Item": "0209549",
    "Supplier": "Dynacon, Inc.",
    "Sup Itm ID": "500444001"
  },
  {
    "Item": "0209728",
    "Supplier": "Dynacon, Inc.",
    "Sup Itm ID": "HD11-R909831663"
  },
  {
    "Item": "0209783",
    "Supplier": "Dynacon, Inc.",
    "Sup Itm ID": "KVFBA8214"
  },
  {
    "Item": "0210096",
    "Supplier": "Dynacon, Inc.",
    "Sup Itm ID": "521XLSD-OI + 521XLSC-OI"
  },
  {
    "Item": "0210504",
    "Supplier": "Dynacon, Inc.",
    "Sup Itm ID": "90R100KA1CD60L4F1E03GBA262624"
  },
  {
    "Item": "0210514",
    "Supplier": "Dynacon, Inc.",
    "Sup Itm ID": "S90R130IS1CD80L4F1F00GBA382624"
  },
  {
    "Item": "0217545",
    "Supplier": "Dynacon, Inc.",
    "Sup Itm ID": "104-1002-006"
  },
  {
    "Item": "0218074",
    "Supplier": "Dynacon, Inc.",
    "Sup Itm ID": "HD13-3S0F144390"
  },
  {
    "Item": "0219070",
    "Supplier": "Dynacon, Inc.",
    "Sup Itm ID": "M421-2008-10"
  },
  {
    "Item": "0219071",
    "Supplier": "Dynacon, Inc.",
    "Sup Itm ID": "M421-2008-11"
  },
  {
    "Item": "0219072",
    "Supplier": "Dynacon, Inc.",
    "Sup Itm ID": "M421-2008-12"
  },
  {
    "Item": "0219073",
    "Supplier": "Dynacon, Inc.",
    "Sup Itm ID": "M421-2008-17"
  },
  {
    "Item": "0219074",
    "Supplier": "Dynacon, Inc.",
    "Sup Itm ID": "DYN-2008-15"
  },
  {
    "Item": "0219075",
    "Supplier": "Dynacon, Inc.",
    "Sup Itm ID": "M421-2008-15"
  },
  {
    "Item": "0219076",
    "Supplier": "Dynacon, Inc.",
    "Sup Itm ID": "M421-2008-13"
  },
  {
    "Item": "0219077",
    "Supplier": "Dynacon, Inc.",
    "Sup Itm ID": "M421-2008-14"
  },
  {
    "Item": "0219078",
    "Supplier": "Dynacon, Inc.",
    "Sup Itm ID": "M421-2008-03"
  },
  {
    "Item": "0219199",
    "Supplier": "Dynacon, Inc.",
    "Sup Itm ID": "B-1002-C4-F-CN-B-Z"
  },
  {
    "Item": "0219303",
    "Supplier": "Dynacon, Inc.",
    "Sup Itm ID": "GB01-FA5522DOB"
  },
  {
    "Item": "0264477",
    "Supplier": "Dynacon, Inc.",
    "Sup Itm ID": "HD13-88004852400"
  },
  {
    "Item": "0268090",
    "Supplier": "Dynacon, Inc.",
    "Sup Itm ID": "90R100IS1CD60L4F1E03GBA262624"
  },
  {
    "Item": "0271436",
    "Supplier": "Dynacon, Inc.",
    "Sup Itm ID": "SW4521XL CENELEC"
  },
  {
    "Item": "0272260",
    "Supplier": "Dynacon, Inc.",
    "Sup Itm ID": "M421-2001-01"
  },
  {
    "Item": "0272261",
    "Supplier": "Dynacon, Inc.",
    "Sup Itm ID": "M521XL-2001-01"
  },
  {
    "Item": "0272262",
    "Supplier": "Dynacon, Inc.",
    "Sup Itm ID": "M421-1007-60"
  },
  {
    "Item": "0272559",
    "Supplier": "Dynacon, Inc.",
    "Sup Itm ID": "6022"
  },
  {
    "Item": "0273329",
    "Supplier": "Dynacon, Inc."
  },
  {
    "Item": "0273329-03",
    "Supplier": "Dynacon, Inc.",
    "Sup Itm ID": "DY97001-072-04"
  },
  {
    "Item": "0273329-04",
    "Supplier": "Dynacon, Inc.",
    "Sup Itm ID": "EE05-IME3015FNKG"
  },
  {
    "Item": "0273922",
    "Supplier": "Dynacon, Inc.",
    "Sup Itm ID": "062K-942"
  },
  {
    "Item": "0277428",
    "Supplier": "Dynacon, Inc.",
    "Sup Itm ID": "HD13-99091 CEI"
  },
  {
    "Item": "0277686",
    "Supplier": "Dynacon, Inc.",
    "Sup Itm ID": "EL08-EK0757"
  },
  {
    "Item": "0279126",
    "Supplier": "Dynacon, Inc.",
    "Sup Itm ID": "421D3SD-OI + 421/421D3SC271-OI"
  },
  {
    "Item": "0279127",
    "Supplier": "Dynacon, Inc.",
    "Sup Itm ID": "421SD-OI + 421/421D3SC271-OI"
  },
  {
    "Item": "0279341",
    "Supplier": "Dynacon, Inc.",
    "Sup Itm ID": "GB01-F5522XXXX"
  },
  {
    "Item": "0280530",
    "Supplier": "Dynacon, Inc.",
    "Sup Itm ID": "3RW3466-0DC34"
  },
  {
    "Item": "0280559",
    "Supplier": "Dynacon, Inc."
  },
  {
    "Item": "0284202",
    "Supplier": "Dynacon, Inc.",
    "Sup Itm ID": "90R130KA5CD80L4F1F03GBA141424"
  },
  {
    "Item": "0284898",
    "Supplier": "Dynacon, Inc.",
    "Sup Itm ID": "M421-2105-10"
  },
  {
    "Item": "0285203",
    "Supplier": "Dynacon, Inc.",
    "Sup Itm ID": "30414840100 TO INCL. EXTERNAL & INTERNAL C-CLIPS"
  },
  {
    "Item": "0285371",
    "Supplier": "Dynacon, Inc.",
    "Sup Itm ID": "M6021-5101-01"
  },
  {
    "Item": "0285440",
    "Supplier": "Dynacon, Inc.",
    "Sup Itm ID": "FP521XL200810"
  },
  {
    "Item": "0285662",
    "Supplier": "Dynacon, Inc.",
    "Sup Itm ID": "HD13-CEL"
  },
  {
    "Item": "0286404",
    "Supplier": "Dynacon, Inc.",
    "Sup Itm ID": "0000207-00 (HD13-RPGELAN)"
  },
  {
    "Item": "0286702",
    "Supplier": "Dynacon, Inc.",
    "Sup Itm ID": "EE01-Z787"
  },
  {
    "Item": "0287290",
    "Supplier": "Dynacon, Inc.",
    "Sup Itm ID": "DYN-8061-01"
  },
  {
    "Item": "0287290-1",
    "Supplier": "Dynacon, Inc.",
    "Sup Itm ID": "DYN-8061-02"
  },
  {
    "Item": "0287433",
    "Supplier": "Dynacon, Inc.",
    "Sup Itm ID": "HD13-99089"
  },
  {
    "Item": "0287917",
    "Supplier": "Dynacon, Inc.",
    "Sup Itm ID": "EE01-KFA5SR2EX2"
  },
  {
    "Item": "0287922",
    "Supplier": "Dynacon, Inc.",
    "Sup Itm ID": "HD13-1906R-0.030"
  },
  {
    "Item": "0288817",
    "Supplier": "Dynacon, Inc.",
    "Sup Itm ID": "3RT1056-6AF36-D"
  },
  {
    "Item": "0288818",
    "Supplier": "Dynacon, Inc.",
    "Sup Itm ID": "3RB2056-1FC2"
  },
  {
    "Item": "0288819",
    "Supplier": "Dynacon, Inc.",
    "Sup Itm ID": "DBCV-20-02"
  },
  {
    "Item": "0288859",
    "Supplier": "Dynacon, Inc.",
    "Sup Itm ID": "PT04-7595"
  },
  {
    "Item": "0288859-1",
    "Supplier": "Dynacon, Inc.",
    "Sup Itm ID": "PT04-7501K-A"
  },
  {
    "Item": "0289084",
    "Supplier": "Dynacon, Inc.",
    "Sup Itm ID": "PT04-7501K-C"
  },
  {
    "Item": "0289506",
    "Supplier": "Dynacon, Inc."
  },
  {
    "Item": "0289613",
    "Supplier": "Dynacon, Inc.",
    "Sup Itm ID": "TBD"
  },
  {
    "Item": "0289655",
    "Supplier": "Dynacon, Inc.",
    "Sup Itm ID": "MS01-1293K12"
  },
  {
    "Item": "0291079",
    "Supplier": "Dynacon, Inc.",
    "Sup Itm ID": "EM1045/MR2/6/A/CS"
  },
  {
    "Item": "0291784",
    "Supplier": "Dynacon, Inc.",
    "Sup Itm ID": "PT08-100E28"
  },
  {
    "Item": "0291785",
    "Supplier": "Dynacon, Inc.",
    "Sup Itm ID": "PT08-E2.37X5/8K"
  },
  {
    "Item": "0291786",
    "Supplier": "Dynacon, Inc.",
    "Sup Itm ID": "PT03-100H"
  },
  {
    "Item": "0292489",
    "Supplier": "Dynacon, Inc.",
    "Sup Itm ID": "EL 10-201A"
  },
  {
    "Item": "0292490",
    "Supplier": "Dynacon, Inc.",
    "Sup Itm ID": "EL07-3AG05250F (0000462-00)"
  },
  {
    "Item": "0292491",
    "Supplier": "Dynacon, Inc.",
    "Sup Itm ID": "EL07-3AG20032F"
  },
  {
    "Item": "0292645",
    "Supplier": "Dynacon, Inc.",
    "Sup Itm ID": "EL07-3AG03250F"
  },
  {
    "Item": "0292646",
    "Supplier": "Dynacon, Inc.",
    "Sup Itm ID": "EL07-3AG10250F"
  },
  {
    "Item": "0295485",
    "Supplier": "Dynacon, Inc.",
    "Sup Itm ID": "MS01-184LTT240"
  },
  {
    "Item": "0295486",
    "Supplier": "Dynacon, Inc.",
    "Sup Itm ID": "MSP 314-LTT-2-70\""
  },
  {
    "Item": "0296341",
    "Supplier": "Dynacon, Inc.",
    "Sup Itm ID": "M421D3-2301-01"
  },
  {
    "Item": "0296341",
    "Supplier": "Dynacon, Inc.",
    "Sup Itm ID": "M421D3-2301-01"
  },
  {
    "Item": "0296341-LH",
    "Supplier": "Dynacon, Inc.",
    "Sup Itm ID": "M421D3-2301-01-LEFT"
  },
  {
    "Item": "0296341-LH",
    "Supplier": "Dynacon, Inc.",
    "Sup Itm ID": "M421D3-2301-01-LEFT"
  },
  {
    "Item": "0297022",
    "Supplier": "Dynacon, Inc.",
    "Sup Itm ID": "M521XL-2100-01"
  },
  {
    "Item": "0297022",
    "Supplier": "Dynacon, Inc.",
    "Sup Itm ID": "M521XL-2100-01"
  },
  {
    "Item": "0297022-LH",
    "Supplier": "Dynacon, Inc.",
    "Sup Itm ID": "M521XL-2100-01-LEFT"
  },
  {
    "Item": "0297022-LH",
    "Supplier": "Dynacon, Inc.",
    "Sup Itm ID": "M521XL-2100-01-LEFT"
  },
  {
    "Item": "0298681",
    "Supplier": "Dynacon, Inc.",
    "Sup Itm ID": "HD13-YCL"
  },
  {
    "Item": "0298690",
    "Supplier": "Dynacon, Inc.",
    "Sup Itm ID": "HD13-LAL"
  },
  {
    "Item": "0298732",
    "Supplier": "Dynacon, Inc.",
    "Sup Itm ID": "HD02-ADAHST20CI"
  },
  {
    "Item": "0298916",
    "Supplier": "Dynacon, Inc.",
    "Sup Itm ID": "HD11-530375W31Z"
  },
  {
    "Item": "0299935",
    "Supplier": "Dynacon, Inc.",
    "Sup Itm ID": "EL12-52RA1A2"
  },
  {
    "Item": "0299936",
    "Supplier": "Dynacon, Inc.",
    "Sup Itm ID": "EL12-52RA1A3"
  },
  {
    "Item": "0300019",
    "Supplier": "Dynacon, Inc.",
    "Sup Itm ID": "721XL"
  },
  {
    "Item": "0300020",
    "Supplier": "Dynacon, Inc."
  },
  {
    "Item": "0300021",
    "Supplier": "Dynacon, Inc."
  },
  {
    "Item": "0300022",
    "Supplier": "Dynacon, Inc."
  },
  {
    "Item": "0300571",
    "Supplier": "Dynacon, Inc.",
    "Sup Itm ID": "PPDB-LAN-WRQ"
  },
  {
    "Item": "0302073",
    "Supplier": "Dynacon, Inc.",
    "Sup Itm ID": "HY-MP3-8.00X64.00-NC-4.50-3-U-DN13504"
  },
  {
    "Item": "0304081",
    "Supplier": "Dynacon, Inc.",
    "Sup Itm ID": "0160D010BH4HC"
  },
  {
    "Item": "0304083",
    "Supplier": "Dynacon, Inc.",
    "Sup Itm ID": "0240D010BH4HC"
  },
  {
    "Item": "0309476",
    "Supplier": "Dynacon, Inc.",
    "Sup Itm ID": "M6023-6001-01"
  },
  {
    "Item": "0309477",
    "Supplier": "Dynacon, Inc.",
    "Sup Itm ID": "EE08-DY98003"
  },
  {
    "Item": "0310099",
    "Supplier": "Dynacon, Inc.",
    "Sup Itm ID": "HD17-SCL25131"
  },
  {
    "Item": "0310099-1",
    "Supplier": "Dynacon, Inc.",
    "Sup Itm ID": "HD17-9640327"
  },
  {
    "Item": "0310099-2",
    "Supplier": "Dynacon, Inc.",
    "Sup Itm ID": "HD17-3105A1171"
  },
  {
    "Item": "0310099-3",
    "Supplier": "Dynacon, Inc.",
    "Sup Itm ID": "HD17-9684003"
  },
  {
    "Item": "0310099-4",
    "Supplier": "Dynacon, Inc.",
    "Sup Itm ID": "HD17-2230U1191"
  },
  {
    "Item": "0310099-5",
    "Supplier": "Dynacon, Inc.",
    "Sup Itm ID": "HD17-9684796"
  },
  {
    "Item": "0310099-6",
    "Supplier": "Dynacon, Inc.",
    "Sup Itm ID": "HD17-9685214"
  },
  {
    "Item": "0310099-7",
    "Supplier": "Dynacon, Inc.",
    "Sup Itm ID": "HD17-9680598"
  },
  {
    "Item": "0310099-8",
    "Supplier": "Dynacon, Inc.",
    "Sup Itm ID": "HD17-9684001"
  },
  {
    "Item": "0310226",
    "Supplier": "Dynacon, Inc.",
    "Sup Itm ID": "DFFHBH/HC240G10BM1.0/12 A8.  HYDAC P/N: 2083562"
  },
  {
    "Item": "0310228",
    "Supplier": "Dynacon, Inc.",
    "Sup Itm ID": "DFFHBH/HC160G10BM1.1/12 A8.  HYDAC P/N: 2083559"
  },
  {
    "Item": "0310654",
    "Supplier": "Dynacon, Inc."
  },
  {
    "Item": "0310654",
    "Supplier": "Dynacon, Inc."
  },
  {
    "Item": "0312363",
    "Supplier": "Dynacon, Inc.",
    "Sup Itm ID": "90R075KA1C6L3S1D03GBA262624"
  },
  {
    "Item": "0314552",
    "Supplier": "Dynacon, Inc.",
    "Sup Itm ID": "0801-9001-08"
  },
  {
    "Item": "0318980",
    "Supplier": "Dynacon, Inc.",
    "Sup Itm ID": "HD13-MCV116C3101"
  },
  {
    "Item": "0323820",
    "Supplier": "Dynacon, Inc.",
    "Sup Itm ID": "521XL-2006-05-3.094"
  },
  {
    "Item": "0323829",
    "Supplier": "Dynacon, Inc.",
    "Sup Itm ID": "M521XL-2006-04 ITEM G"
  },
  {
    "Item": "0323914",
    "Supplier": "Dynacon, Inc.",
    "Sup Itm ID": "MCH11AB1032"
  },
  {
    "Item": "0323923",
    "Supplier": "Dynacon, Inc.",
    "Sup Itm ID": "EL12-12SHSND PRESET TO 240 INCREASE"
  },
  {
    "Item": "0323927",
    "Supplier": "Dynacon, Inc.",
    "Sup Itm ID": "0008181-00 (OLD#HD13-CXFAXCN)"
  },
  {
    "Item": "0323929",
    "Supplier": "Dynacon, Inc.",
    "Sup Itm ID": "HD11-SMA0500-C1122B"
  },
  {
    "Item": "0323930",
    "Supplier": "Dynacon, Inc.",
    "Sup Itm ID": "HD11-SMA2000C12"
  },
  {
    "Item": "0323931",
    "Supplier": "Dynacon, Inc.",
    "Sup Itm ID": "HD11-A6VM355/B"
  },
  {
    "Item": "0323935",
    "Supplier": "Dynacon, Inc.",
    "Sup Itm ID": "EL17-1003AM2200"
  },
  {
    "Item": "0323936",
    "Supplier": "Dynacon, Inc.",
    "Sup Itm ID": "HD13-99076"
  },
  {
    "Item": "0323937",
    "Supplier": "Dynacon, Inc.",
    "Sup Itm ID": "DYN-9005-10"
  },
  {
    "Item": "0323938",
    "Supplier": "Dynacon, Inc.",
    "Sup Itm ID": "0000517-00 M721XL-2006-11"
  },
  {
    "Item": "0323939",
    "Supplier": "Dynacon, Inc.",
    "Sup Itm ID": "HD08-0660D010BH"
  },
  {
    "Item": "0327437",
    "Supplier": "Dynacon, Inc.",
    "Sup Itm ID": "A2FE180/61W-VAL100"
  },
  {
    "Item": "0327437-2",
    "Supplier": "Dynacon, Inc.",
    "Sup Itm ID": "0000135-00"
  },
  {
    "Item": "0328770",
    "Supplier": "Dynacon, Inc.",
    "Sup Itm ID": "EL14-TB81210"
  },
  {
    "Item": "0329438",
    "Supplier": "Dynacon, Inc.",
    "Sup Itm ID": "DY96001-012-02"
  },
  {
    "Item": "0331876",
    "Supplier": "Dynacon, Inc.",
    "Sup Itm ID": "FS07-M421210605"
  },
  {
    "Item": "0332034",
    "Supplier": "Dynacon, Inc.",
    "Sup Itm ID": "M6021-5201-01"
  },
  {
    "Item": "0332035",
    "Supplier": "Dynacon, Inc.",
    "Sup Itm ID": "M6021-5101-01"
  },
  {
    "Item": "0332711",
    "Supplier": "Dynacon, Inc.",
    "Sup Itm ID": "MD1K-3TA/21N-D24K5"
  },
  {
    "Item": "0332712",
    "Supplier": "Dynacon, Inc.",
    "Sup Itm ID": "MD1K-S3/21N-D24K5"
  },
  {
    "Item": "0332868",
    "Supplier": "Dynacon, Inc.",
    "Sup Itm ID": "MCE101A1107"
  },
  {
    "Item": "0332871",
    "Supplier": "Dynacon, Inc.",
    "Sup Itm ID": "MCV116C1201"
  },
  {
    "Item": "0333395",
    "Supplier": "Dynacon, Inc.",
    "Sup Itm ID": "GAJ/S"
  },
  {
    "Item": "0333447",
    "Supplier": "Dynacon, Inc.",
    "Sup Itm ID": "EL01-T18BG54BC"
  },
  {
    "Item": "0336280",
    "Supplier": "Dynacon, Inc.",
    "Sup Itm ID": "010018-8001-01"
  },
  {
    "Item": "0338308",
    "Supplier": "Dynacon, Inc.",
    "Sup Itm ID": "EL12-10F12M511"
  },
  {
    "Item": "0339406",
    "Supplier": "Dynacon, Inc.",
    "Sup Itm ID": "EE04-DSP10024"
  },
  {
    "Item": "0339406",
    "Supplier": "Dynacon, Inc.",
    "Sup Itm ID": "EE04-DSP10024"
  },
  {
    "Item": "0340343",
    "Supplier": "Dynacon, Inc.",
    "Sup Itm ID": "Q902074.OII"
  },
  {
    "Item": "0341020",
    "Supplier": "Dynacon, Inc.",
    "Sup Itm ID": "HD08-P166603"
  },
  {
    "Item": "0341023",
    "Supplier": "Dynacon, Inc.",
    "Sup Itm ID": "DYN-2004-05"
  },
  {
    "Item": "0341475",
    "Supplier": "Dynacon, Inc.",
    "Sup Itm ID": "1069-2001-10"
  },
  {
    "Item": "0341475-1",
    "Supplier": "Dynacon, Inc.",
    "Sup Itm ID": "1069-2007-20"
  },
  {
    "Item": "0341475-P",
    "Supplier": "Dynacon, Inc.",
    "Sup Itm ID": "1069-2001-05"
  },
  {
    "Item": "0341475-P-1",
    "Supplier": "Dynacon, Inc.",
    "Sup Itm ID": "1069-2007-01"
  },
  {
    "Item": "0347945",
    "Supplier": "Dynacon, Inc.",
    "Sup Itm ID": "M721XL-1103-01"
  },
  {
    "Item": "0348005",
    "Supplier": "Dynacon, Inc.",
    "Sup Itm ID": "M721XL-1007-90"
  },
  {
    "Item": "0348444",
    "Supplier": "Dynacon, Inc.",
    "Sup Itm ID": "M7021-6004-23"
  },
  {
    "Item": "0348445",
    "Supplier": "Dynacon, Inc.",
    "Sup Itm ID": "M7021-6004-24"
  },
  {
    "Item": "0352032",
    "Supplier": "Dynacon, Inc."
  },
  {
    "Item": "0352033",
    "Supplier": "Dynacon, Inc."
  },
  {
    "Item": "0352631",
    "Supplier": "Dynacon, Inc.",
    "Sup Itm ID": "M421-2105-19"
  },
  {
    "Item": "0352632",
    "Supplier": "Dynacon, Inc.",
    "Sup Itm ID": "FS10-175CJNUT"
  },
  {
    "Item": "0353414",
    "Supplier": "Dynacon, Inc.",
    "Sup Itm ID": "HPSD100B"
  },
  {
    "Item": "0355362",
    "Supplier": "Dynacon, Inc.",
    "Sup Itm ID": "BR01-3100250SS"
  },
  {
    "Item": "0355549",
    "Supplier": "Dynacon, Inc.",
    "Sup Itm ID": "SMA0200-C1"
  },
  {
    "Item": "0356237",
    "Supplier": "Dynacon, Inc.",
    "Sup Itm ID": "M421-2008-19"
  },
  {
    "Item": "0356851",
    "Supplier": "Dynacon, Inc.",
    "Sup Itm ID": "0330D010BH4HC"
  },
  {
    "Item": "0357156",
    "Supplier": "Dynacon, Inc.",
    "Sup Itm ID": "SMA-0350-C1-106"
  },
  {
    "Item": "0358858",
    "Supplier": "Dynacon, Inc.",
    "Sup Itm ID": "377-2008-06"
  },
  {
    "Item": "0367326",
    "Supplier": "Dynacon, Inc.",
    "Sup Itm ID": "M7021-5101-01"
  },
  {
    "Item": "0367479",
    "Supplier": "Dynacon, Inc.",
    "Sup Itm ID": "SD18/4/P(KG3-120)/28L180/AEK-SAE"
  },
  {
    "Item": "0367550",
    "Supplier": "Dynacon, Inc.",
    "Sup Itm ID": "HD01-A50907QB03"
  },
  {
    "Item": "0367553",
    "Supplier": "Dynacon, Inc.",
    "Sup Itm ID": "M6021-5301-30"
  },
  {
    "Item": "0367554",
    "Supplier": "Dynacon, Inc.",
    "Sup Itm ID": "M6021-5201-30"
  },
  {
    "Item": "0368067",
    "Supplier": "Dynacon, Inc.",
    "Sup Itm ID": "0000582-00"
  },
  {
    "Item": "0369819",
    "Supplier": "Dynacon, Inc.",
    "Sup Itm ID": "MS02-90298A708"
  },
  {
    "Item": "0370982",
    "Supplier": "Dynacon, Inc.",
    "Sup Itm ID": "543-2005-07"
  },
  {
    "Item": "0371033",
    "Supplier": "Dynacon, Inc.",
    "Sup Itm ID": "EE05-IME2020FBO"
  },
  {
    "Item": "0372026",
    "Supplier": "Dynacon, Inc.",
    "Sup Itm ID": "HD13-062F156C"
  },
  {
    "Item": "0372027",
    "Supplier": "Dynacon, Inc.",
    "Sup Itm ID": "HD13-062F292C"
  },
  {
    "Item": "0372028",
    "Supplier": "Dynacon, Inc.",
    "Sup Itm ID": "HD13-078219D"
  },
  {
    "Item": "0374261",
    "Supplier": "Dynacon, Inc.",
    "Sup Itm ID": "HD11-1121060"
  },
  {
    "Item": "0374963",
    "Supplier": "Dynacon, Inc.",
    "Sup Itm ID": "SDS180/2/AC(XG-70)/PH-28L/PH-28L/RK-SAE"
  },
  {
    "Item": "0374964",
    "Supplier": "Dynacon, Inc.",
    "Sup Itm ID": "SDS180/5/AC(YG3-225)/PH-28L/PH-28L/PH-28L/PH-211L/"
  },
  {
    "Item": "0376546",
    "Supplier": "Dynacon, Inc.",
    "Sup Itm ID": "HD13-D1VWA020BN"
  },
  {
    "Item": "0376628",
    "Supplier": "Dynacon, Inc.",
    "Sup Itm ID": "EL12-HT19A86R"
  },
  {
    "Item": "0376680",
    "Supplier": "Dynacon, Inc.",
    "Sup Itm ID": "DYN-2008-39"
  },
  {
    "Item": "0376801",
    "Supplier": "Dynacon, Inc.",
    "Sup Itm ID": "EL04-3GZF304128"
  },
  {
    "Item": "0376802",
    "Supplier": "Dynacon, Inc.",
    "Sup Itm ID": "EL04-FSTB80X2.5"
  },
  {
    "Item": "0376823",
    "Supplier": "Dynacon, Inc.",
    "Sup Itm ID": "AOCS-1005-9"
  },
  {
    "Item": "0376832",
    "Supplier": "Dynacon, Inc.",
    "Sup Itm ID": "HD06-BOL120029 BOL-1200-2-9"
  },
  {
    "Item": "0376833",
    "Supplier": "Dynacon, Inc.",
    "Sup Itm ID": "110-5001"
  },
  {
    "Item": "0377422",
    "Supplier": "Dynacon, Inc.",
    "Sup Itm ID": "157B4033"
  },
  {
    "Item": "0377935",
    "Supplier": "Dynacon, Inc.",
    "Sup Itm ID": "HD13-C3314"
  },
  {
    "Item": "0377938-1",
    "Supplier": "Dynacon, Inc.",
    "Sup Itm ID": "QCN/S W/TEST PORTS"
  },
  {
    "Item": "0378298",
    "Supplier": "Dynacon, Inc.",
    "Sup Itm ID": "MS02-90298A728"
  },
  {
    "Item": "0378740",
    "Supplier": "Dynacon, Inc.",
    "Sup Itm ID": "BR06-040682"
  },
  {
    "Item": "0378992",
    "Supplier": "Dynacon, Inc.",
    "Sup Itm ID": "M6021-6007-54"
  },
  {
    "Item": "0379055",
    "Supplier": "Dynacon, Inc.",
    "Sup Itm ID": "M3011-3101-01"
  },
  {
    "Item": "0379801",
    "Supplier": "Dynacon, Inc.",
    "Sup Itm ID": "FW5.16"
  },
  {
    "Item": "0381836",
    "Supplier": "Dynacon, Inc.",
    "Sup Itm ID": "M6023-6006-41"
  },
  {
    "Item": "0383829",
    "Supplier": "Dynacon, Inc.",
    "Sup Itm ID": "EL08-CR13047991"
  },
  {
    "Item": "0384009",
    "Supplier": "Dynacon, Inc.",
    "Sup Itm ID": "521XL-1003-01"
  },
  {
    "Item": "0384009",
    "Supplier": "Dynacon, Inc.",
    "Sup Itm ID": "521XL-1003-01"
  },
  {
    "Item": "0384010",
    "Supplier": "Dynacon, Inc.",
    "Sup Itm ID": "521XL-1001-02"
  },
  {
    "Item": "0384011",
    "Supplier": "Dynacon, Inc.",
    "Sup Itm ID": "521XL-1007-01"
  },
  {
    "Item": "0384011",
    "Supplier": "Dynacon, Inc.",
    "Sup Itm ID": "521XL-1007-01"
  },
  {
    "Item": "0384011-AHC",
    "Supplier": "Dynacon, Inc.",
    "Sup Itm ID": "M521XL-W-AHC-01"
  },
  {
    "Item": "0384012",
    "Supplier": "Dynacon, Inc.",
    "Sup Itm ID": "M721XL-1007-90"
  },
  {
    "Item": "0384013",
    "Supplier": "Dynacon, Inc.",
    "Sup Itm ID": "M721XL-1103-01"
  },
  {
    "Item": "0384013",
    "Supplier": "Dynacon, Inc.",
    "Sup Itm ID": "M721XL-1103-01"
  },
  {
    "Item": "0384014",
    "Supplier": "Dynacon, Inc.",
    "Sup Itm ID": "M3021-3101-01 ZONE II RATED"
  },
  {
    "Item": "0384014",
    "Supplier": "Dynacon, Inc.",
    "Sup Itm ID": "M3021-3101-01 ZONE II RATED"
  },
  {
    "Item": "0384015",
    "Supplier": "Dynacon, Inc.",
    "Sup Itm ID": "M721XL-1101-02"
  },
  {
    "Item": "0384016",
    "Supplier": "Dynacon, Inc.",
    "Sup Itm ID": "M721XL-1007-01"
  },
  {
    "Item": "0384016",
    "Supplier": "Dynacon, Inc.",
    "Sup Itm ID": "M721XL-1007-01"
  },
  {
    "Item": "0384017",
    "Supplier": "Dynacon, Inc.",
    "Sup Itm ID": "816-1001-01"
  },
  {
    "Item": "0384018",
    "Supplier": "Dynacon, Inc.",
    "Sup Itm ID": "M421D3-1103-01"
  },
  {
    "Item": "0384018",
    "Supplier": "Dynacon, Inc.",
    "Sup Itm ID": "M421D3-1103-01"
  },
  {
    "Item": "0384019",
    "Supplier": "Dynacon, Inc.",
    "Sup Itm ID": "M421D3-1001-02"
  },
  {
    "Item": "0384020",
    "Supplier": "Dynacon, Inc.",
    "Sup Itm ID": "M421D3-1007-02"
  },
  {
    "Item": "0384020",
    "Supplier": "Dynacon, Inc.",
    "Sup Itm ID": "M421D3-1007-02"
  },
  {
    "Item": "0384021",
    "Supplier": "Dynacon, Inc.",
    "Sup Itm ID": "M6023-8006-01"
  },
  {
    "Item": "0384022",
    "Supplier": "Dynacon, Inc.",
    "Sup Itm ID": "M721XL-2001-01"
  },
  {
    "Item": "0384022-LH",
    "Supplier": "Dynacon, Inc.",
    "Sup Itm ID": "M721XL-2001-01-LEFT"
  },
  {
    "Item": "0384022-LH",
    "Supplier": "Dynacon, Inc.",
    "Sup Itm ID": "M721XL-2001-01-LEFT"
  },
  {
    "Item": "0385493",
    "Supplier": "Dynacon, Inc.",
    "Sup Itm ID": "M421-2001-01"
  },
  {
    "Item": "0385493",
    "Supplier": "Dynacon, Inc.",
    "Sup Itm ID": "M421-2001-01"
  },
  {
    "Item": "0385523",
    "Supplier": "Dynacon, Inc.",
    "Sup Itm ID": "M421-1007-65"
  },
  {
    "Item": "0385525",
    "Supplier": "Dynacon, Inc.",
    "Sup Itm ID": "M521-1003-01 MAG LEBUS "
  },
  {
    "Item": "0385557",
    "Supplier": "Dynacon, Inc.",
    "Sup Itm ID": "FS09-M242110"
  },
  {
    "Item": "0391573",
    "Supplier": "Dynacon, Inc.",
    "Sup Itm ID": "1047-9001-09"
  },
  {
    "Item": "0391709",
    "Supplier": "Dynacon, Inc.",
    "Sup Itm ID": "444TTFS14534BNW"
  },
  {
    "Item": "0391763",
    "Supplier": "Dynacon, Inc.",
    "Sup Itm ID": "EL04-M3GP280SMB"
  },
  {
    "Item": "0391764",
    "Supplier": "Dynacon, Inc.",
    "Sup Itm ID": "EL04-367E221WC1"
  },
  {
    "Item": "0392322",
    "Supplier": "Dynacon, Inc.",
    "Sup Itm ID": "M6023-5201-01"
  },
  {
    "Item": "0392323",
    "Supplier": "Dynacon, Inc.",
    "Sup Itm ID": "M6023-5301-01"
  },
  {
    "Item": "0392334",
    "Supplier": "Dynacon, Inc.",
    "Sup Itm ID": "M6021-6006-75"
  },
  {
    "Item": "0392336",
    "Supplier": "Dynacon, Inc.",
    "Sup Itm ID": "M6022-6007-66 ITEM 3"
  },
  {
    "Item": "0392344",
    "Supplier": "Dynacon, Inc.",
    "Sup Itm ID": "M421-2005-08"
  },
  {
    "Item": "0392352",
    "Supplier": "Dynacon, Inc.",
    "Sup Itm ID": "RBE 19.1333/OD/IA/HPL"
  },
  {
    "Item": "0392364",
    "Supplier": "Dynacon, Inc.",
    "Sup Itm ID": "RBE 19.7333/IA/HPL"
  },
  {
    "Item": "0392365",
    "Supplier": "Dynacon, Inc.",
    "Sup Itm ID": "RBE 19.1204/OD/IA/HPL"
  },
  {
    "Item": "0392366",
    "Supplier": "Dynacon, Inc.",
    "Sup Itm ID": "RBE 19.7204/IA/HPL"
  },
  {
    "Item": "0392370",
    "Supplier": "Dynacon, Inc.",
    "Sup Itm ID": "EL04-BA28U4"
  },
  {
    "Item": "0392371",
    "Supplier": "Dynacon, Inc.",
    "Sup Itm ID": "RM01-KW19483X2"
  },
  {
    "Item": "0392401",
    "Supplier": "Dynacon, Inc.",
    "Sup Itm ID": "M421-2106-05"
  },
  {
    "Item": "0392401",
    "Supplier": "Dynacon, Inc.",
    "Sup Itm ID": "M421-2106-05"
  },
  {
    "Item": "0392655",
    "Supplier": "Dynacon, Inc.",
    "Sup Itm ID": "1004-5007-46"
  },
  {
    "Item": "0392656",
    "Supplier": "Dynacon, Inc.",
    "Sup Itm ID": "1004-5007-65A"
  },
  {
    "Item": "0392658",
    "Supplier": "Dynacon, Inc.",
    "Sup Itm ID": "P567640"
  },
  {
    "Item": "0392661",
    "Supplier": "Dynacon, Inc.",
    "Sup Itm ID": "P567588"
  },
  {
    "Item": "0392877",
    "Supplier": "Dynacon, Inc.",
    "Sup Itm ID": "GFT 220T3.2213"
  },
  {
    "Item": "0392878",
    "Supplier": "Dynacon, Inc.",
    "Sup Itm ID": "MS01-R987184891"
  },
  {
    "Item": "0392879",
    "Supplier": "Dynacon, Inc.",
    "Sup Itm ID": "MS01-R987304499"
  },
  {
    "Item": "0394906",
    "Supplier": "Dynacon, Inc.",
    "Sup Itm ID": "HD04-LSP1510602"
  },
  {
    "Item": "0396311",
    "Supplier": "Dynacon, Inc.",
    "Sup Itm ID": "PCS-201-600V"
  },
  {
    "Item": "0396891",
    "Supplier": "Dynacon, Inc.",
    "Sup Itm ID": "1003-6001-06"
  },
  {
    "Item": "0399395",
    "Supplier": "Dynacon, Inc.",
    "Sup Itm ID": "BXX04-HY04-04FJ-04FJ"
  },
  {
    "Item": "0400540",
    "Supplier": "Dynacon, Inc.",
    "Sup Itm ID": "0000179-00"
  },
  {
    "Item": "0401342",
    "Supplier": "Dynacon, Inc.",
    "Sup Itm ID": "0401342"
  },
  {
    "Item": "0401343",
    "Supplier": "Dynacon, Inc.",
    "Sup Itm ID": "0401343"
  },
  {
    "Item": "0401345",
    "Supplier": "Dynacon, Inc.",
    "Sup Itm ID": "0401345"
  },
  {
    "Item": "0401346",
    "Supplier": "Dynacon, Inc.",
    "Sup Itm ID": "0401346"
  },
  {
    "Item": "0401347",
    "Supplier": "Dynacon, Inc.",
    "Sup Itm ID": "0401347"
  },
  {
    "Item": "0401349",
    "Supplier": "Dynacon, Inc.",
    "Sup Itm ID": "0401349"
  },
  {
    "Item": "0401350",
    "Supplier": "Dynacon, Inc.",
    "Sup Itm ID": "0401350"
  },
  {
    "Item": "0401351",
    "Supplier": "Dynacon, Inc.",
    "Sup Itm ID": "0401351"
  },
  {
    "Item": "0401352",
    "Supplier": "Dynacon, Inc.",
    "Sup Itm ID": "0401352"
  },
  {
    "Item": "0402242",
    "Supplier": "Dynacon, Inc.",
    "Sup Itm ID": "3RT1054-6AF36"
  },
  {
    "Item": "0403189",
    "Supplier": "Dynacon, Inc.",
    "Sup Itm ID": "M721XL-3101-01"
  },
  {
    "Item": "0403189",
    "Supplier": "Dynacon, Inc.",
    "Sup Itm ID": "M721XL-3101-01"
  },
  {
    "Item": "0403189-690",
    "Supplier": "Dynacon, Inc.",
    "Sup Itm ID": "M721XL-3101-01-690V"
  },
  {
    "Item": "0403189-690",
    "Supplier": "Dynacon, Inc.",
    "Sup Itm ID": "M721XL-3101-01-690V"
  },
  {
    "Item": "0405705",
    "Supplier": "Dynacon, Inc.",
    "Sup Itm ID": "0405705"
  },
  {
    "Item": "0408304",
    "Supplier": "Dynacon, Inc.",
    "Sup Itm ID": "781-16-BW16-16FJ-16FJ-84\""
  },
  {
    "Item": "0408695",
    "Supplier": "Dynacon, Inc.",
    "Sup Itm ID": "AOVHM-40"
  },
  {
    "Item": "0409246",
    "Supplier": "Dynacon, Inc."
  },
  {
    "Item": "0409803",
    "Supplier": "Dynacon, Inc.",
    "Sup Itm ID": "CAT6-170EL-120-200-NO-L11"
  },
  {
    "Item": "0410174",
    "Supplier": "Dynacon, Inc.",
    "Sup Itm ID": "A511-09Q-B03"
  },
  {
    "Item": "0412466",
    "Supplier": "Dynacon, Inc.",
    "Sup Itm ID": "PS75-60-4MNS-C-HC"
  },
  {
    "Item": "0412468",
    "Supplier": "Dynacon, Inc.",
    "Sup Itm ID": "PS75-40-4MNS-C-HC"
  },
  {
    "Item": "0412469",
    "Supplier": "Dynacon, Inc.",
    "Sup Itm ID": "PS75-50-4MNS-C-HC"
  },
  {
    "Item": "0412511",
    "Supplier": "Dynacon, Inc.",
    "Sup Itm ID": "DYN-1007-35"
  },
  {
    "Item": "0413523",
    "Supplier": "Dynacon, Inc.",
    "Sup Itm ID": "EL09-OETLNF400S"
  },
  {
    "Item": "0413524",
    "Supplier": "Dynacon, Inc.",
    "Sup Itm ID": "EL09-OHB175L12"
  },
  {
    "Item": "0413525",
    "Supplier": "Dynacon, Inc.",
    "Sup Itm ID": "EL09-DXP12X325"
  },
  {
    "Item": "0413526",
    "Supplier": "Dynacon, Inc.",
    "Sup Itm ID": "EL09-OZXA26"
  },
  {
    "Item": "0413915",
    "Supplier": "Dynacon, Inc.",
    "Sup Itm ID": "HD11-68100"
  },
  {
    "Item": "0414144",
    "Supplier": "Dynacon, Inc."
  },
  {
    "Item": "0414145",
    "Supplier": "Dynacon, Inc."
  },
  {
    "Item": "0414146",
    "Supplier": "Dynacon, Inc."
  },
  {
    "Item": "0414677",
    "Supplier": "Dynacon, Inc.",
    "Sup Itm ID": "EL21-T50B4 (METER AND EL21-B20017 (GASKET)"
  },
  {
    "Item": "0415918",
    "Supplier": "Dynacon, Inc.",
    "Sup Itm ID": "M421-2105-17"
  },
  {
    "Item": "0415919",
    "Supplier": "Dynacon, Inc.",
    "Sup Itm ID": "MS02-92383A743 (OLD # MS02-92383A448)"
  },
  {
    "Item": "0416100",
    "Supplier": "Dynacon, Inc.",
    "Sup Itm ID": "DYTSB-010047"
  },
  {
    "Item": "0416270",
    "Supplier": "Dynacon, Inc.",
    "Sup Itm ID": "EL02-XSJ4CCP/8"
  },
  {
    "Item": "0416412",
    "Supplier": "Dynacon, Inc.",
    "Sup Itm ID": "491-3001-01"
  },
  {
    "Item": "0416480",
    "Supplier": "Dynacon, Inc.",
    "Sup Itm ID": "GB01-4511230000"
  },
  {
    "Item": "0416489",
    "Supplier": "Dynacon, Inc.",
    "Sup Itm ID": "W4NDB"
  },
  {
    "Item": "0416890",
    "Supplier": "Dynacon, Inc.",
    "Sup Itm ID": "DYN-8103-14"
  },
  {
    "Item": "0417139",
    "Supplier": "Dynacon, Inc.",
    "Sup Itm ID": "HD17-521010048A"
  },
  {
    "Item": "0417140",
    "Supplier": "Dynacon, Inc.",
    "Sup Itm ID": "M421D3-EXT-BRAKE (USE OI#0417139)"
  },
  {
    "Item": "0418552",
    "Supplier": "Dynacon, Inc.",
    "Sup Itm ID": "DYN-2008-07"
  },
  {
    "Item": "0419390",
    "Supplier": "Dynacon, Inc.",
    "Sup Itm ID": "M3021-690V"
  },
  {
    "Item": "0419390",
    "Supplier": "Dynacon, Inc.",
    "Sup Itm ID": "M3021-690V"
  },
  {
    "Item": "0419390-AHC",
    "Supplier": "Dynacon, Inc.",
    "Sup Itm ID": "M3021-EHPU-AHC-01"
  },
  {
    "Item": "0419857",
    "Supplier": "Dynacon, Inc.",
    "Sup Itm ID": "521XL1003-06"
  },
  {
    "Item": "0419857R",
    "Supplier": "Dynacon, Inc."
  },
  {
    "Item": "0420112",
    "Supplier": "Dynacon, Inc.",
    "Sup Itm ID": "BP00377200813-A"
  },
  {
    "Item": "0420787",
    "Supplier": "Dynacon, Inc.",
    "Sup Itm ID": "11085626"
  },
  {
    "Item": "0420787-1",
    "Supplier": "Dynacon, Inc.",
    "Sup Itm ID": "042432"
  },
  {
    "Item": "0420809",
    "Supplier": "Dynacon, Inc.",
    "Sup Itm ID": "EL08-CR13048991"
  },
  {
    "Item": "0421261",
    "Supplier": "Dynacon, Inc.",
    "Sup Itm ID": "52PX2W2"
  },
  {
    "Item": "0421779",
    "Supplier": "Dynacon, Inc.",
    "Sup Itm ID": "HHB1-8_2.25"
  },
  {
    "Item": "0421780",
    "Supplier": "Dynacon, Inc.",
    "Sup Itm ID": "FW1"
  },
  {
    "Item": "0421781",
    "Supplier": "Dynacon, Inc.",
    "Sup Itm ID": "LWHS1"
  },
  {
    "Item": "0422096",
    "Supplier": "Dynacon, Inc.",
    "Sup Itm ID": "MP521XL200502--"
  },
  {
    "Item": "0422097",
    "Supplier": "Dynacon, Inc.",
    "Sup Itm ID": "M721XL-2005-09"
  },
  {
    "Item": "0422098",
    "Supplier": "Dynacon, Inc.",
    "Sup Itm ID": "M421-2305-07"
  },
  {
    "Item": "0423914",
    "Supplier": "Dynacon, Inc.",
    "Sup Itm ID": "471TC1 2-10643-12FJ-12FJ"
  },
  {
    "Item": "0423920",
    "Supplier": "Dynacon, Inc.",
    "Sup Itm ID": "471TC12-10643-12FJ-12FJ"
  },
  {
    "Item": "0423948",
    "Supplier": "Dynacon, Inc.",
    "Sup Itm ID": "BXX04-HY04-04FJ-04FJ"
  },
  {
    "Item": "0423952",
    "Supplier": "Dynacon, Inc.",
    "Sup Itm ID": "BXX04-HY04-04FJ-04FJ"
  },
  {
    "Item": "0423953",
    "Supplier": "Dynacon, Inc.",
    "Sup Itm ID": "BXX04-HY04-04FJ-04FJ"
  },
  {
    "Item": "0423954",
    "Supplier": "Dynacon, Inc.",
    "Sup Itm ID": "BXX06-HY06-06FJ-06FJ"
  },
  {
    "Item": "0423955",
    "Supplier": "Dynacon, Inc.",
    "Sup Itm ID": "BXX06-HY06-06FJ-06FJ"
  },
  {
    "Item": "0423956",
    "Supplier": "Dynacon, Inc.",
    "Sup Itm ID": "BXX06-HY06-06FJ-06FJ"
  },
  {
    "Item": "0423957",
    "Supplier": "Dynacon, Inc.",
    "Sup Itm ID": "BXX08-HY08-08FJ-08FJ"
  },
  {
    "Item": "0423958",
    "Supplier": "Dynacon, Inc.",
    "Sup Itm ID": "BXX08-HY08-08FJ-08FJ"
  },
  {
    "Item": "0423959",
    "Supplier": "Dynacon, Inc.",
    "Sup Itm ID": "781-16-10678-16FJ-16FJ"
  },
  {
    "Item": "0423960",
    "Supplier": "Dynacon, Inc.",
    "Sup Itm ID": "781-16 10678-16FJ-16FJ"
  },
  {
    "Item": "0423961",
    "Supplier": "Dynacon, Inc.",
    "Sup Itm ID": "781-20-10678-20FJ-20FJ"
  },
  {
    "Item": "0423962",
    "Supplier": "Dynacon, Inc.",
    "Sup Itm ID": "BXX06-HY06-06FJ-06FJ"
  },
  {
    "Item": "0423963",
    "Supplier": "Dynacon, Inc.",
    "Sup Itm ID": "BXX16-HY16-16FJ-16FJ"
  },
  {
    "Item": "0423964",
    "Supplier": "Dynacon, Inc.",
    "Sup Itm ID": "BXX12-HY12-12FJ-12FJ"
  },
  {
    "Item": "0423970",
    "Supplier": "Dynacon, Inc.",
    "Sup Itm ID": "BXX12-HY12-12FJ-12FJ 198IN"
  },
  {
    "Item": "0423993",
    "Supplier": "Dynacon, Inc.",
    "Sup Itm ID": "811HT20-HY20-20FJ-20FJ"
  },
  {
    "Item": "0423994",
    "Supplier": "Dynacon, Inc.",
    "Sup Itm ID": "721-20 STRAIGHT SS"
  },
  {
    "Item": "0423995",
    "Supplier": "Dynacon, Inc.",
    "Sup Itm ID": "721-20 STRAIGHT SS"
  },
  {
    "Item": "0423997",
    "Supplier": "Dynacon, Inc.",
    "Sup Itm ID": "721-20 STRAIGHT SS"
  },
  {
    "Item": "0424000",
    "Supplier": "Dynacon, Inc.",
    "Sup Itm ID": "721-16-10671-16FJ-16FJ-350\""
  },
  {
    "Item": "0424002",
    "Supplier": "Dynacon, Inc.",
    "Sup Itm ID": "MX06-HY06-06FJ-06FJ-129\""
  },
  {
    "Item": "0424404",
    "Supplier": "Dynacon, Inc.",
    "Sup Itm ID": "500444003"
  },
  {
    "Item": "0424553",
    "Supplier": "Dynacon, Inc.",
    "Sup Itm ID": "DYN-5007-20-KIT"
  },
  {
    "Item": "0424578",
    "Supplier": "Dynacon, Inc.",
    "Sup Itm ID": "M421-8003-05"
  },
  {
    "Item": "0425365",
    "Supplier": "Dynacon, Inc.",
    "Sup Itm ID": "M6021-6004-05"
  },
  {
    "Item": "0425405",
    "Supplier": "Dynacon, Inc.",
    "Sup Itm ID": "M6021-6006-09"
  },
  {
    "Item": "0425406",
    "Supplier": "Dynacon, Inc.",
    "Sup Itm ID": "M6021-6006-06"
  },
  {
    "Item": "0426133",
    "Supplier": "Dynacon, Inc.",
    "Sup Itm ID": "M6010-08X40-01"
  },
  {
    "Item": "0426134",
    "Supplier": "Dynacon, Inc.",
    "Sup Itm ID": "M6010-08X45-01"
  },
  {
    "Item": "0427043",
    "Supplier": "Dynacon, Inc.",
    "Sup Itm ID": "396-6006-09"
  },
  {
    "Item": "0427045",
    "Supplier": "Dynacon, Inc.",
    "Sup Itm ID": "DYN-2004-10 REV C"
  },
  {
    "Item": "0427046",
    "Supplier": "Dynacon, Inc.",
    "Sup Itm ID": "M421-2103-12"
  },
  {
    "Item": "0427341",
    "Supplier": "Dynacon, Inc.",
    "Sup Itm ID": "DYN-2008-16"
  },
  {
    "Item": "0428714",
    "Supplier": "Dynacon, Inc.",
    "Sup Itm ID": "HD10-T16A34T204"
  },
  {
    "Item": "0428715",
    "Supplier": "Dynacon, Inc.",
    "Sup Itm ID": "DYN-8205-02"
  },
  {
    "Item": "0428977",
    "Supplier": "Dynacon, Inc.",
    "Sup Itm ID": "0000018-00 (OLD#HD01-HCLIPS18)"
  },
  {
    "Item": "0429420",
    "Supplier": "Dynacon, Inc.",
    "Sup Itm ID": "T16A25T204"
  },
  {
    "Item": "0429794",
    "Supplier": "Dynacon, Inc.",
    "Sup Itm ID": "HD11-FS15A1250A"
  },
  {
    "Item": "0429863",
    "Supplier": "Dynacon, Inc."
  },
  {
    "Item": "0430669",
    "Supplier": "Dynacon, Inc.",
    "Sup Itm ID": "M521XL-1303-06"
  },
  {
    "Item": "0430671",
    "Supplier": "Dynacon, Inc.",
    "Sup Itm ID": "M521XL-1303-07"
  },
  {
    "Item": "0430685",
    "Supplier": "Dynacon, Inc.",
    "Sup Itm ID": "M521XL-1303-31"
  },
  {
    "Item": "0430688",
    "Supplier": "Dynacon, Inc.",
    "Sup Itm ID": "521XL-1603-30 (0004791-00)"
  },
  {
    "Item": "0430855",
    "Supplier": "Dynacon, Inc.",
    "Sup Itm ID": "DYN-95001-01-A"
  },
  {
    "Item": "0431455",
    "Supplier": "Dynacon, Inc.",
    "Sup Itm ID": "GB01-400740"
  },
  {
    "Item": "0431504",
    "Supplier": "Dynacon, Inc.",
    "Sup Itm ID": "M421-2105-12"
  },
  {
    "Item": "0431529",
    "Supplier": "Dynacon, Inc.",
    "Sup Itm ID": "M421-2105-08"
  },
  {
    "Item": "0431530",
    "Supplier": "Dynacon, Inc.",
    "Sup Itm ID": "M421-2105-09"
  },
  {
    "Item": "0431531",
    "Supplier": "Dynacon, Inc.",
    "Sup Itm ID": "M421-2105-11"
  },
  {
    "Item": "0431533",
    "Supplier": "Dynacon, Inc.",
    "Sup Itm ID": "M421-2105-16"
  },
  {
    "Item": "0431534",
    "Supplier": "Dynacon, Inc.",
    "Sup Itm ID": "M421-2105-18"
  },
  {
    "Item": "0432212",
    "Supplier": "Dynacon, Inc.",
    "Sup Itm ID": "HD09-200PLPVC"
  },
  {
    "Item": "0434030",
    "Supplier": "Dynacon, Inc.",
    "Sup Itm ID": "HD17-F130EXT/A"
  },
  {
    "Item": "0434538",
    "Supplier": "Dynacon, Inc.",
    "Sup Itm ID": "M521XL-1207-50"
  },
  {
    "Item": "0435020",
    "Supplier": "Dynacon, Inc.",
    "Sup Itm ID": "377-2008-14"
  },
  {
    "Item": "0436449",
    "Supplier": "Dynacon, Inc.",
    "Sup Itm ID": "M6021-6004-02"
  },
  {
    "Item": "0436450",
    "Supplier": "Dynacon, Inc.",
    "Sup Itm ID": "M6021-6004-14"
  },
  {
    "Item": "0437842",
    "Supplier": "Dynacon, Inc.",
    "Sup Itm ID": "1336-6001-01"
  },
  {
    "Item": "0438050",
    "Supplier": "Dynacon, Inc.",
    "Sup Itm ID": "M3021-8003-01"
  },
  {
    "Item": "0439994",
    "Supplier": "Dynacon, Inc.",
    "Sup Itm ID": "M421-2105-07"
  },
  {
    "Item": "0440033",
    "Supplier": "Dynacon, Inc.",
    "Sup Itm ID": "1310-2005-17"
  },
  {
    "Item": "0440035",
    "Supplier": "Dynacon, Inc.",
    "Sup Itm ID": "1310-2005-20"
  },
  {
    "Item": "0440036",
    "Supplier": "Dynacon, Inc.",
    "Sup Itm ID": "1317-2005-27"
  },
  {
    "Item": "0440038",
    "Supplier": "Dynacon, Inc.",
    "Sup Itm ID": "1317-2005-29"
  },
  {
    "Item": "0440679",
    "Supplier": "Dynacon, Inc."
  },
  {
    "Item": "0442876",
    "Supplier": "Dynacon, Inc.",
    "Sup Itm ID": "M521XL-1701-02"
  },
  {
    "Item": "0443295",
    "Supplier": "Dynacon, Inc.",
    "Sup Itm ID": "EL09-E320DU320"
  },
  {
    "Item": "0445419",
    "Supplier": "Dynacon, Inc.",
    "Sup Itm ID": "PT04-7501K-K"
  },
  {
    "Item": "0448953",
    "Supplier": "Dynacon, Inc.",
    "Sup Itm ID": "0000018-00 (OLD#HD01-HCLIPS18)"
  },
  {
    "Item": "0450364",
    "Supplier": "Dynacon, Inc.",
    "Sup Itm ID": "CYL-08X45-90"
  },
  {
    "Item": "0453037",
    "Supplier": "Dynacon, Inc.",
    "Sup Itm ID": "377-2008-05"
  },
  {
    "Item": "0453038",
    "Supplier": "Dynacon, Inc.",
    "Sup Itm ID": "377-2008-07"
  },
  {
    "Item": "0453039",
    "Supplier": "Dynacon, Inc.",
    "Sup Itm ID": "377-2008-08"
  },
  {
    "Item": "0454182",
    "Supplier": "Dynacon, Inc.",
    "Sup Itm ID": "HD17-521010048B"
  },
  {
    "Item": "0456027",
    "Supplier": "Dynacon, Inc.",
    "Sup Itm ID": "A803-13Q-B03"
  },
  {
    "Item": "0456851",
    "Supplier": "Dynacon, Inc.",
    "Sup Itm ID": "M721XL-2005-32"
  },
  {
    "Item": "0459092",
    "Supplier": "Dynacon, Inc.",
    "Sup Itm ID": "M521XL-2004-53"
  },
  {
    "Item": "0460265",
    "Supplier": "Dynacon, Inc.",
    "Sup Itm ID": "BMC-1502/303"
  },
  {
    "Item": "0466935",
    "Supplier": "Dynacon, Inc.",
    "Sup Itm ID": "M721XL-2006-23"
  },
  {
    "Item": "0469294",
    "Supplier": "Dynacon, Inc.",
    "Sup Itm ID": "471TC12-BW12-12FJ-12FJ-45\""
  },
  {
    "Item": "0471280",
    "Supplier": "Dynacon, Inc.",
    "Sup Itm ID": "MTH02774678"
  },
  {
    "Item": "0471281",
    "Supplier": "Dynacon, Inc.",
    "Sup Itm ID": "MTH02774682"
  },
  {
    "Item": "0473016",
    "Supplier": "Dynacon, Inc.",
    "Sup Itm ID": "EL14-DYN150"
  },
  {
    "Item": "0473017",
    "Supplier": "Dynacon, Inc.",
    "Sup Itm ID": "EL14-DYN350"
  },
  {
    "Item": "0473018",
    "Supplier": "Dynacon, Inc.",
    "Sup Itm ID": "EL14-DYN35024"
  },
  {
    "Item": "0473020",
    "Supplier": "Dynacon, Inc.",
    "Sup Itm ID": "EL12-49MARSR"
  },
  {
    "Item": "0473630",
    "Supplier": "Dynacon, Inc.",
    "Sup Itm ID": "1003-10X5-01"
  },
  {
    "Item": "0473631",
    "Supplier": "Dynacon, Inc.",
    "Sup Itm ID": "1004-06X45-01"
  },
  {
    "Item": "0477269",
    "Supplier": "Dynacon, Inc."
  },
  {
    "Item": "0477270",
    "Supplier": "Dynacon, Inc."
  },
  {
    "Item": "0477271",
    "Supplier": "Dynacon, Inc."
  },
  {
    "Item": "0478537",
    "Supplier": "Dynacon, Inc.",
    "Sup Itm ID": "377-2008-12"
  },
  {
    "Item": "0478751",
    "Supplier": "Dynacon, Inc.",
    "Sup Itm ID": "1003-6005-33"
  },
  {
    "Item": "0480704",
    "Supplier": "Dynacon, Inc.",
    "Sup Itm ID": "DYN-6003-35"
  },
  {
    "Item": "0488629",
    "Supplier": "Dynacon, Inc.",
    "Sup Itm ID": "M6021-6002-76"
  },
  {
    "Item": "0488884",
    "Supplier": "Dynacon, Inc.",
    "Sup Itm ID": "0749-2006-21"
  },
  {
    "Item": "0491512",
    "Supplier": "Dynacon, Inc.",
    "Sup Itm ID": "1265-0301 LC - QUOTE# Q1806124.OII"
  },
  {
    "Item": "0496195",
    "Supplier": "Dynacon, Inc.",
    "Sup Itm ID": "DYN-5107-20"
  },
  {
    "Item": "0496195",
    "Supplier": "Dynacon, Inc.",
    "Sup Itm ID": "DYN-5107-20"
  },
  {
    "Item": "0497460",
    "Supplier": "Dynacon, Inc.",
    "Sup Itm ID": "AA2FM180/61W-VSD510"
  },
  {
    "Item": "0521082",
    "Supplier": "Dynacon, Inc.",
    "Sup Itm ID": "0064672-00 (DWG: 1232-12X5.50-01)"
  },
  {
    "Item": "0521084",
    "Supplier": "Dynacon, Inc.",
    "Sup Itm ID": "0061527-00"
  },
  {
    "Item": "0521698",
    "Supplier": "Dynacon, Inc.",
    "Sup Itm ID": "0040785-00"
  },
  {
    "Item": "0521699",
    "Supplier": "Dynacon, Inc.",
    "Sup Itm ID": "0040786-00"
  },
  {
    "Item": "0523840",
    "Supplier": "Dynacon, Inc.",
    "Sup Itm ID": "010158-00"
  },
  {
    "Item": "0528128",
    "Supplier": "Dynacon, Inc.",
    "Sup Itm ID": "0000006-00"
  },
  {
    "Item": "0531336",
    "Supplier": "Dynacon, Inc.",
    "Sup Itm ID": "0000571-00"
  },
  {
    "Item": "0531428",
    "Supplier": "Dynacon, Inc.",
    "Sup Itm ID": "M521-1003-31"
  },
  {
    "Item": "0549056",
    "Supplier": "Dynacon, Inc.",
    "Sup Itm ID": "0002342-00"
  },
  {
    "Item": "980030323",
    "Supplier": "Dynacon, Inc.",
    "Sup Itm ID": "521XL-1003-31 REV.C"
  },
  {
    "Item": "CL031-031-01",
    "Supplier": "Dynacon, Inc.",
    "Sup Itm ID": "Tuff Coat - M"
  },
  {
    "Item": "EB311-003-01",
    "Supplier": "Dynacon, Inc.",
    "Sup Itm ID": "DY96001-112-03"
  },
  {
    "Item": "EB311-003-02",
    "Supplier": "Dynacon, Inc.",
    "Sup Itm ID": "DY96001-102-03"
  },
  {
    "Item": "EB311-009-01",
    "Supplier": "Dynacon, Inc.",
    "Sup Itm ID": "EE08-DYN9003-01"
  },
  {
    "Item": "ED091-001-01",
    "Supplier": "Dynacon, Inc.",
    "Sup Itm ID": "WE77/EX2-110VAC"
  },
  {
    "Item": "ED091-002-01",
    "Supplier": "Dynacon, Inc.",
    "Sup Itm ID": "9001/01-199-100-10-1"
  },
  {
    "Item": "ED091-003-01",
    "Supplier": "Dynacon, Inc.",
    "Sup Itm ID": "9001/02-093-390-10-1"
  },
  {
    "Item": "EF011-003-01",
    "Supplier": "Dynacon, Inc.",
    "Sup Itm ID": "TA-2-81324"
  },
  {
    "Item": "EF011-011-01",
    "Supplier": "Dynacon, Inc.",
    "Sup Itm ID": "TA-2-81213"
  },
  {
    "Item": "EH111-001-01",
    "Supplier": "Dynacon, Inc.",
    "Sup Itm ID": "52AABA"
  },
  {
    "Item": "EH111-004-01",
    "Supplier": "Dynacon, Inc.",
    "Sup Itm ID": "125-1133-403"
  },
  {
    "Item": "EH111-009-01",
    "Supplier": "Dynacon, Inc.",
    "Sup Itm ID": "125-1132-403"
  },
  {
    "Item": "EI011-042-01",
    "Supplier": "Dynacon, Inc.",
    "Sup Itm ID": "DYN-PM-536"
  },
  {
    "Item": "EI011-052-01",
    "Supplier": "Dynacon, Inc.",
    "Sup Itm ID": "DYN-9002-04"
  },
  {
    "Item": "EI031-001-01",
    "Supplier": "Dynacon, Inc.",
    "Sup Itm ID": "PNS-0097-480V"
  },
  {
    "Item": "EK021-007-01",
    "Supplier": "Dynacon, Inc.",
    "Sup Itm ID": "52BAJ"
  },
  {
    "Item": "EK081-003-01",
    "Supplier": "Dynacon, Inc.",
    "Sup Itm ID": "EL12-52PA8"
  },
  {
    "Item": "EL051-001-01",
    "Supplier": "Dynacon, Inc.",
    "Sup Itm ID": "1819"
  },
  {
    "Item": "EM011-008-01",
    "Supplier": "Dynacon, Inc.",
    "Sup Itm ID": "3583219WC-0099 (F1) IP56"
  },
  {
    "Item": "EM011-008-BA",
    "Supplier": "Dynacon, Inc.",
    "Sup Itm ID": "EM7068T-I"
  },
  {
    "Item": "EM011-009-01",
    "Supplier": "Dynacon, Inc.",
    "Sup Itm ID": "CM4316TM13AM22A"
  },
  {
    "Item": "EM011-010-01",
    "Supplier": "Dynacon, Inc.",
    "Sup Itm ID": "EL04-405TTFS (MARATHON #405TTFS14536"
  },
  {
    "Item": "EN061-001-01",
    "Supplier": "Dynacon, Inc.",
    "Sup Itm ID": "0000282-02"
  },
  {
    "Item": "EN081-001-01",
    "Supplier": "Dynacon, Inc.",
    "Sup Itm ID": "IM5040 IME-3015 FNKG EFECTOR"
  },
  {
    "Item": "EN081-002-01",
    "Supplier": "Dynacon, Inc.",
    "Sup Itm ID": "EE05-NJ20U4N"
  },
  {
    "Item": "EZ191-006-01",
    "Supplier": "Dynacon, Inc.",
    "Sup Itm ID": "RH4BUL-AC24V"
  },
  {
    "Item": "EZ191-013-01",
    "Supplier": "Dynacon, Inc.",
    "Sup Itm ID": "RH3B-ULDC12V"
  },
  {
    "Item": "EZ191-015-01",
    "Supplier": "Dynacon, Inc.",
    "Sup Itm ID": "RH2BUL-AC24V"
  },
  {
    "Item": "EZ291-003-02",
    "Supplier": "Dynacon, Inc.",
    "Sup Itm ID": "M421-9101-04 MODIFIED CONTROL HANDLE"
  },
  {
    "Item": "EZ291-003-03",
    "Supplier": "Dynacon, Inc.",
    "Sup Itm ID": "MCH51AB1174"
  },
  {
    "Item": "EZ291-003-04",
    "Supplier": "Dynacon, Inc.",
    "Sup Itm ID": "K22078-SUNSTRAND#"
  },
  {
    "Item": "HB011-005-01",
    "Supplier": "Dynacon, Inc.",
    "Sup Itm ID": "BMC-1504-303"
  },
  {
    "Item": "HM011-006-01",
    "Supplier": "Dynacon, Inc.",
    "Sup Itm ID": "37203"
  },
  {
    "Item": "HM021-001-NM",
    "Supplier": "Dynacon, Inc."
  },
  {
    "Item": "HM021-002-01",
    "Supplier": "Dynacon, Inc.",
    "Sup Itm ID": "HM021-002-01"
  },
  {
    "Item": "HM021-002-NM",
    "Supplier": "Dynacon, Inc.",
    "Sup Itm ID": "F220/248/OM/MB"
  },
  {
    "Item": "HP021-006-01",
    "Supplier": "Dynacon, Inc.",
    "Sup Itm ID": "90R075ISC6L3S1D03GBA262624"
  },
  {
    "Item": "HP021-009-01",
    "Supplier": "Dynacon, Inc.",
    "Sup Itm ID": "A10VO71DR"
  },
  {
    "Item": "HV011-012-01",
    "Supplier": "Dynacon, Inc.",
    "Sup Itm ID": "HD13-ECI"
  },
  {
    "Item": "HV031-006-01",
    "Supplier": "Dynacon, Inc.",
    "Sup Itm ID": "HD13-RPGCLAN"
  },
  {
    "Item": "HV031-009-01",
    "Supplier": "Dynacon, Inc.",
    "Sup Itm ID": "PPDB-LAN"
  },
  {
    "Item": "HV031-014-01",
    "Supplier": "Dynacon, Inc.",
    "Sup Itm ID": "0001658-00 (HD13-CBCALAN)"
  },
  {
    "Item": "HV061-004-02",
    "Supplier": "Dynacon, Inc.",
    "Sup Itm ID": "NQEB-XAN"
  },
  {
    "Item": "HV061-006-01",
    "Supplier": "Dynacon, Inc.",
    "Sup Itm ID": "HD13-N400S"
  },
  {
    "Item": "HV111-003-01",
    "Supplier": "Dynacon, Inc.",
    "Sup Itm ID": "631-102C"
  },
  {
    "Item": "HV171-002-01",
    "Supplier": "Dynacon, Inc.",
    "Sup Itm ID": "HD13-MF250SBC"
  },
  {
    "Item": "HV191-003-01",
    "Supplier": "Dynacon, Inc.",
    "Sup Itm ID": "0001659-00"
  },
  {
    "Item": "HV201-002-01",
    "Supplier": "Dynacon, Inc.",
    "Sup Itm ID": "DF-S3A-00-HC25-S"
  },
  {
    "Item": "JDM250",
    "Supplier": "Dynacon, Inc.",
    "Sup Itm ID": "HD13-DFS3A00HC25C"
  },
  {
    "Item": "MB011-N22-39",
    "Supplier": "Dynacon, Inc.",
    "Sup Itm ID": "2-239"
  },
  {
    "Item": "MB021-028-01",
    "Supplier": "Dynacon, Inc.",
    "Sup Itm ID": "14133LUP"
  },
  {
    "Item": "MB041-006-01",
    "Supplier": "Dynacon, Inc.",
    "Sup Itm ID": "BR06-401800"
  },
  {
    "Item": "MF871-S31-99",
    "Supplier": "Dynacon, Inc.",
    "Sup Itm ID": "M421-2005-02"
  },
  {
    "Item": "MP011-004-01",
    "Supplier": "Dynacon, Inc.",
    "Sup Itm ID": "6019"
  },
  {
    "Item": "MT011-007-01",
    "Supplier": "Dynacon, Inc.",
    "Sup Itm ID": "6206-2RS"
  },
  {
    "Item": "MT071-010-01",
    "Supplier": "Dynacon, Inc.",
    "Sup Itm ID": "M6021-6002-36"
  },
  {
    "Item": "MT091-012-01",
    "Supplier": "Dynacon, Inc.",
    "Sup Itm ID": "M700B1308C"
  },
  {
    "Item": "MT181-002-01",
    "Supplier": "Dynacon, Inc."
  },
  {
    "Item": "MT181-002-DU",
    "Supplier": "Dynacon, Inc."
  },
  {
    "Item": "MT181-004-01",
    "Supplier": "Dynacon, Inc."
  },
  {
    "Item": "MT181-004-DU",
    "Supplier": "Dynacon, Inc."
  },
  {
    "Item": "MT201-001-01",
    "Supplier": "Dynacon, Inc.",
    "Sup Itm ID": "6021"
  },
  {
    "Item": "TH071-002-02",
    "Supplier": "Dynacon, Inc.",
    "Sup Itm ID": "DYN-5001-01 + 5204-1.58"
  }
]