﻿[
  {
    "OINumber": "0005655",
    "Supplier": "Newark Electronics",
    "SupplierNumber": "44F2249"
  },
  {
    "OINumber": "0005658",
    "Supplier": "Newark Electronics",
    "SupplierNumber": "17B6124"
  },
  {
    "OINumber": "0005748",
    "Supplier": "Newark Electronics",
    "SupplierNumber": "02F5296"
  },
  {
    "OINumber": "0005900",
    "Supplier": "Newark Electronics",
    "SupplierNumber": "05R5987"
  },
  {
    "OINumber": "0006582",
    "Supplier": "Newark Electronics",
    "SupplierNumber": "50F4689"
  },
  {
    "OINumber": "0006632",
    "Supplier": "Newark Electronics",
    "SupplierNumber": "31-71008-1RFX"
  },
  {
    "OINumber": "0006633",
    "Supplier": "Newark Electronics",
    "SupplierNumber": "96F7591"
  },
  {
    "OINumber": "0006656",
    "Supplier": "Newark Electronics",
    "SupplierNumber": "OIF992"
  },
  {
    "OINumber": "0006659",
    "Supplier": "Newark Electronics",
    "SupplierNumber": "93F1445"
  },
  {
    "OINumber": "0006749",
    "Supplier": "Newark Electronics",
    "SupplierNumber": "88K2087"
  },
  {
    "OINumber": "0006905",
    "Supplier": "Newark Electronics",
    "SupplierNumber": "92F7370"
  },
  {
    "OINumber": "0007043",
    "Supplier": "Newark Electronics",
    "SupplierNumber": "59K0519"
  },
  {
    "OINumber": "0007330",
    "Supplier": "Newark Electronics",
    "SupplierNumber": "27B9510"
  },
  {
    "OINumber": "0007913",
    "Supplier": "Newark Electronics",
    "SupplierNumber": "44F8234"
  },
  {
    "OINumber": "0008198",
    "Supplier": "Newark Electronics",
    "SupplierNumber": "95F6088"
  },
  {
    "OINumber": "0008520",
    "Supplier": "Newark Electronics",
    "SupplierNumber": "71C4248"
  },
  {
    "OINumber": "0008895",
    "Supplier": "Newark Electronics",
    "SupplierNumber": "8715"
  },
  {
    "OINumber": "0009257",
    "Supplier": "Newark Electronics",
    "SupplierNumber": "2TK2D-48"
  },
  {
    "OINumber": "0010989",
    "Supplier": "Newark Electronics",
    "SupplierNumber": "23F247"
  },
  {
    "OINumber": "0010992",
    "Supplier": "Newark Electronics",
    "SupplierNumber": "41F553"
  },
  {
    "OINumber": "0011182",
    "Supplier": "Newark Electronics",
    "SupplierNumber": "83S4587"
  },
  {
    "OINumber": "0011620",
    "Supplier": "Newark Electronics",
    "SupplierNumber": "34F1030"
  },
  {
    "OINumber": "0011672",
    "Supplier": "Newark Electronics",
    "SupplierNumber": "50F8274"
  },
  {
    "OINumber": "0012651",
    "Supplier": "Newark Electronics"
  },
  {
    "OINumber": "0014825",
    "Supplier": "Newark Electronics",
    "SupplierNumber": "50F2442"
  },
  {
    "OINumber": "0015410",
    "Supplier": "Newark Electronics",
    "SupplierNumber": "25F906"
  },
  {
    "OINumber": "0016630",
    "Supplier": "Newark Electronics",
    "SupplierNumber": "36K3642"
  },
  {
    "OINumber": "0018800",
    "Supplier": "Newark Electronics",
    "SupplierNumber": "50F2993"
  },
  {
    "OINumber": "0018826",
    "Supplier": "Newark Electronics",
    "SupplierNumber": "92N3667"
  },
  {
    "OINumber": "0021434",
    "Supplier": "Newark Electronics",
    "SupplierNumber": "50F4719"
  },
  {
    "OINumber": "0021511",
    "Supplier": "Newark Electronics",
    "SupplierNumber": "51F3920"
  },
  {
    "OINumber": "0021534",
    "Supplier": "Newark Electronics",
    "SupplierNumber": "34C4378"
  },
  {
    "OINumber": "0022127",
    "Supplier": "Newark Electronics",
    "SupplierNumber": "12J2828"
  },
  {
    "OINumber": "0022128",
    "Supplier": "Newark Electronics",
    "SupplierNumber": "12J2836         0451001.MRL"
  },
  {
    "OINumber": "0022130",
    "Supplier": "Newark Electronics",
    "SupplierNumber": "12J2840"
  },
  {
    "OINumber": "0022131",
    "Supplier": "Newark Electronics",
    "SupplierNumber": "12J2841"
  },
  {
    "OINumber": "0022132",
    "Supplier": "Newark Electronics",
    "SupplierNumber": "12J2843         0451005.MRL"
  },
  {
    "OINumber": "0022163",
    "Supplier": "Newark Electronics",
    "SupplierNumber": "89F3368"
  },
  {
    "OINumber": "0022282",
    "Supplier": "Newark Electronics",
    "SupplierNumber": "C1LG6"
  },
  {
    "OINumber": "0022657",
    "Supplier": "Newark Electronics",
    "SupplierNumber": "33C3219"
  },
  {
    "OINumber": "0023057",
    "Supplier": "Newark Electronics",
    "SupplierNumber": "20H0751 / AL18"
  },
  {
    "OINumber": "0024624",
    "Supplier": "Newark Electronics",
    "SupplierNumber": "15R7678 (15 PIECE MIN)"
  },
  {
    "OINumber": "0024625",
    "Supplier": "Newark Electronics",
    "SupplierNumber": "MSP300-1000-P-5-N-1"
  },
  {
    "OINumber": "0024885",
    "Supplier": "Newark Electronics",
    "SupplierNumber": "46F052"
  },
  {
    "OINumber": "0026041",
    "Supplier": "Newark Electronics",
    "SupplierNumber": "09F6188"
  },
  {
    "OINumber": "0027396",
    "Supplier": "Newark Electronics",
    "SupplierNumber": "26-03-4020"
  },
  {
    "OINumber": "0027397",
    "Supplier": "Newark Electronics",
    "SupplierNumber": "54H5426"
  },
  {
    "OINumber": "0027559",
    "Supplier": "Newark Electronics"
  },
  {
    "OINumber": "0028330",
    "Supplier": "Newark Electronics",
    "SupplierNumber": "01F9935"
  },
  {
    "OINumber": "0028741",
    "Supplier": "Newark Electronics",
    "SupplierNumber": "90N8925   100FT ROLL"
  },
  {
    "OINumber": "0028746",
    "Supplier": "Newark Electronics",
    "SupplierNumber": "14C3674"
  },
  {
    "OINumber": "0028764",
    "Supplier": "Newark Electronics",
    "SupplierNumber": "03F2415"
  },
  {
    "OINumber": "0029548",
    "Supplier": "Newark Electronics",
    "SupplierNumber": "92N4921"
  },
  {
    "OINumber": "0032845",
    "Supplier": "Newark Electronics",
    "SupplierNumber": "23F4232"
  },
  {
    "OINumber": "0034649",
    "Supplier": "Newark Electronics",
    "SupplierNumber": "50F597"
  },
  {
    "OINumber": "0034650",
    "Supplier": "Newark Electronics",
    "SupplierNumber": "46F318"
  },
  {
    "OINumber": "0035205",
    "Supplier": "Newark Electronics",
    "SupplierNumber": "73H0191"
  },
  {
    "OINumber": "0035205-1",
    "Supplier": "Newark Electronics",
    "SupplierNumber": "67H8552"
  },
  {
    "OINumber": "0035205-2",
    "Supplier": "Newark Electronics",
    "SupplierNumber": "67H8648"
  },
  {
    "OINumber": "0035713",
    "Supplier": "Newark Electronics",
    "SupplierNumber": "93F4166"
  },
  {
    "OINumber": "0036253",
    "Supplier": "Newark Electronics",
    "SupplierNumber": "87K0249"
  },
  {
    "OINumber": "0036415",
    "Supplier": "Newark Electronics",
    "SupplierNumber": "90F6319"
  },
  {
    "OINumber": "0036416",
    "Supplier": "Newark Electronics",
    "SupplierNumber": "93F1450"
  },
  {
    "OINumber": "0036418",
    "Supplier": "Newark Electronics",
    "SupplierNumber": "92N4470"
  },
  {
    "OINumber": "0036419",
    "Supplier": "Newark Electronics",
    "SupplierNumber": "87N818"
  },
  {
    "OINumber": "0036420",
    "Supplier": "Newark Electronics",
    "SupplierNumber": "95F9624"
  },
  {
    "OINumber": "0037876",
    "Supplier": "Newark Electronics",
    "SupplierNumber": "17C6389"
  },
  {
    "OINumber": "0037996",
    "Supplier": "Newark Electronics"
  },
  {
    "OINumber": "0201621",
    "Supplier": "Newark Electronics",
    "SupplierNumber": "97B0626"
  },
  {
    "OINumber": "0202654",
    "Supplier": "Newark Electronics",
    "SupplierNumber": "64K5746"
  },
  {
    "OINumber": "0202896",
    "Supplier": "Newark Electronics",
    "SupplierNumber": "57R5913"
  },
  {
    "OINumber": "0202899",
    "Supplier": "Newark Electronics",
    "SupplierNumber": "91F7289"
  },
  {
    "OINumber": "0202900",
    "Supplier": "Newark Electronics",
    "SupplierNumber": "92F8185"
  },
  {
    "OINumber": "0205680",
    "Supplier": "Newark Electronics",
    "SupplierNumber": "70K9919"
  },
  {
    "OINumber": "0205992",
    "Supplier": "Newark Electronics",
    "SupplierNumber": "23F145"
  },
  {
    "OINumber": "0207619",
    "Supplier": "Newark Electronics",
    "SupplierNumber": "97B3308"
  },
  {
    "OINumber": "0207814",
    "Supplier": "Newark Electronics",
    "SupplierNumber": "50P9218"
  },
  {
    "OINumber": "0209371",
    "Supplier": "Newark Electronics",
    "SupplierNumber": "89K2909"
  },
  {
    "OINumber": "0209384",
    "Supplier": "Newark Electronics",
    "SupplierNumber": "MAX7301ANI"
  },
  {
    "OINumber": "0209386",
    "Supplier": "Newark Electronics",
    "SupplierNumber": "MAX7301AAX MIN 30PCS"
  },
  {
    "OINumber": "0209389",
    "Supplier": "Newark Electronics",
    "SupplierNumber": "75T7458"
  },
  {
    "OINumber": "0210025",
    "Supplier": "Newark Electronics",
    "SupplierNumber": "41M0770"
  },
  {
    "OINumber": "0210204",
    "Supplier": "Newark Electronics",
    "SupplierNumber": "MAX1271ACNG 15 PCS MIN."
  },
  {
    "OINumber": "0210649",
    "Supplier": "Newark Electronics",
    "SupplierNumber": "216-201"
  },
  {
    "OINumber": "0218345",
    "Supplier": "Newark Electronics",
    "SupplierNumber": "01F9945"
  },
  {
    "OINumber": "0218827",
    "Supplier": "Newark Electronics",
    "SupplierNumber": "97B3957"
  },
  {
    "OINumber": "0218828",
    "Supplier": "Newark Electronics",
    "SupplierNumber": "03F21413"
  },
  {
    "OINumber": "0218869",
    "Supplier": "Newark Electronics",
    "SupplierNumber": "93K7624"
  },
  {
    "OINumber": "0218870",
    "Supplier": "Newark Electronics",
    "SupplierNumber": "58K7850"
  },
  {
    "OINumber": "0219005",
    "Supplier": "Newark Electronics",
    "SupplierNumber": "81F1860"
  },
  {
    "OINumber": "0219228",
    "Supplier": "Newark Electronics",
    "SupplierNumber": "61K5461 / 1597420000"
  },
  {
    "OINumber": "0266200",
    "Supplier": "Newark Electronics",
    "SupplierNumber": "99H5285"
  },
  {
    "OINumber": "0267633",
    "Supplier": "Newark Electronics",
    "SupplierNumber": "1716320000"
  },
  {
    "OINumber": "0267635",
    "Supplier": "Newark Electronics",
    "SupplierNumber": "67C0959"
  },
  {
    "OINumber": "0268243",
    "Supplier": "Newark Electronics",
    "SupplierNumber": "46F1334"
  },
  {
    "OINumber": "0268272",
    "Supplier": "Newark Electronics"
  },
  {
    "OINumber": "0268443",
    "Supplier": "Newark Electronics",
    "SupplierNumber": "84F280"
  },
  {
    "OINumber": "0268491",
    "Supplier": "Newark Electronics",
    "SupplierNumber": "PK10 15M8867 31C7682"
  },
  {
    "OINumber": "0268511",
    "Supplier": "Newark Electronics"
  },
  {
    "OINumber": "0268796",
    "Supplier": "Newark Electronics"
  },
  {
    "OINumber": "0269593",
    "Supplier": "Newark Electronics",
    "SupplierNumber": "O8B705"
  },
  {
    "OINumber": "0270714",
    "Supplier": "Newark Electronics",
    "SupplierNumber": "17M8545"
  },
  {
    "OINumber": "0271436",
    "Supplier": "Newark Electronics",
    "SupplierNumber": "23F1989"
  },
  {
    "OINumber": "0272263",
    "Supplier": "Newark Electronics",
    "SupplierNumber": "131-8403-111"
  },
  {
    "OINumber": "0273101",
    "Supplier": "Newark Electronics",
    "SupplierNumber": "GMA-200MA"
  },
  {
    "OINumber": "0273907",
    "Supplier": "Newark Electronics",
    "SupplierNumber": "HCPL-7840"
  },
  {
    "OINumber": "0275845",
    "Supplier": "Newark Electronics",
    "SupplierNumber": "PYF14A-E"
  },
  {
    "OINumber": "0275876",
    "Supplier": "Newark Electronics",
    "SupplierNumber": "14C7920"
  },
  {
    "OINumber": "0276028",
    "Supplier": "Newark Electronics",
    "SupplierNumber": "14M8227 AND 13M2868"
  },
  {
    "OINumber": "0276029",
    "Supplier": "Newark Electronics",
    "SupplierNumber": "14M8220 AND 13M2865"
  },
  {
    "OINumber": "0276030",
    "Supplier": "Newark Electronics",
    "SupplierNumber": "14M8205 AND 13M2862"
  },
  {
    "OINumber": "0277489",
    "Supplier": "Newark Electronics",
    "SupplierNumber": "58K2756"
  },
  {
    "OINumber": "0277491",
    "Supplier": "Newark Electronics"
  },
  {
    "OINumber": "0280816",
    "Supplier": "Newark Electronics",
    "SupplierNumber": "NEWARK PART NUMBER: 34C4418"
  },
  {
    "OINumber": "0281817",
    "Supplier": "Newark Electronics",
    "SupplierNumber": "21F638"
  },
  {
    "OINumber": "0285322",
    "Supplier": "Newark Electronics",
    "SupplierNumber": "F1X2LG6"
  },
  {
    "OINumber": "0285323",
    "Supplier": "Newark Electronics",
    "SupplierNumber": "F1.5X2LG6"
  },
  {
    "OINumber": "0288207",
    "Supplier": "Newark Electronics",
    "SupplierNumber": "TA2-81219"
  },
  {
    "OINumber": "0289215",
    "Supplier": "Newark Electronics",
    "SupplierNumber": "CE06-0150"
  },
  {
    "OINumber": "0289219",
    "Supplier": "Newark Electronics",
    "SupplierNumber": "93F1169"
  },
  {
    "OINumber": "0290281",
    "Supplier": "Newark Electronics",
    "SupplierNumber": "08J5078"
  },
  {
    "OINumber": "0291568",
    "Supplier": "Newark Electronics",
    "SupplierNumber": "19J1122"
  },
  {
    "OINumber": "0291795",
    "Supplier": "Newark Electronics",
    "SupplierNumber": "07J0329"
  },
  {
    "OINumber": "0292580",
    "Supplier": "Newark Electronics",
    "SupplierNumber": "17M8545"
  },
  {
    "OINumber": "0293317",
    "Supplier": "Newark Electronics",
    "SupplierNumber": "KTK-R-30"
  },
  {
    "OINumber": "0293783",
    "Supplier": "Newark Electronics",
    "SupplierNumber": "SDN20-24-100P"
  },
  {
    "OINumber": "0293804",
    "Supplier": "Newark Electronics",
    "SupplierNumber": "SDN2.5-20RED"
  },
  {
    "OINumber": "0295053",
    "Supplier": "Newark Electronics",
    "SupplierNumber": "17M8598"
  },
  {
    "OINumber": "0295087",
    "Supplier": "Newark Electronics",
    "SupplierNumber": "48K9389"
  },
  {
    "OINumber": "0295090",
    "Supplier": "Newark Electronics",
    "SupplierNumber": "46F066"
  },
  {
    "OINumber": "0295091",
    "Supplier": "Newark Electronics",
    "SupplierNumber": "70B2015"
  },
  {
    "OINumber": "0297845",
    "Supplier": "Newark Electronics"
  },
  {
    "OINumber": "0298168",
    "Supplier": "Newark Electronics"
  },
  {
    "OINumber": "0298211-1",
    "Supplier": "Newark Electronics",
    "SupplierNumber": "74R2303"
  },
  {
    "OINumber": "0299357",
    "Supplier": "Newark Electronics",
    "SupplierNumber": "A16H1206SS6LP"
  },
  {
    "OINumber": "0299358",
    "Supplier": "Newark Electronics",
    "SupplierNumber": "A16P12"
  },
  {
    "OINumber": "0300189",
    "Supplier": "Newark Electronics",
    "SupplierNumber": "SD7-2 TC COMMUNICATIONS"
  },
  {
    "OINumber": "0300572",
    "Supplier": "Newark Electronics",
    "SupplierNumber": "70-379-1 MAGNECRAFT"
  },
  {
    "OINumber": "0300573",
    "Supplier": "Newark Electronics",
    "SupplierNumber": "95B7512 SPC TECHNOLOGY  (16-1342)"
  },
  {
    "OINumber": "0302839",
    "Supplier": "Newark Electronics",
    "SupplierNumber": "PT02E12-10P"
  },
  {
    "OINumber": "0302840",
    "Supplier": "Newark Electronics",
    "SupplierNumber": "PT06E12-10S (SR)"
  },
  {
    "OINumber": "0302841",
    "Supplier": "Newark Electronics",
    "SupplierNumber": "00000001544"
  },
  {
    "OINumber": "0302842",
    "Supplier": "Newark Electronics",
    "SupplierNumber": "PT06E14-18S(SR)"
  },
  {
    "OINumber": "0302843",
    "Supplier": "Newark Electronics"
  },
  {
    "OINumber": "0302844",
    "Supplier": "Newark Electronics"
  },
  {
    "OINumber": "0302845",
    "Supplier": "Newark Electronics",
    "SupplierNumber": "PT02E16-26P"
  },
  {
    "OINumber": "0302846",
    "Supplier": "Newark Electronics",
    "SupplierNumber": "PT06E16-26S(SR)"
  },
  {
    "OINumber": "0302847",
    "Supplier": "Newark Electronics",
    "SupplierNumber": "PT02E16-26S"
  },
  {
    "OINumber": "0302848",
    "Supplier": "Newark Electronics",
    "SupplierNumber": "PT06E16-26P(SR)"
  },
  {
    "OINumber": "0302849",
    "Supplier": "Newark Electronics",
    "SupplierNumber": "PT03E18-32S"
  },
  {
    "OINumber": "0302850",
    "Supplier": "Newark Electronics",
    "SupplierNumber": "PT06E18-32P(SR)"
  },
  {
    "OINumber": "0302851",
    "Supplier": "Newark Electronics"
  },
  {
    "OINumber": "0302852",
    "Supplier": "Newark Electronics"
  },
  {
    "OINumber": "0302853",
    "Supplier": "Newark Electronics",
    "SupplierNumber": "PT02E20-41P"
  },
  {
    "OINumber": "0302854",
    "Supplier": "Newark Electronics",
    "SupplierNumber": "PT06E20-41S(SR)"
  },
  {
    "OINumber": "0302855",
    "Supplier": "Newark Electronics",
    "SupplierNumber": "PT02E20-41S"
  },
  {
    "OINumber": "0302856",
    "Supplier": "Newark Electronics",
    "SupplierNumber": "PT06E20-41P(SR)"
  },
  {
    "OINumber": "0302857",
    "Supplier": "Newark Electronics",
    "SupplierNumber": "PT02E22-55S"
  },
  {
    "OINumber": "0302858",
    "Supplier": "Newark Electronics",
    "SupplierNumber": "PT06E122-55P(SR)"
  },
  {
    "OINumber": "0302859",
    "Supplier": "Newark Electronics",
    "SupplierNumber": "PT02E22-55P"
  },
  {
    "OINumber": "0302860",
    "Supplier": "Newark Electronics"
  },
  {
    "OINumber": "0303449",
    "Supplier": "Newark Electronics",
    "SupplierNumber": "26K8074"
  },
  {
    "OINumber": "0304207",
    "Supplier": "Newark Electronics",
    "SupplierNumber": "88K2528"
  },
  {
    "OINumber": "0304208",
    "Supplier": "Newark Electronics",
    "SupplierNumber": "423K"
  },
  {
    "OINumber": "0304621",
    "Supplier": "Newark Electronics",
    "SupplierNumber": "10-101949-012"
  },
  {
    "OINumber": "0304622",
    "Supplier": "Newark Electronics",
    "SupplierNumber": "10-101949-014"
  },
  {
    "OINumber": "0304623",
    "Supplier": "Newark Electronics"
  },
  {
    "OINumber": "0304624",
    "Supplier": "Newark Electronics"
  },
  {
    "OINumber": "0304625",
    "Supplier": "Newark Electronics"
  },
  {
    "OINumber": "0304626",
    "Supplier": "Newark Electronics",
    "SupplierNumber": "10-101949-022"
  },
  {
    "OINumber": "0304627",
    "Supplier": "Newark Electronics"
  },
  {
    "OINumber": "0304844",
    "Supplier": "Newark Electronics",
    "SupplierNumber": "31M6628"
  },
  {
    "OINumber": "0305456",
    "Supplier": "Newark Electronics",
    "SupplierNumber": "50F2510           MS3102R18-1S"
  },
  {
    "OINumber": "0305458",
    "Supplier": "Newark Electronics",
    "SupplierNumber": "85C4057"
  },
  {
    "OINumber": "0305632",
    "Supplier": "Newark Electronics",
    "SupplierNumber": "HIROSE ( DF11-TA22HC/US)"
  },
  {
    "OINumber": "0305818",
    "Supplier": "Newark Electronics",
    "SupplierNumber": "DRRJ45T8"
  },
  {
    "OINumber": "0305937",
    "Supplier": "Newark Electronics",
    "SupplierNumber": "TKAD"
  },
  {
    "OINumber": "0307514",
    "Supplier": "Newark Electronics",
    "SupplierNumber": "8910 DPA12V02 Y135"
  },
  {
    "OINumber": "0308887",
    "Supplier": "Newark Electronics",
    "SupplierNumber": "E34FB197HLRP24"
  },
  {
    "OINumber": "0308888",
    "Supplier": "Newark Electronics",
    "SupplierNumber": "E34FB197HLRP24"
  },
  {
    "OINumber": "0309398",
    "Supplier": "Newark Electronics"
  },
  {
    "OINumber": "0309628",
    "Supplier": "Newark Electronics",
    "SupplierNumber": "SCD30S5-DN"
  },
  {
    "OINumber": "0309741",
    "Supplier": "Newark Electronics"
  },
  {
    "OINumber": "0309742",
    "Supplier": "Newark Electronics"
  },
  {
    "OINumber": "0309743",
    "Supplier": "Newark Electronics"
  },
  {
    "OINumber": "0309744",
    "Supplier": "Newark Electronics"
  },
  {
    "OINumber": "0310791",
    "Supplier": "Newark Electronics",
    "SupplierNumber": "08-50-0114"
  },
  {
    "OINumber": "0311170",
    "Supplier": "Newark Electronics",
    "SupplierNumber": "10-11-2083"
  },
  {
    "OINumber": "0312332",
    "Supplier": "Newark Electronics",
    "SupplierNumber": "16F9763"
  },
  {
    "OINumber": "0313393",
    "Supplier": "Newark Electronics",
    "SupplierNumber": "97-3057-6"
  },
  {
    "OINumber": "0313395",
    "Supplier": "Newark Electronics",
    "SupplierNumber": "97-3055-14-6"
  },
  {
    "OINumber": "0313396",
    "Supplier": "Newark Electronics",
    "SupplierNumber": "97-3106A-16S-1P"
  },
  {
    "OINumber": "0313397",
    "Supplier": "Newark Electronics",
    "SupplierNumber": "97-3057-1008"
  },
  {
    "OINumber": "0313398",
    "Supplier": "Newark Electronics",
    "SupplierNumber": "97-3102A-16S"
  },
  {
    "OINumber": "0313399",
    "Supplier": "Newark Electronics",
    "SupplierNumber": "97-16S-1S"
  },
  {
    "OINumber": "0313400",
    "Supplier": "Newark Electronics",
    "SupplierNumber": "97-3057-1010"
  },
  {
    "OINumber": "0314732",
    "Supplier": "Newark Electronics",
    "SupplierNumber": "10N694"
  },
  {
    "OINumber": "0315253",
    "Supplier": "Newark Electronics",
    "SupplierNumber": "140J-1"
  },
  {
    "OINumber": "0315954",
    "Supplier": "Newark Electronics",
    "SupplierNumber": "MS-10-142"
  },
  {
    "OINumber": "0316156",
    "Supplier": "Newark Electronics"
  },
  {
    "OINumber": "0316163",
    "Supplier": "Newark Electronics"
  },
  {
    "OINumber": "0316164",
    "Supplier": "Newark Electronics"
  },
  {
    "OINumber": "0316166",
    "Supplier": "Newark Electronics",
    "SupplierNumber": "PT02E12-8S"
  },
  {
    "OINumber": "0316168",
    "Supplier": "Newark Electronics"
  },
  {
    "OINumber": "0316169",
    "Supplier": "Newark Electronics"
  },
  {
    "OINumber": "0316757",
    "Supplier": "Newark Electronics",
    "SupplierNumber": "06B5792"
  },
  {
    "OINumber": "0316994",
    "Supplier": "Newark Electronics"
  },
  {
    "OINumber": "0316995",
    "Supplier": "Newark Electronics"
  },
  {
    "OINumber": "0317571",
    "Supplier": "Newark Electronics"
  },
  {
    "OINumber": "0317573",
    "Supplier": "Newark Electronics"
  },
  {
    "OINumber": "0317613",
    "Supplier": "Newark Electronics"
  },
  {
    "OINumber": "0317630",
    "Supplier": "Newark Electronics"
  },
  {
    "OINumber": "0317839",
    "Supplier": "Newark Electronics"
  },
  {
    "OINumber": "0317840",
    "Supplier": "Newark Electronics"
  },
  {
    "OINumber": "0317842",
    "Supplier": "Newark Electronics"
  },
  {
    "OINumber": "0317844",
    "Supplier": "Newark Electronics"
  },
  {
    "OINumber": "0318825",
    "Supplier": "Newark Electronics",
    "SupplierNumber": "EN3L6M"
  },
  {
    "OINumber": "0318899",
    "Supplier": "Newark Electronics",
    "SupplierNumber": "46F121"
  },
  {
    "OINumber": "0318901",
    "Supplier": "Newark Electronics",
    "SupplierNumber": "46F122"
  },
  {
    "OINumber": "0318908",
    "Supplier": "Newark Electronics",
    "SupplierNumber": "NLP65-9624J"
  },
  {
    "OINumber": "0318922",
    "Supplier": "Newark Electronics",
    "SupplierNumber": "248654"
  },
  {
    "OINumber": "0318923",
    "Supplier": "Newark Electronics",
    "SupplierNumber": "08WX5656"
  },
  {
    "OINumber": "0319901",
    "Supplier": "Newark Electronics"
  },
  {
    "OINumber": "0319902",
    "Supplier": "Newark Electronics"
  },
  {
    "OINumber": "0321544",
    "Supplier": "Newark Electronics",
    "SupplierNumber": "54H6896"
  },
  {
    "OINumber": "0321841",
    "Supplier": "Newark Electronics",
    "SupplierNumber": "1321029-10"
  },
  {
    "OINumber": "0324473",
    "Supplier": "Newark Electronics",
    "SupplierNumber": "95B1456"
  },
  {
    "OINumber": "0324474",
    "Supplier": "Newark Electronics",
    "SupplierNumber": "77C5299"
  },
  {
    "OINumber": "0324483",
    "Supplier": "Newark Electronics"
  },
  {
    "OINumber": "0325493",
    "Supplier": "Newark Electronics"
  },
  {
    "OINumber": "0329295",
    "Supplier": "Newark Electronics",
    "SupplierNumber": "69133"
  },
  {
    "OINumber": "0329296",
    "Supplier": "Newark Electronics",
    "SupplierNumber": "63163"
  },
  {
    "OINumber": "0329676",
    "Supplier": "Newark Electronics"
  },
  {
    "OINumber": "0329837",
    "Supplier": "Newark Electronics"
  },
  {
    "OINumber": "0329838",
    "Supplier": "Newark Electronics"
  },
  {
    "OINumber": "0332678",
    "Supplier": "Newark Electronics",
    "SupplierNumber": "89F2776"
  },
  {
    "OINumber": "0333390",
    "Supplier": "Newark Electronics",
    "SupplierNumber": "31K6245(1000')"
  },
  {
    "OINumber": "0333915",
    "Supplier": "Newark Electronics",
    "SupplierNumber": "76K1088"
  },
  {
    "OINumber": "0337116",
    "Supplier": "Newark Electronics"
  },
  {
    "OINumber": "0338042",
    "Supplier": "Newark Electronics",
    "SupplierNumber": "66K8151"
  },
  {
    "OINumber": "0338233",
    "Supplier": "Newark Electronics",
    "SupplierNumber": "97H4146 (48FT)"
  },
  {
    "OINumber": "0338775",
    "Supplier": "Newark Electronics"
  },
  {
    "OINumber": "0339406",
    "Supplier": "Newark Electronics",
    "SupplierNumber": "DSP100-24"
  },
  {
    "OINumber": "0339406",
    "Supplier": "Newark Electronics",
    "SupplierNumber": "DSP100-24"
  },
  {
    "OINumber": "0339440",
    "Supplier": "Newark Electronics",
    "SupplierNumber": "4715MS-12T-B50"
  },
  {
    "OINumber": "0340016",
    "Supplier": "Newark Electronics",
    "SupplierNumber": "37R3347"
  },
  {
    "OINumber": "0340281",
    "Supplier": "Newark Electronics",
    "SupplierNumber": "89F4787"
  },
  {
    "OINumber": "0340401",
    "Supplier": "Newark Electronics",
    "SupplierNumber": "93F4517"
  },
  {
    "OINumber": "0340404",
    "Supplier": "Newark Electronics",
    "SupplierNumber": "52K3475"
  },
  {
    "OINumber": "0340502",
    "Supplier": "Newark Electronics"
  },
  {
    "OINumber": "0341731",
    "Supplier": "Newark Electronics",
    "SupplierNumber": "13M1356"
  },
  {
    "OINumber": "0344339",
    "Supplier": "Newark Electronics",
    "SupplierNumber": "53K9094"
  },
  {
    "OINumber": "0352294",
    "Supplier": "Newark Electronics",
    "SupplierNumber": "89M8688"
  },
  {
    "OINumber": "0353854",
    "Supplier": "Newark Electronics",
    "SupplierNumber": "26M8168"
  },
  {
    "OINumber": "0353939",
    "Supplier": "Newark Electronics",
    "SupplierNumber": "30M0249"
  },
  {
    "OINumber": "0357092",
    "Supplier": "Newark Electronics",
    "SupplierNumber": "00Z1764"
  },
  {
    "OINumber": "0357643",
    "Supplier": "Newark Electronics",
    "SupplierNumber": "44F622"
  },
  {
    "OINumber": "0358541",
    "Supplier": "Newark Electronics",
    "SupplierNumber": "23C9860"
  },
  {
    "OINumber": "0371218",
    "Supplier": "Newark Electronics"
  },
  {
    "OINumber": "0376501",
    "Supplier": "Newark Electronics",
    "SupplierNumber": "74K3789"
  },
  {
    "OINumber": "0376502",
    "Supplier": "Newark Electronics",
    "SupplierNumber": "74K3693"
  },
  {
    "OINumber": "0376503",
    "Supplier": "Newark Electronics",
    "SupplierNumber": "74K3800"
  },
  {
    "OINumber": "0376504",
    "Supplier": "Newark Electronics",
    "SupplierNumber": "74K3799"
  },
  {
    "OINumber": "0376505",
    "Supplier": "Newark Electronics",
    "SupplierNumber": "74K3599"
  },
  {
    "OINumber": "0376506",
    "Supplier": "Newark Electronics",
    "SupplierNumber": "74K3674"
  },
  {
    "OINumber": "0376507",
    "Supplier": "Newark Electronics",
    "SupplierNumber": "32H7160"
  },
  {
    "OINumber": "0376508",
    "Supplier": "Newark Electronics",
    "SupplierNumber": "92C2885"
  },
  {
    "OINumber": "0376509",
    "Supplier": "Newark Electronics",
    "SupplierNumber": "55F2577"
  },
  {
    "OINumber": "0376510",
    "Supplier": "Newark Electronics",
    "SupplierNumber": "20C3984"
  },
  {
    "OINumber": "0378762",
    "Supplier": "Newark Electronics",
    "SupplierNumber": "92F7592"
  },
  {
    "OINumber": "0378763",
    "Supplier": "Newark Electronics",
    "SupplierNumber": "89K8011"
  },
  {
    "OINumber": "0378819",
    "Supplier": "Newark Electronics",
    "SupplierNumber": "4290"
  },
  {
    "OINumber": "0378830",
    "Supplier": "Newark Electronics",
    "SupplierNumber": "52F9047"
  },
  {
    "OINumber": "0379416",
    "Supplier": "Newark Electronics",
    "SupplierNumber": "26K7771"
  },
  {
    "OINumber": "0379417",
    "Supplier": "Newark Electronics",
    "SupplierNumber": "12P6957"
  },
  {
    "OINumber": "0379423",
    "Supplier": "Newark Electronics",
    "SupplierNumber": "23T5373"
  },
  {
    "OINumber": "0379426",
    "Supplier": "Newark Electronics",
    "SupplierNumber": "58K5035"
  },
  {
    "OINumber": "0379427",
    "Supplier": "Newark Electronics",
    "SupplierNumber": "05J1905"
  },
  {
    "OINumber": "0379621",
    "Supplier": "Newark Electronics",
    "SupplierNumber": "98B9471"
  },
  {
    "OINumber": "0379781",
    "Supplier": "Newark Electronics",
    "SupplierNumber": "89F2777"
  },
  {
    "OINumber": "0379839",
    "Supplier": "Newark Electronics",
    "SupplierNumber": "25C4804"
  },
  {
    "OINumber": "0380147",
    "Supplier": "Newark Electronics",
    "SupplierNumber": "24B007"
  },
  {
    "OINumber": "0380148",
    "Supplier": "Newark Electronics",
    "SupplierNumber": "96F8302"
  },
  {
    "OINumber": "0380748",
    "Supplier": "Newark Electronics",
    "SupplierNumber": "71M3869"
  },
  {
    "OINumber": "0380749",
    "Supplier": "Newark Electronics",
    "SupplierNumber": "46P7844"
  },
  {
    "OINumber": "0382609",
    "Supplier": "Newark Electronics",
    "SupplierNumber": "27M9667"
  },
  {
    "OINumber": "0382620",
    "Supplier": "Newark Electronics",
    "SupplierNumber": "29K3955"
  },
  {
    "OINumber": "0382625",
    "Supplier": "Newark Electronics",
    "SupplierNumber": "29K4055"
  },
  {
    "OINumber": "0382626",
    "Supplier": "Newark Electronics",
    "SupplierNumber": "29K3967"
  },
  {
    "OINumber": "0382627",
    "Supplier": "Newark Electronics",
    "SupplierNumber": "29K4023"
  },
  {
    "OINumber": "0382628",
    "Supplier": "Newark Electronics",
    "SupplierNumber": "29K3974"
  },
  {
    "OINumber": "0382629",
    "Supplier": "Newark Electronics",
    "SupplierNumber": "98M7291"
  },
  {
    "OINumber": "0382630",
    "Supplier": "Newark Electronics",
    "SupplierNumber": "06R3631"
  },
  {
    "OINumber": "0385577",
    "Supplier": "Newark Electronics",
    "SupplierNumber": "10B7255"
  },
  {
    "OINumber": "0386379",
    "Supplier": "Newark Electronics",
    "SupplierNumber": "95H6628"
  },
  {
    "OINumber": "0386653",
    "Supplier": "Newark Electronics",
    "SupplierNumber": "24M6137"
  },
  {
    "OINumber": "0386755",
    "Supplier": "Newark Electronics",
    "SupplierNumber": "25M9509"
  },
  {
    "OINumber": "0386821",
    "Supplier": "Newark Electronics",
    "SupplierNumber": "81F1867 (PK 10)"
  },
  {
    "OINumber": "0386924",
    "Supplier": "Newark Electronics",
    "SupplierNumber": "03H1716"
  },
  {
    "OINumber": "0389465",
    "Supplier": "Newark Electronics",
    "SupplierNumber": "57R7953         113232"
  },
  {
    "OINumber": "0392863",
    "Supplier": "Newark Electronics",
    "SupplierNumber": "10R9063"
  },
  {
    "OINumber": "0394867",
    "Supplier": "Newark Electronics",
    "SupplierNumber": "78K5899"
  },
  {
    "OINumber": "0395246",
    "Supplier": "Newark Electronics",
    "SupplierNumber": "8845-EFPT"
  },
  {
    "OINumber": "0399237",
    "Supplier": "Newark Electronics",
    "SupplierNumber": "20H0141"
  },
  {
    "OINumber": "0399241",
    "Supplier": "Newark Electronics",
    "SupplierNumber": "11H4297"
  },
  {
    "OINumber": "0399255",
    "Supplier": "Newark Electronics",
    "SupplierNumber": "90F5658"
  },
  {
    "OINumber": "0399256",
    "Supplier": "Newark Electronics",
    "SupplierNumber": "90F4829"
  },
  {
    "OINumber": "0399636",
    "Supplier": "Newark Electronics",
    "SupplierNumber": "45M5528"
  },
  {
    "OINumber": "0402651",
    "Supplier": "Newark Electronics",
    "SupplierNumber": "63J7435"
  },
  {
    "OINumber": "0402655",
    "Supplier": "Newark Electronics",
    "SupplierNumber": "84F1844"
  },
  {
    "OINumber": "0403145",
    "Supplier": "Newark Electronics",
    "SupplierNumber": "23WX3104"
  },
  {
    "OINumber": "0403194",
    "Supplier": "Newark Electronics",
    "SupplierNumber": "56P2965"
  },
  {
    "OINumber": "0403246",
    "Supplier": "Newark Electronics",
    "SupplierNumber": "87P0753"
  },
  {
    "OINumber": "0403247",
    "Supplier": "Newark Electronics",
    "SupplierNumber": "81F9768"
  },
  {
    "OINumber": "0403904",
    "Supplier": "Newark Electronics",
    "SupplierNumber": "96H0159"
  },
  {
    "OINumber": "0407535",
    "Supplier": "Newark Electronics",
    "SupplierNumber": "KTH-1000"
  },
  {
    "OINumber": "0407535-1",
    "Supplier": "Newark Electronics",
    "SupplierNumber": "96B5987"
  },
  {
    "OINumber": "0408637",
    "Supplier": "Newark Electronics",
    "SupplierNumber": "12T8430"
  },
  {
    "OINumber": "0412217",
    "Supplier": "Newark Electronics",
    "SupplierNumber": "25R5503 ----  0326030.MXP"
  },
  {
    "OINumber": "0412341",
    "Supplier": "Newark Electronics"
  },
  {
    "OINumber": "0412394",
    "Supplier": "Newark Electronics"
  },
  {
    "OINumber": "0415305",
    "Supplier": "Newark Electronics"
  },
  {
    "OINumber": "0415313",
    "Supplier": "Newark Electronics",
    "SupplierNumber": "44F8409"
  },
  {
    "OINumber": "0415322",
    "Supplier": "Newark Electronics",
    "SupplierNumber": "63J7317"
  },
  {
    "OINumber": "0415379",
    "Supplier": "Newark Electronics",
    "SupplierNumber": "991F5198"
  },
  {
    "OINumber": "0415381",
    "Supplier": "Newark Electronics",
    "SupplierNumber": "91F5201"
  },
  {
    "OINumber": "0415384",
    "Supplier": "Newark Electronics",
    "SupplierNumber": "52N9769"
  },
  {
    "OINumber": "0415385",
    "Supplier": "Newark Electronics",
    "SupplierNumber": "52N9768"
  },
  {
    "OINumber": "0415386",
    "Supplier": "Newark Electronics",
    "SupplierNumber": "50N490"
  },
  {
    "OINumber": "0415685",
    "Supplier": "Newark Electronics",
    "SupplierNumber": "10R1831"
  },
  {
    "OINumber": "0415686",
    "Supplier": "Newark Electronics",
    "SupplierNumber": "10R1830"
  },
  {
    "OINumber": "0419749",
    "Supplier": "Newark Electronics",
    "SupplierNumber": "90F740"
  },
  {
    "OINumber": "0419754",
    "Supplier": "Newark Electronics",
    "SupplierNumber": "11M0472"
  },
  {
    "OINumber": "0419759",
    "Supplier": "Newark Electronics",
    "SupplierNumber": "58K3836"
  },
  {
    "OINumber": "0419789",
    "Supplier": "Newark Electronics",
    "SupplierNumber": "16M3465"
  },
  {
    "OINumber": "0419790",
    "Supplier": "Newark Electronics",
    "SupplierNumber": "42K6788"
  },
  {
    "OINumber": "0419805",
    "Supplier": "Newark Electronics",
    "SupplierNumber": "03F4197"
  },
  {
    "OINumber": "0420074",
    "Supplier": "Newark Electronics",
    "SupplierNumber": "56H9412"
  },
  {
    "OINumber": "0421150",
    "Supplier": "Newark Electronics"
  },
  {
    "OINumber": "0421308",
    "Supplier": "Newark Electronics",
    "SupplierNumber": "12K0073"
  },
  {
    "OINumber": "0422772",
    "Supplier": "Newark Electronics",
    "SupplierNumber": "10R6968"
  },
  {
    "OINumber": "0423542",
    "Supplier": "Newark Electronics",
    "SupplierNumber": "51F4073"
  },
  {
    "OINumber": "0424519",
    "Supplier": "Newark Electronics",
    "SupplierNumber": "93B7892"
  },
  {
    "OINumber": "0424536",
    "Supplier": "Newark Electronics",
    "SupplierNumber": "17C8356"
  },
  {
    "OINumber": "0426835",
    "Supplier": "Newark Electronics",
    "SupplierNumber": "LIT-026303.5HAT1L"
  },
  {
    "OINumber": "0427131",
    "Supplier": "Newark Electronics",
    "SupplierNumber": "39M5905"
  },
  {
    "OINumber": "0427282",
    "Supplier": "Newark Electronics",
    "SupplierNumber": "3Y4IN-DC24(S)"
  },
  {
    "OINumber": "0429449",
    "Supplier": "Newark Electronics",
    "SupplierNumber": "64T2215"
  },
  {
    "OINumber": "0429450",
    "Supplier": "Newark Electronics",
    "SupplierNumber": "02P9979"
  },
  {
    "OINumber": "0430859",
    "Supplier": "Newark Electronics",
    "SupplierNumber": "95F2664"
  },
  {
    "OINumber": "0430860",
    "Supplier": "Newark Electronics",
    "SupplierNumber": "46W1298         SMC-9-STST"
  },
  {
    "OINumber": "0431095",
    "Supplier": "Newark Electronics",
    "SupplierNumber": "1606KL-05W-B30"
  },
  {
    "OINumber": "0434244",
    "Supplier": "Newark Electronics",
    "SupplierNumber": "96M9595"
  },
  {
    "OINumber": "0434245",
    "Supplier": "Newark Electronics",
    "SupplierNumber": "28K7493"
  },
  {
    "OINumber": "0434246",
    "Supplier": "Newark Electronics",
    "SupplierNumber": "28K7497"
  },
  {
    "OINumber": "0434247",
    "Supplier": "Newark Electronics"
  },
  {
    "OINumber": "0434251",
    "Supplier": "Newark Electronics",
    "SupplierNumber": "48P5191"
  },
  {
    "OINumber": "0434266",
    "Supplier": "Newark Electronics",
    "SupplierNumber": "32R8782"
  },
  {
    "OINumber": "0434269",
    "Supplier": "Newark Electronics"
  },
  {
    "OINumber": "0434282",
    "Supplier": "Newark Electronics",
    "SupplierNumber": "89W0426"
  },
  {
    "OINumber": "0434301",
    "Supplier": "Newark Electronics",
    "SupplierNumber": "67W0747"
  },
  {
    "OINumber": "0434334",
    "Supplier": "Newark Electronics",
    "SupplierNumber": "31C9348"
  },
  {
    "OINumber": "0435721",
    "Supplier": "Newark Electronics"
  },
  {
    "OINumber": "0439270",
    "Supplier": "Newark Electronics",
    "SupplierNumber": "48K3559"
  },
  {
    "OINumber": "0440123",
    "Supplier": "Newark Electronics",
    "SupplierNumber": "10R1838"
  },
  {
    "OINumber": "0440128",
    "Supplier": "Newark Electronics",
    "SupplierNumber": "10R1838"
  },
  {
    "OINumber": "0440163",
    "Supplier": "Newark Electronics",
    "SupplierNumber": "97H6666 (PK 100)"
  },
  {
    "OINumber": "0440164",
    "Supplier": "Newark Electronics",
    "SupplierNumber": "02M0380"
  },
  {
    "OINumber": "0440165",
    "Supplier": "Newark Electronics",
    "SupplierNumber": "30C2339"
  },
  {
    "OINumber": "0440166",
    "Supplier": "Newark Electronics",
    "SupplierNumber": "59K9225"
  },
  {
    "OINumber": "0440169",
    "Supplier": "Newark Electronics",
    "SupplierNumber": "40T6920"
  },
  {
    "OINumber": "0442945",
    "Supplier": "Newark Electronics",
    "SupplierNumber": "25M4118"
  },
  {
    "OINumber": "0443077",
    "Supplier": "Newark Electronics",
    "SupplierNumber": "52N9771"
  },
  {
    "OINumber": "0444714",
    "Supplier": "Newark Electronics",
    "SupplierNumber": "18K9295"
  },
  {
    "OINumber": "0444964",
    "Supplier": "Newark Electronics",
    "SupplierNumber": "83F3335"
  },
  {
    "OINumber": "0447235",
    "Supplier": "Newark Electronics",
    "SupplierNumber": "2TL1-3"
  },
  {
    "OINumber": "0451227",
    "Supplier": "Newark Electronics",
    "SupplierNumber": "87F4677"
  },
  {
    "OINumber": "0451228",
    "Supplier": "Newark Electronics",
    "SupplierNumber": "43K4284"
  },
  {
    "OINumber": "0451232",
    "Supplier": "Newark Electronics",
    "SupplierNumber": "42K2813"
  },
  {
    "OINumber": "0451237",
    "Supplier": "Newark Electronics",
    "SupplierNumber": "11H4284"
  },
  {
    "OINumber": "0451242",
    "Supplier": "Newark Electronics",
    "SupplierNumber": "11H4294"
  },
  {
    "OINumber": "0451243",
    "Supplier": "Newark Electronics",
    "SupplierNumber": "99H5270"
  },
  {
    "OINumber": "0451244",
    "Supplier": "Newark Electronics",
    "SupplierNumber": "99H5276"
  },
  {
    "OINumber": "0454909",
    "Supplier": "Newark Electronics",
    "SupplierNumber": "94F4258"
  },
  {
    "OINumber": "0456293",
    "Supplier": "Newark Electronics",
    "SupplierNumber": "64M2331"
  },
  {
    "OINumber": "0456826",
    "Supplier": "Newark Electronics",
    "SupplierNumber": "51M9282"
  },
  {
    "OINumber": "0459352",
    "Supplier": "Newark Electronics",
    "SupplierNumber": "64M2546"
  },
  {
    "OINumber": "0459363",
    "Supplier": "Newark Electronics",
    "SupplierNumber": "05M6384"
  },
  {
    "OINumber": "0460360",
    "Supplier": "Newark Electronics"
  },
  {
    "OINumber": "0462748",
    "Supplier": "Newark Electronics",
    "SupplierNumber": "96M1737"
  },
  {
    "OINumber": "0463771",
    "Supplier": "Newark Electronics",
    "SupplierNumber": "17B1426"
  },
  {
    "OINumber": "0464566",
    "Supplier": "Newark Electronics",
    "SupplierNumber": "02F5311"
  },
  {
    "OINumber": "0465035",
    "Supplier": "Newark Electronics",
    "SupplierNumber": "31F2436"
  },
  {
    "OINumber": "0465060",
    "Supplier": "Newark Electronics",
    "SupplierNumber": "06M4501"
  },
  {
    "OINumber": "0465063",
    "Supplier": "Newark Electronics",
    "SupplierNumber": "90F285"
  },
  {
    "OINumber": "0466331",
    "Supplier": "Newark Electronics",
    "SupplierNumber": "96M1736"
  },
  {
    "OINumber": "0469983",
    "Supplier": "Newark Electronics",
    "SupplierNumber": "38C8766"
  },
  {
    "OINumber": "0471976",
    "Supplier": "Newark Electronics",
    "SupplierNumber": "84Y6701"
  },
  {
    "OINumber": "0482507",
    "Supplier": "Newark Electronics",
    "SupplierNumber": "96K5130"
  },
  {
    "OINumber": "0487163",
    "Supplier": "Newark Electronics",
    "SupplierNumber": "92B1753"
  },
  {
    "OINumber": "0489253",
    "Supplier": "Newark Electronics",
    "SupplierNumber": "00Z662"
  },
  {
    "OINumber": "0494547",
    "Supplier": "Newark Electronics",
    "SupplierNumber": "68X2451"
  },
  {
    "OINumber": "0494548",
    "Supplier": "Newark Electronics",
    "SupplierNumber": "68X2454"
  },
  {
    "OINumber": "0501099",
    "Supplier": "Newark Electronics",
    "SupplierNumber": "61M1997"
  },
  {
    "OINumber": "0506967",
    "Supplier": "Newark Electronics",
    "SupplierNumber": "74M6293"
  },
  {
    "OINumber": "0511174",
    "Supplier": "Newark Electronics",
    "SupplierNumber": "02F5311"
  },
  {
    "OINumber": "101578-0406",
    "Supplier": "Newark Electronics",
    "SupplierNumber": "3479 (KEYSTONE ELECTRONICS)"
  },
  {
    "OINumber": "805000113",
    "Supplier": "Newark Electronics",
    "SupplierNumber": "23T4393"
  },
  {
    "OINumber": "805000120",
    "Supplier": "Newark Electronics",
    "SupplierNumber": "CS8164C"
  },
  {
    "OINumber": "805000153",
    "Supplier": "Newark Electronics",
    "SupplierNumber": "23T8988"
  },
  {
    "OINumber": "805000154",
    "Supplier": "Newark Electronics",
    "SupplierNumber": "TRD815BLK-20"
  },
  {
    "OINumber": "805000208",
    "Supplier": "Newark Electronics",
    "SupplierNumber": "50F492"
  },
  {
    "OINumber": "805000216",
    "Supplier": "Newark Electronics",
    "SupplierNumber": "M4756 SPECIAL ORDER"
  },
  {
    "OINumber": "805000248",
    "Supplier": "Newark Electronics",
    "SupplierNumber": "14M8742"
  },
  {
    "OINumber": "805000250",
    "Supplier": "Newark Electronics",
    "SupplierNumber": "23T8991"
  },
  {
    "OINumber": "805000251",
    "Supplier": "Newark Electronics",
    "SupplierNumber": "23T8990"
  },
  {
    "OINumber": "805000396",
    "Supplier": "Newark Electronics",
    "SupplierNumber": "30C9375"
  },
  {
    "OINumber": "805000498",
    "Supplier": "Newark Electronics",
    "SupplierNumber": "KTK-R-15"
  },
  {
    "OINumber": "805000555",
    "Supplier": "Newark Electronics",
    "SupplierNumber": "88M4757"
  },
  {
    "OINumber": "80500120",
    "Supplier": "Newark Electronics",
    "SupplierNumber": "CS8164C"
  },
  {
    "OINumber": "80500500",
    "Supplier": "Newark Electronics",
    "SupplierNumber": "KTK-R-15"
  },
  {
    "OINumber": "805104979",
    "Supplier": "Newark Electronics",
    "SupplierNumber": "44AC3962"
  },
  {
    "OINumber": "806009309",
    "Supplier": "Newark Electronics",
    "SupplierNumber": "82T4748 (100' SPOOL)"
  },
  {
    "OINumber": "806009320",
    "Supplier": "Newark Electronics",
    "SupplierNumber": "33R1843"
  },
  {
    "OINumber": "956008714",
    "Supplier": "Newark Electronics",
    "SupplierNumber": "80C6590         XB5AVB3"
  },
  {
    "OINumber": "956008719",
    "Supplier": "Newark Electronics",
    "SupplierNumber": "80C6591         XB5AVB4"
  },
  {
    "OINumber": "990190225",
    "Supplier": "Newark Electronics",
    "SupplierNumber": "112444"
  },
  {
    "OINumber": "990190258",
    "Supplier": "Newark Electronics"
  },
  {
    "OINumber": "990190860",
    "Supplier": "Newark Electronics",
    "SupplierNumber": "TRD855-1"
  },
  {
    "OINumber": "990190865",
    "Supplier": "Newark Electronics"
  },
  {
    "OINumber": "990231268",
    "Supplier": "Newark Electronics",
    "SupplierNumber": "CB-1372 BUD IND."
  },
  {
    "OINumber": "990232307",
    "Supplier": "Newark Electronics",
    "SupplierNumber": "CWSC11JFAFS NKK SWITCHES"
  },
  {
    "OINumber": "990234687",
    "Supplier": "Newark Electronics",
    "SupplierNumber": "RS-0615-F TRIPP-LITE"
  },
  {
    "OINumber": "990284670",
    "Supplier": "Newark Electronics",
    "SupplierNumber": "80R9292"
  },
  {
    "OINumber": "990561118",
    "Supplier": "Newark Electronics",
    "SupplierNumber": "2-1609113-2 (MIN 42)"
  },
  {
    "OINumber": "990561119",
    "Supplier": "Newark Electronics",
    "SupplierNumber": "96K5057"
  },
  {
    "OINumber": "990561120",
    "Supplier": "Newark Electronics",
    "SupplierNumber": "79K2252"
  },
  {
    "OINumber": "990563963",
    "Supplier": "Newark Electronics",
    "SupplierNumber": "01T0620"
  },
  {
    "OINumber": "990570347",
    "Supplier": "Newark Electronics",
    "SupplierNumber": "65T6667 PK10"
  },
  {
    "OINumber": "990661111",
    "Supplier": "Newark Electronics",
    "SupplierNumber": "SPC21274"
  },
  {
    "OINumber": "AS11001222",
    "Supplier": "Newark Electronics",
    "SupplierNumber": "18C8919"
  },
  {
    "OINumber": "CA061-009-01",
    "Supplier": "Newark Electronics",
    "SupplierNumber": "37F7065"
  },
  {
    "OINumber": "CA061-010-01",
    "Supplier": "Newark Electronics",
    "SupplierNumber": "37F7066"
  },
  {
    "OINumber": "CA061-011-01",
    "Supplier": "Newark Electronics",
    "SupplierNumber": "37F7067"
  },
  {
    "OINumber": "CA061-014-01",
    "Supplier": "Newark Electronics",
    "SupplierNumber": "52N9763"
  },
  {
    "OINumber": "CA061-015-01",
    "Supplier": "Newark Electronics",
    "SupplierNumber": "87K0915"
  },
  {
    "OINumber": "CA061-015-01-IN",
    "Supplier": "Newark Electronics",
    "SupplierNumber": "87K0915"
  },
  {
    "OINumber": "CA061-024-01",
    "Supplier": "Newark Electronics",
    "SupplierNumber": "37F7068"
  },
  {
    "OINumber": "CC021-006-01",
    "Supplier": "Newark Electronics",
    "SupplierNumber": "50F9488"
  },
  {
    "OINumber": "CC021-012-01",
    "Supplier": "Newark Electronics"
  },
  {
    "OINumber": "CNVGENCLB-203-20",
    "Supplier": "Newark Electronics",
    "SupplierNumber": "51F4096"
  },
  {
    "OINumber": "CNVGENCM14",
    "Supplier": "Newark Electronics",
    "SupplierNumber": "61H8604"
  },
  {
    "OINumber": "CNVJAC26M7392",
    "Supplier": "Newark Electronics",
    "SupplierNumber": "26M7392"
  },
  {
    "OINumber": "CNVLAP53015110",
    "Supplier": "Newark Electronics",
    "SupplierNumber": "26M7485"
  },
  {
    "OINumber": "CNVLAP53019010",
    "Supplier": "Newark Electronics",
    "SupplierNumber": "26M7490"
  },
  {
    "OINumber": "CNVM85049/49-2S16W",
    "Supplier": "Newark Electronics",
    "SupplierNumber": "87W7601"
  },
  {
    "OINumber": "CNVNEW09WX9972",
    "Supplier": "Newark Electronics",
    "SupplierNumber": "09WX9972"
  },
  {
    "OINumber": "CNVRFIRFT-1234",
    "Supplier": "Newark Electronics",
    "SupplierNumber": "55M2571"
  },
  {
    "OINumber": "EA101-003-01",
    "Supplier": "Newark Electronics",
    "SupplierNumber": "83F4567"
  },
  {
    "OINumber": "EC011-004-01",
    "Supplier": "Newark Electronics",
    "SupplierNumber": "90F9583"
  },
  {
    "OINumber": "EC011-012-01",
    "Supplier": "Newark Electronics"
  },
  {
    "OINumber": "EC011-014-01",
    "Supplier": "Newark Electronics",
    "SupplierNumber": "73K1469"
  },
  {
    "OINumber": "EC011-019-01",
    "Supplier": "Newark Electronics",
    "SupplierNumber": "39F1574"
  },
  {
    "OINumber": "EC011-020-01",
    "Supplier": "Newark Electronics",
    "SupplierNumber": "39F1575"
  },
  {
    "OINumber": "EC021-002-01",
    "Supplier": "Newark Electronics",
    "SupplierNumber": "27F060"
  },
  {
    "OINumber": "EC021-005-01",
    "Supplier": "Newark Electronics",
    "SupplierNumber": "39F2287"
  },
  {
    "OINumber": "EC021-006-01",
    "Supplier": "Newark Electronics",
    "SupplierNumber": "27F059"
  },
  {
    "OINumber": "EC021-010-01",
    "Supplier": "Newark Electronics",
    "SupplierNumber": "92H3983"
  },
  {
    "OINumber": "EC021-011-01",
    "Supplier": "Newark Electronics",
    "SupplierNumber": "39F2281 (C5F)"
  },
  {
    "OINumber": "EC031-001-01",
    "Supplier": "Newark Electronics",
    "SupplierNumber": "1193299"
  },
  {
    "OINumber": "EC031-002-01",
    "Supplier": "Newark Electronics",
    "SupplierNumber": "17E17242"
  },
  {
    "OINumber": "EC041-001-01",
    "Supplier": "Newark Electronics",
    "SupplierNumber": "79K5020"
  },
  {
    "OINumber": "EC041-002-01",
    "Supplier": "Newark Electronics",
    "SupplierNumber": "79K5012"
  },
  {
    "OINumber": "EC071-001-01",
    "Supplier": "Newark Electronics",
    "SupplierNumber": "39F029"
  },
  {
    "OINumber": "EC071-005-01",
    "Supplier": "Newark Electronics",
    "SupplierNumber": "44F8506"
  },
  {
    "OINumber": "EC071-008-01",
    "Supplier": "Newark Electronics",
    "SupplierNumber": "73K1467"
  },
  {
    "OINumber": "EC071-009-01",
    "Supplier": "Newark Electronics",
    "SupplierNumber": "39F1446"
  },
  {
    "OINumber": "EC071-011-01",
    "Supplier": "Newark Electronics",
    "SupplierNumber": "51F3836"
  },
  {
    "OINumber": "EC071-012-01",
    "Supplier": "Newark Electronics",
    "SupplierNumber": "93F1361"
  },
  {
    "OINumber": "EC071-013-01",
    "Supplier": "Newark Electronics",
    "SupplierNumber": "90F8473"
  },
  {
    "OINumber": "EC071-014-01",
    "Supplier": "Newark Electronics",
    "SupplierNumber": "79K4987"
  },
  {
    "OINumber": "EC121-002-02",
    "Supplier": "Newark Electronics",
    "SupplierNumber": "MS3108E-18-1S AMPHEN ONLY"
  },
  {
    "OINumber": "EC161-008-01",
    "Supplier": "Newark Electronics",
    "SupplierNumber": "PV18-6R-C"
  },
  {
    "OINumber": "EC161-015-01",
    "Supplier": "Newark Electronics",
    "SupplierNumber": "PV14-6R-C"
  },
  {
    "OINumber": "EC161-035-01",
    "Supplier": "Newark Electronics",
    "SupplierNumber": "89F1224"
  },
  {
    "OINumber": "EC161-037-01",
    "Supplier": "Newark Electronics",
    "SupplierNumber": "PN10-8R-L"
  },
  {
    "OINumber": "EC161-048-01",
    "Supplier": "Newark Electronics",
    "SupplierNumber": "96B1295"
  },
  {
    "OINumber": "EC161-052-01",
    "Supplier": "Newark Electronics",
    "SupplierNumber": "50B7986"
  },
  {
    "OINumber": "EC161-055-01",
    "Supplier": "Newark Electronics",
    "SupplierNumber": "PN14-14R-C"
  },
  {
    "OINumber": "EC161-057-01",
    "Supplier": "Newark Electronics",
    "SupplierNumber": "THB 54105"
  },
  {
    "OINumber": "EC161-059-01",
    "Supplier": "Newark Electronics",
    "SupplierNumber": "PV14-8R-C"
  },
  {
    "OINumber": "EC171-001-01",
    "Supplier": "Newark Electronics",
    "SupplierNumber": "89F1454"
  },
  {
    "OINumber": "EC171-007-01",
    "Supplier": "Newark Electronics",
    "SupplierNumber": "96K5472"
  },
  {
    "OINumber": "EC171-008-01",
    "Supplier": "Newark Electronics",
    "SupplierNumber": "89F1461"
  },
  {
    "OINumber": "EC171-012-01",
    "Supplier": "Newark Electronics",
    "SupplierNumber": "96K5471"
  },
  {
    "OINumber": "EC211-001-01",
    "Supplier": "Newark Electronics",
    "SupplierNumber": "79K4949"
  },
  {
    "OINumber": "EC251-001-01",
    "Supplier": "Newark Electronics",
    "SupplierNumber": "46F4664"
  },
  {
    "OINumber": "EC251-002-01",
    "Supplier": "Newark Electronics",
    "SupplierNumber": "46F4663         3425-6600"
  },
  {
    "OINumber": "EC251-007-01",
    "Supplier": "Newark Electronics",
    "SupplierNumber": "46F4655 / 3473-6600"
  },
  {
    "OINumber": "EC271-001-01",
    "Supplier": "Newark Electronics",
    "SupplierNumber": "93F1345"
  },
  {
    "OINumber": "EC281-001-01",
    "Supplier": "Newark Electronics",
    "SupplierNumber": "46F4671"
  },
  {
    "OINumber": "EC301-001-01",
    "Supplier": "Newark Electronics",
    "SupplierNumber": "65F1123"
  },
  {
    "OINumber": "EC301-002-01",
    "Supplier": "Newark Electronics",
    "SupplierNumber": "28F1047"
  },
  {
    "OINumber": "EC301-006-01",
    "Supplier": "Newark Electronics"
  },
  {
    "OINumber": "EC301-010-01",
    "Supplier": "Newark Electronics",
    "SupplierNumber": "CINCH 17-542"
  },
  {
    "OINumber": "ED031-003-01",
    "Supplier": "Newark Electronics",
    "SupplierNumber": "46G3867"
  },
  {
    "OINumber": "EF011-024-01",
    "Supplier": "Newark Electronics"
  },
  {
    "OINumber": "EH071-001-01",
    "Supplier": "Newark Electronics",
    "SupplierNumber": "46F008"
  },
  {
    "OINumber": "EH081-003-01",
    "Supplier": "Newark Electronics",
    "SupplierNumber": "23N3661"
  },
  {
    "OINumber": "EH131-002-01",
    "Supplier": "Newark Electronics",
    "SupplierNumber": "70M7796"
  },
  {
    "OINumber": "EH161-001-01",
    "Supplier": "Newark Electronics",
    "SupplierNumber": "93B6957  2 PACK"
  },
  {
    "OINumber": "EH161-002-01",
    "Supplier": "Newark Electronics",
    "SupplierNumber": "10B8185"
  },
  {
    "OINumber": "EH211-001-01",
    "Supplier": "Newark Electronics",
    "SupplierNumber": "TMEH-S10-Q0"
  },
  {
    "OINumber": "EH211-002-01",
    "Supplier": "Newark Electronics",
    "SupplierNumber": "94F3154"
  },
  {
    "OINumber": "EH211-002-EA",
    "Supplier": "Newark Electronics",
    "SupplierNumber": "94F3154"
  },
  {
    "OINumber": "EH211-006-01",
    "Supplier": "Newark Electronics",
    "SupplierNumber": "50F2892"
  },
  {
    "OINumber": "EH211-008-01",
    "Supplier": "Newark Electronics",
    "SupplierNumber": "16N978  PK 100"
  },
  {
    "OINumber": "EH211-009-01",
    "Supplier": "Newark Electronics",
    "SupplierNumber": "16N977"
  },
  {
    "OINumber": "EH251-001-01",
    "Supplier": "Newark Electronics",
    "SupplierNumber": "57F2374"
  },
  {
    "OINumber": "EI011-024-01",
    "Supplier": "Newark Electronics",
    "SupplierNumber": "HN12-5.1A+G (ROHS)"
  },
  {
    "OINumber": "EI011-042-01",
    "Supplier": "Newark Electronics",
    "SupplierNumber": "99F8006 OBSOLETE"
  },
  {
    "OINumber": "EI011-044-01",
    "Supplier": "Newark Electronics",
    "SupplierNumber": "50F1563 (B & K 1651)"
  },
  {
    "OINumber": "EI011-045-01",
    "Supplier": "Newark Electronics",
    "SupplierNumber": "88F5023"
  },
  {
    "OINumber": "EI041-001-01",
    "Supplier": "Newark Electronics",
    "SupplierNumber": "46F2615"
  },
  {
    "OINumber": "EK051-003-01",
    "Supplier": "Newark Electronics"
  },
  {
    "OINumber": "EK061-015-01",
    "Supplier": "Newark Electronics",
    "SupplierNumber": "01F9084"
  },
  {
    "OINumber": "EK081-001-01",
    "Supplier": "Newark Electronics",
    "SupplierNumber": "81F1012"
  },
  {
    "OINumber": "EK081-006-01",
    "Supplier": "Newark Electronics",
    "SupplierNumber": "D4C0605N"
  },
  {
    "OINumber": "EK081-010-01",
    "Supplier": "Newark Electronics",
    "SupplierNumber": "50F8251"
  },
  {
    "OINumber": "EL051-001-01",
    "Supplier": "Newark Electronics",
    "SupplierNumber": "96F5696"
  },
  {
    "OINumber": "EL051-003-01",
    "Supplier": "Newark Electronics",
    "SupplierNumber": "96F5742 (PCKG 10)"
  },
  {
    "OINumber": "EQ081-003-01",
    "Supplier": "Newark Electronics",
    "SupplierNumber": "11B2793"
  },
  {
    "OINumber": "EQ081-003-02",
    "Supplier": "Newark Electronics",
    "SupplierNumber": "11B2780"
  },
  {
    "OINumber": "EW011-001-01",
    "Supplier": "Newark Electronics",
    "SupplierNumber": "03F1348"
  },
  {
    "OINumber": "EW011-002-FT",
    "Supplier": "Newark Electronics",
    "SupplierNumber": "83264-001-500"
  },
  {
    "OINumber": "EW041-001-01",
    "Supplier": "Newark Electronics",
    "SupplierNumber": "02F6072"
  },
  {
    "OINumber": "EW051-035-01",
    "Supplier": "Newark Electronics",
    "SupplierNumber": "02F4836"
  },
  {
    "OINumber": "EW051-035-02",
    "Supplier": "Newark Electronics",
    "SupplierNumber": "02F4837"
  },
  {
    "OINumber": "EW051-035-03",
    "Supplier": "Newark Electronics",
    "SupplierNumber": "02F4838"
  },
  {
    "OINumber": "EW051-035-04",
    "Supplier": "Newark Electronics",
    "SupplierNumber": "02F4839"
  },
  {
    "OINumber": "EW051-035-05",
    "Supplier": "Newark Electronics",
    "SupplierNumber": "02F4840"
  },
  {
    "OINumber": "EW051-035-06",
    "Supplier": "Newark Electronics",
    "SupplierNumber": "02F4841"
  },
  {
    "OINumber": "EW051-035-07",
    "Supplier": "Newark Electronics",
    "SupplierNumber": "02F4842"
  },
  {
    "OINumber": "EW051-035-08",
    "Supplier": "Newark Electronics",
    "SupplierNumber": "02F4843"
  },
  {
    "OINumber": "EW051-035-09",
    "Supplier": "Newark Electronics",
    "SupplierNumber": "02F4844"
  },
  {
    "OINumber": "EW051-035-10",
    "Supplier": "Newark Electronics",
    "SupplierNumber": "02F4845"
  },
  {
    "OINumber": "EW051-036-01",
    "Supplier": "Newark Electronics",
    "SupplierNumber": "83009-100-1"
  },
  {
    "OINumber": "EW051-036-02",
    "Supplier": "Newark Electronics",
    "SupplierNumber": "83009-100-2"
  },
  {
    "OINumber": "EW051-036-03",
    "Supplier": "Newark Electronics",
    "SupplierNumber": "83009-100-3"
  },
  {
    "OINumber": "EW051-036-04",
    "Supplier": "Newark Electronics",
    "SupplierNumber": "83009-100-4"
  },
  {
    "OINumber": "EW051-036-05",
    "Supplier": "Newark Electronics",
    "SupplierNumber": "83009-100-5"
  },
  {
    "OINumber": "EW051-036-06",
    "Supplier": "Newark Electronics",
    "SupplierNumber": "83009-100-6"
  },
  {
    "OINumber": "EW051-036-08",
    "Supplier": "Newark Electronics",
    "SupplierNumber": "83009-100-8"
  },
  {
    "OINumber": "EW051-036-09",
    "Supplier": "Newark Electronics",
    "SupplierNumber": "83009-100-9"
  },
  {
    "OINumber": "EW051-036-10",
    "Supplier": "Newark Electronics"
  },
  {
    "OINumber": "EW051-042-01",
    "Supplier": "Newark Electronics",
    "SupplierNumber": "02F5587"
  },
  {
    "OINumber": "EW051-042-02",
    "Supplier": "Newark Electronics",
    "SupplierNumber": "02F5588"
  },
  {
    "OINumber": "EW051-042-03",
    "Supplier": "Newark Electronics",
    "SupplierNumber": "02F5589"
  },
  {
    "OINumber": "EW051-042-04",
    "Supplier": "Newark Electronics",
    "SupplierNumber": "02F5590"
  },
  {
    "OINumber": "EW051-042-05",
    "Supplier": "Newark Electronics",
    "SupplierNumber": "02F5591"
  },
  {
    "OINumber": "EW051-042-07",
    "Supplier": "Newark Electronics",
    "SupplierNumber": "02F5593"
  },
  {
    "OINumber": "EW051-042-08",
    "Supplier": "Newark Electronics",
    "SupplierNumber": "02F5594"
  },
  {
    "OINumber": "EX201-005-01",
    "Supplier": "Newark Electronics"
  },
  {
    "OINumber": "EZ021-001-01",
    "Supplier": "Newark Electronics",
    "SupplierNumber": "89K2232"
  },
  {
    "OINumber": "EZ031-012-01",
    "Supplier": "Newark Electronics",
    "SupplierNumber": "93F8649"
  },
  {
    "OINumber": "EZ031-013-01",
    "Supplier": "Newark Electronics",
    "SupplierNumber": "90F1688"
  },
  {
    "OINumber": "EZ061-005-01",
    "Supplier": "Newark Electronics",
    "SupplierNumber": "41J3300"
  },
  {
    "OINumber": "EZ061-007-01",
    "Supplier": "Newark Electronics",
    "SupplierNumber": "70K9923"
  },
  {
    "OINumber": "EZ081-001-01",
    "Supplier": "Newark Electronics",
    "SupplierNumber": "SN74LS574BN"
  },
  {
    "OINumber": "EZ081-003-01",
    "Supplier": "Newark Electronics",
    "SupplierNumber": "SN74LS244N"
  },
  {
    "OINumber": "EZ081-012-01",
    "Supplier": "Newark Electronics",
    "SupplierNumber": "LM324 NATIONAL"
  },
  {
    "OINumber": "EZ081-019-01",
    "Supplier": "Newark Electronics",
    "SupplierNumber": "45J2473"
  },
  {
    "OINumber": "EZ081-022-01",
    "Supplier": "Newark Electronics",
    "SupplierNumber": "O5F7017"
  },
  {
    "OINumber": "EZ081-023-01",
    "Supplier": "Newark Electronics",
    "SupplierNumber": "SN74LS175N"
  },
  {
    "OINumber": "EZ081-024-01",
    "Supplier": "Newark Electronics",
    "SupplierNumber": "SN74LS10N"
  },
  {
    "OINumber": "EZ081-030-01",
    "Supplier": "Newark Electronics",
    "SupplierNumber": "10WX6148 FARNELL"
  },
  {
    "OINumber": "EZ081-035-01",
    "Supplier": "Newark Electronics",
    "SupplierNumber": "SN74LS138N"
  },
  {
    "OINumber": "EZ081-036-01",
    "Supplier": "Newark Electronics",
    "SupplierNumber": "SN74LS123N"
  },
  {
    "OINumber": "EZ081-038-01",
    "Supplier": "Newark Electronics",
    "SupplierNumber": "AD7548KN"
  },
  {
    "OINumber": "EZ081-041-01",
    "Supplier": "Newark Electronics",
    "SupplierNumber": "46F7734"
  },
  {
    "OINumber": "EZ081-049-01",
    "Supplier": "Newark Electronics",
    "SupplierNumber": "LF412CN"
  },
  {
    "OINumber": "EZ081-051-01",
    "Supplier": "Newark Electronics",
    "SupplierNumber": "SN74S64N"
  },
  {
    "OINumber": "EZ081-057-01",
    "Supplier": "Newark Electronics",
    "SupplierNumber": "LM324N"
  },
  {
    "OINumber": "EZ081-060-01",
    "Supplier": "Newark Electronics",
    "SupplierNumber": "MC145406P"
  },
  {
    "OINumber": "EZ081-090-01",
    "Supplier": "Newark Electronics",
    "SupplierNumber": "SN75189N"
  },
  {
    "OINumber": "EZ081-094-01",
    "Supplier": "Newark Electronics",
    "SupplierNumber": "SN74LS74AN"
  },
  {
    "OINumber": "EZ081-104-01",
    "Supplier": "Newark Electronics",
    "SupplierNumber": "SN7425N"
  },
  {
    "OINumber": "EZ081-107-01",
    "Supplier": "Newark Electronics",
    "SupplierNumber": "SN74LS04N"
  },
  {
    "OINumber": "EZ081-108-01",
    "Supplier": "Newark Electronics",
    "SupplierNumber": "SN74LS374N"
  },
  {
    "OINumber": "EZ081-109-01",
    "Supplier": "Newark Electronics",
    "SupplierNumber": "SN74HC74N"
  },
  {
    "OINumber": "EZ081-110-01",
    "Supplier": "Newark Electronics",
    "SupplierNumber": "SN74LS688N"
  },
  {
    "OINumber": "EZ081-114-01",
    "Supplier": "Newark Electronics",
    "SupplierNumber": "SN75188N"
  },
  {
    "OINumber": "EZ121-001-01",
    "Supplier": "Newark Electronics",
    "SupplierNumber": "92F4721"
  },
  {
    "OINumber": "EZ191-001-01",
    "Supplier": "Newark Electronics",
    "SupplierNumber": "46F5815"
  },
  {
    "OINumber": "EZ191-002-01",
    "Supplier": "Newark Electronics",
    "SupplierNumber": "46F5814"
  },
  {
    "OINumber": "EZ191-005-01",
    "Supplier": "Newark Electronics",
    "SupplierNumber": "78K5914"
  },
  {
    "OINumber": "EZ191-007-01",
    "Supplier": "Newark Electronics",
    "SupplierNumber": "89F959"
  },
  {
    "OINumber": "EZ191-012-01",
    "Supplier": "Newark Electronics",
    "SupplierNumber": "46F5814"
  },
  {
    "OINumber": "EZ201-007-01",
    "Supplier": "Newark Electronics",
    "SupplierNumber": "09F1979 (V130LA10A)"
  },
  {
    "OINumber": "EZ261-011-01",
    "Supplier": "Newark Electronics"
  },
  {
    "OINumber": "EZ261-013-01",
    "Supplier": "Newark Electronics",
    "SupplierNumber": "55F2593"
  },
  {
    "OINumber": "FR20.418",
    "Supplier": "Newark Electronics",
    "SupplierNumber": "06AC7016"
  },
  {
    "OINumber": "FRG10.241",
    "Supplier": "Newark Electronics",
    "SupplierNumber": "13P0027"
  },
  {
    "OINumber": "FRG10.302H",
    "Supplier": "Newark Electronics",
    "SupplierNumber": "95B8026"
  },
  {
    "OINumber": "FRG19.548-1.5",
    "Supplier": "Newark Electronics",
    "SupplierNumber": "35C3488"
  },
  {
    "OINumber": "FRG20.255",
    "Supplier": "Newark Electronics",
    "SupplierNumber": "51Y2734 (MIN 7)"
  },
  {
    "OINumber": "JDM009",
    "Supplier": "Newark Electronics",
    "SupplierNumber": "93F2818"
  },
  {
    "OINumber": "JDM043",
    "Supplier": "Newark Electronics",
    "SupplierNumber": "HARD DRIVE MAXTOR 716261AP"
  },
  {
    "OINumber": "LC011-012-01",
    "Supplier": "Newark Electronics",
    "SupplierNumber": "CATALOG"
  },
  {
    "OINumber": "MF881-N03-04",
    "Supplier": "Newark Electronics",
    "SupplierNumber": "16F1034"
  },
  {
    "OINumber": "MF881-S03-04",
    "Supplier": "Newark Electronics",
    "SupplierNumber": "50F4710"
  },
  {
    "OINumber": "MF881-S03-06",
    "Supplier": "Newark Electronics",
    "SupplierNumber": "95F3999"
  },
  {
    "OINumber": "MF881-S03-11",
    "Supplier": "Newark Electronics",
    "SupplierNumber": "50F4715"
  },
  {
    "OINumber": "MF881-S03-19",
    "Supplier": "Newark Electronics",
    "SupplierNumber": "62W4983"
  },
  {
    "OINumber": "MF881-S05-19",
    "Supplier": "Newark Electronics",
    "SupplierNumber": "65K0735"
  },
  {
    "OINumber": "MF881-S05-21",
    "Supplier": "Newark Electronics",
    "SupplierNumber": "95F4033 (KEYSTONE 2131)"
  },
  {
    "OINumber": "MH031-010-01",
    "Supplier": "Newark Electronics"
  },
  {
    "OINumber": "MH201-002-01",
    "Supplier": "Newark Electronics",
    "SupplierNumber": "10B9125"
  },
  {
    "OINumber": "TE031-006-01",
    "Supplier": "Newark Electronics",
    "SupplierNumber": "92F1137"
  },
  {
    "OINumber": "TE071-001-01",
    "Supplier": "Newark Electronics"
  },
  {
    "OINumber": "TE071-002-01",
    "Supplier": "Newark Electronics"
  },
  {
    "OINumber": "TE071-003-01",
    "Supplier": "Newark Electronics",
    "SupplierNumber": "10M4272"
  },
  {
    "OINumber": "TE071-004-01",
    "Supplier": "Newark Electronics"
  },
  {
    "OINumber": "TE071-005-01",
    "Supplier": "Newark Electronics",
    "SupplierNumber": "10M4341"
  },
  {
    "OINumber": "TE071-006-01",
    "Supplier": "Newark Electronics",
    "SupplierNumber": "10M4342"
  },
  {
    "OINumber": "TE091-003-01",
    "Supplier": "Newark Electronics",
    "SupplierNumber": "93F1552"
  },
  {
    "OINumber": "TE121-002-01",
    "Supplier": "Newark Electronics",
    "SupplierNumber": "87F3433"
  },
  {
    "OINumber": "TE131-001-01",
    "Supplier": "Newark Electronics",
    "SupplierNumber": "93F2826"
  },
  {
    "OINumber": "TE131-002-01",
    "Supplier": "Newark Electronics",
    "SupplierNumber": "90F6541"
  },
  {
    "OINumber": "TE141-002-01",
    "Supplier": "Newark Electronics",
    "SupplierNumber": "89F3016"
  },
  {
    "OINumber": "TE171-002-01",
    "Supplier": "Newark Electronics",
    "SupplierNumber": "16F9052"
  },
  {
    "OINumber": "TE221-005-01",
    "Supplier": "Newark Electronics",
    "SupplierNumber": "196C/003 FLUKE"
  },
  {
    "OINumber": "TE241-001-01",
    "Supplier": "Newark Electronics",
    "SupplierNumber": "46N6568 - CHANGED TO SPEC MFR!!!"
  },
  {
    "OINumber": "TE241-002-01",
    "Supplier": "Newark Electronics",
    "SupplierNumber": "92N3778"
  },
  {
    "OINumber": "TE251-001-01",
    "Supplier": "Newark Electronics",
    "SupplierNumber": "87F1629"
  },
  {
    "OINumber": "TE261-001-01",
    "Supplier": "Newark Electronics",
    "SupplierNumber": "87F1631"
  },
  {
    "OINumber": "TE271-003-01",
    "Supplier": "Newark Electronics",
    "SupplierNumber": "34F370"
  },
  {
    "OINumber": "TE291-009-01",
    "Supplier": "Newark Electronics"
  },
  {
    "OINumber": "TE291-013-01",
    "Supplier": "Newark Electronics",
    "SupplierNumber": "95F2285"
  },
  {
    "OINumber": "TE291-015-01",
    "Supplier": "Newark Electronics",
    "SupplierNumber": "44F6635"
  },
  {
    "OINumber": "TE291-017-01",
    "Supplier": "Newark Electronics",
    "SupplierNumber": "00Z524"
  },
  {
    "OINumber": "TE291-018-01",
    "Supplier": "Newark Electronics",
    "SupplierNumber": "00Z591"
  },
  {
    "OINumber": "TE291-019-01",
    "Supplier": "Newark Electronics",
    "SupplierNumber": "44F6651"
  },
  {
    "OINumber": "TE291-020-01",
    "Supplier": "Newark Electronics",
    "SupplierNumber": "44F6655"
  },
  {
    "OINumber": "TE291-021-01",
    "Supplier": "Newark Electronics",
    "SupplierNumber": "33F1825"
  },
  {
    "OINumber": "TE291-022-01",
    "Supplier": "Newark Electronics",
    "SupplierNumber": "33F1818"
  },
  {
    "OINumber": "TE291-023-01",
    "Supplier": "Newark Electronics",
    "SupplierNumber": "00Z875"
  },
  {
    "OINumber": "TE291-024-01",
    "Supplier": "Newark Electronics",
    "SupplierNumber": "00Z873"
  },
  {
    "OINumber": "TE291-025-01",
    "Supplier": "Newark Electronics",
    "SupplierNumber": "95F6234"
  },
  {
    "OINumber": "TE331-003-01",
    "Supplier": "Newark Electronics",
    "SupplierNumber": "13F161"
  },
  {
    "OINumber": "TE361-001-01",
    "Supplier": "Newark Electronics",
    "SupplierNumber": "26C2805 (OBSOLETE)"
  },
  {
    "OINumber": "TE361-003-01",
    "Supplier": "Newark Electronics",
    "SupplierNumber": "75F017"
  },
  {
    "OINumber": "TM141-006-01",
    "Supplier": "Newark Electronics",
    "SupplierNumber": "50F4003"
  },
  {
    "OINumber": "TM431-026-01",
    "Supplier": "Newark Electronics",
    "SupplierNumber": "96F8889"
  },
  {
    "OINumber": "TM431-029-01",
    "Supplier": "Newark Electronics",
    "SupplierNumber": "96F8895"
  },
  {
    "OINumber": "TM461-009-01",
    "Supplier": "Newark Electronics",
    "SupplierNumber": "89F2775"
  },
  {
    "OINumber": "TM561-017-01",
    "Supplier": "Newark Electronics",
    "SupplierNumber": "34F258"
  },
  {
    "OINumber": "TM561-018-01",
    "Supplier": "Newark Electronics",
    "SupplierNumber": "34F252"
  },
  {
    "OINumber": "TM561-019-01",
    "Supplier": "Newark Electronics",
    "SupplierNumber": "34F291"
  },
  {
    "OINumber": "TM561-020-01",
    "Supplier": "Newark Electronics",
    "SupplierNumber": "34F296"
  }
]