﻿[
        {
            "OINumber": "0034569",
            "Supplier": "Norman Filter Company, LLC",
            "SupplierNumber": "43101GF-B10CL"
        },
        {
            "OINumber": "0034569-1",
            "Supplier": "Norman Filter Company, LLC",
            "SupplierNumber": "411F-B10CL"
        },
        {
            "OINumber": "0206307",
            "Supplier": "Norman Filter Company, LLC",
            "SupplierNumber": "536F-B10AL"
        },
        {
            "OINumber": "0329245",
            "Supplier": "Norman Filter Company, LLC"
        },
        {
            "OINumber": "0354095",
            "Supplier": "Norman Filter Company, LLC",
            "SupplierNumber": "4579AF-B10CL-S4"
        },
        {
            "OINumber": "0354095-1",
            "Supplier": "Norman Filter Company, LLC",
            "SupplierNumber": "587F-B10CL"
        },
        {
            "OINumber": "0392412",
            "Supplier": "Norman Filter Company, LLC",
            "SupplierNumber": "45866A"
        },
        {
            "OINumber": "0441205",
            "Supplier": "Norman Filter Company, LLC",
            "SupplierNumber": "4599AF-B10CL-DR4"
        },
        {
            "OINumber": "0441206",
            "Supplier": "Norman Filter Company, LLC",
            "SupplierNumber": "45867A-L"
        },
        {
            "OINumber": "0441207",
            "Supplier": "Norman Filter Company, LLC",
            "SupplierNumber": "588F-B10CL"
        },
        {
            "OINumber": "0457845",
            "Supplier": "Norman Filter Company, LLC",
            "SupplierNumber": "4580AF-B10CL-S4"
        },
        {
            "OINumber": "0459654",
            "Supplier": "Norman Filter Company, LLC",
            "SupplierNumber": "4312AF-B10CL"
        },
        {
            "OINumber": "0459655",
            "Supplier": "Norman Filter Company, LLC",
            "SupplierNumber": "412FB10CL"
        },
        {
            "OINumber": "0459672",
            "Supplier": "Norman Filter Company, LLC",
            "SupplierNumber": "591406"
        },
        {
            "OINumber": "0478191",
            "Supplier": "Norman Filter Company, LLC",
            "SupplierNumber": "P/N - 4599TF-B5CL-DR-4 S4"
        },
        {
            "OINumber": "990267647",
            "Supplier": "Norman Filter Company, LLC",
            "SupplierNumber": "4413TG-10VL"
        },
        {
            "OINumber": "HF021-008-01",
            "Supplier": "Norman Filter Company, LLC",
            "SupplierNumber": "587G-10DL"
        },
        {
            "OINumber": "HF021-010-01",
            "Supplier": "Norman Filter Company, LLC",
            "SupplierNumber": "NORMAN 587F-B10CL"
        },
        {
            "OINumber": "HF021-020-01",
            "Supplier": "Norman Filter Company, LLC",
            "SupplierNumber": "U-90341"
        },
        {
            "OINumber": "HF091-004-01",
            "Supplier": "Norman Filter Company, LLC",
            "SupplierNumber": "4579AF-B10CL-S4"
        },
        {
            "OINumber": "MB011-N39-06",
            "Supplier": "Norman Filter Company, LLC",
            "SupplierNumber": "590606 BUNA-N"
        },
        {
            "OINumber": "OAS-006-0362",
            "Supplier": "Norman Filter Company, LLC",
            "SupplierNumber": "413G-10VL"
        }
    ]