﻿[
        {
            "OINumber": "0205508",
            "Supplier": "Omega Engineering Inc",
            "SupplierNumber": "TX92A-3"
        },
        {
            "OINumber": "0210123",
            "Supplier": "Omega Engineering Inc"
        },
        {
            "OINumber": "0279793",
            "Supplier": "Omega Engineering Inc",
            "SupplierNumber": "LVR 52-PP"
        },
        {
            "OINumber": "0458876",
            "Supplier": "Omega Engineering Inc",
            "SupplierNumber": "5TC-GG-K-24-36"
        },
        {
            "OINumber": "0458883",
            "Supplier": "Omega Engineering Inc",
            "SupplierNumber": "TX93-K4"
        },
        {
            "OINumber": "EN021-001-01",
            "Supplier": "Omega Engineering Inc",
            "SupplierNumber": "PX603-7.5KG5V"
        },
        {
            "OINumber": "EN021-003-01",
            "Supplier": "Omega Engineering Inc",
            "SupplierNumber": "PX603-3KG5V"
        },
        {
            "OINumber": "EZ241-001-01",
            "Supplier": "Omega Engineering Inc",
            "SupplierNumber": "5TC-TTK-24-36"
        },
        {
            "OINumber": "EZ241-001-01-EA",
            "Supplier": "Omega Engineering Inc",
            "SupplierNumber": "5TC-TT-K-24-36"
        },
        {
            "OINumber": "EZ241-002-01",
            "Supplier": "Omega Engineering Inc",
            "SupplierNumber": "TX91-K2"
        }
    ]