﻿[
        {
            "OINumber": "0006753",
            "Supplier": "SWAGELOK WA",
            "SupplierNumber": "SS-T6-S-065-20"
        },
        {
            "OINumber": "0007996",
            "Supplier": "SWAGELOK WA",
            "SupplierNumber": "SS-400-A-4ANF"
        },
        {
            "OINumber": "0008549",
            "Supplier": "SWAGELOK WA",
            "SupplierNumber": "SS-16-TA-1-16AN"
        },
        {
            "OINumber": "0008551",
            "Supplier": "SWAGELOK WA",
            "SupplierNumber": "SS-400-3-4TMT"
        },
        {
            "OINumber": "0008554",
            "Supplier": "SWAGELOK WA",
            "SupplierNumber": "SS-600-61-6AN"
        },
        {
            "OINumber": "0008556",
            "Supplier": "SWAGELOK WA",
            "SupplierNumber": "SS-8-TA-1-8"
        },
        {
            "OINumber": "0008558",
            "Supplier": "SWAGELOK WA",
            "SupplierNumber": "SS-8-TA-1-8AN"
        },
        {
            "OINumber": "0008564",
            "Supplier": "SWAGELOK WA",
            "SupplierNumber": "SS-6-HPST"
        },
        {
            "OINumber": "0008568",
            "Supplier": "SWAGELOK WA",
            "SupplierNumber": "SS-T4-S-049"
        },
        {
            "OINumber": "0008573",
            "Supplier": "SWAGELOK WA",
            "SupplierNumber": "SS-T8-S-049-6ME"
        },
        {
            "OINumber": "0008956",
            "Supplier": "SWAGELOK WA",
            "SupplierNumber": "SS-10-HPST"
        },
        {
            "OINumber": "0008968",
            "Supplier": "SWAGELOK WA",
            "SupplierNumber": "SS-20-HPST"
        },
        {
            "OINumber": "0013823",
            "Supplier": "SWAGELOK WA",
            "SupplierNumber": "SS-8-HPST"
        },
        {
            "OINumber": "0015747",
            "Supplier": "SWAGELOK WA",
            "SupplierNumber": "SS-6-TA-1-6AN"
        },
        {
            "OINumber": "0018283",
            "Supplier": "SWAGELOK WA",
            "SupplierNumber": "SS-12-TA-1-12AN"
        },
        {
            "OINumber": "0019245",
            "Supplier": "SWAGELOK WA",
            "SupplierNumber": "SS-810-1-6"
        },
        {
            "OINumber": "0019273",
            "Supplier": "SWAGELOK WA",
            "SupplierNumber": "SS-400-1-4RS"
        },
        {
            "OINumber": "0021374",
            "Supplier": "SWAGELOK WA",
            "SupplierNumber": "SS-810-2-12"
        },
        {
            "OINumber": "0022924",
            "Supplier": "SWAGELOK WA",
            "SupplierNumber": "SS-2-HPST"
        },
        {
            "OINumber": "0024272",
            "Supplier": "SWAGELOK WA",
            "SupplierNumber": "SS-4-TA-1-2"
        },
        {
            "OINumber": "0024393",
            "Supplier": "SWAGELOK WA",
            "SupplierNumber": "SS-3K-CH8-VI"
        },
        {
            "OINumber": "0024970",
            "Supplier": "SWAGELOK WA",
            "SupplierNumber": "SS-8-HP - 3 WEEK LEADTIME"
        },
        {
            "OINumber": "0028046",
            "Supplier": "SWAGELOK WA",
            "SupplierNumber": "SS-400-2-4PR"
        },
        {
            "OINumber": "0028533",
            "Supplier": "SWAGELOK WA",
            "SupplierNumber": "SS-3HNRS4"
        },
        {
            "OINumber": "0031750",
            "Supplier": "SWAGELOK WA",
            "SupplierNumber": "SS-4-TA-1-4ST"
        },
        {
            "OINumber": "0031754",
            "Supplier": "SWAGELOK WA",
            "SupplierNumber": "SS-400-1-4RT"
        },
        {
            "OINumber": "0032541",
            "Supplier": "SWAGELOK WA",
            "SupplierNumber": "SS-CHS8-5"
        },
        {
            "OINumber": "0034216",
            "Supplier": "SWAGELOK WA",
            "SupplierNumber": "SS-8-P-RS"
        },
        {
            "OINumber": "0034841",
            "Supplier": "SWAGELOK WA",
            "SupplierNumber": "SS-1210-6-12AN"
        },
        {
            "OINumber": "0034842",
            "Supplier": "SWAGELOK WA",
            "SupplierNumber": "SS-16-RS-2V"
        },
        {
            "OINumber": "0036277",
            "Supplier": "SWAGELOK WA",
            "SupplierNumber": "SS-4-TA-7-4"
        },
        {
            "OINumber": "0202145",
            "Supplier": "SWAGELOK WA"
        },
        {
            "OINumber": "0205730",
            "Supplier": "SWAGELOK WA",
            "SupplierNumber": "SS-1611-PC-8"
        },
        {
            "OINumber": "0207508",
            "Supplier": "SWAGELOK WA",
            "SupplierNumber": "SS-600-3-6TTF"
        },
        {
            "OINumber": "0219025",
            "Supplier": "SWAGELOK WA",
            "SupplierNumber": "302-13K-CH8-1"
        },
        {
            "OINumber": "0219030",
            "Supplier": "SWAGELOK WA",
            "SupplierNumber": "SS-CHS12-1"
        },
        {
            "OINumber": "0267163",
            "Supplier": "SWAGELOK WA",
            "SupplierNumber": "SS-43TS4"
        },
        {
            "OINumber": "0267559",
            "Supplier": "SWAGELOK WA",
            "SupplierNumber": "SS-4CPA2-3"
        },
        {
            "OINumber": "0272558",
            "Supplier": "SWAGELOK WA",
            "SupplierNumber": "SS-810-1-OR"
        },
        {
            "OINumber": "0275723",
            "Supplier": "SWAGELOK WA",
            "SupplierNumber": "SS-2-RS-2V"
        },
        {
            "OINumber": "0275724",
            "Supplier": "SWAGELOK WA",
            "SupplierNumber": "SS-4-RS-2V"
        },
        {
            "OINumber": "0281940",
            "Supplier": "SWAGELOK WA",
            "SupplierNumber": "SS-8CPA2-350"
        },
        {
            "OINumber": "0281941",
            "Supplier": "SWAGELOK WA",
            "SupplierNumber": "SS-4CPA2-3"
        },
        {
            "OINumber": "0282401",
            "Supplier": "SWAGELOK WA",
            "SupplierNumber": "SS-6MO-1-4RP"
        },
        {
            "OINumber": "0288939",
            "Supplier": "SWAGELOK WA",
            "SupplierNumber": "SS-400-3-4TFT"
        },
        {
            "OINumber": "0296465",
            "Supplier": "SWAGELOK WA",
            "SupplierNumber": "SS-6M0-3"
        },
        {
            "OINumber": "0316734",
            "Supplier": "SWAGELOK WA",
            "SupplierNumber": "MS-TDT-24"
        },
        {
            "OINumber": "0321758",
            "Supplier": "SWAGELOK WA",
            "SupplierNumber": "SS-810-1-4RS"
        },
        {
            "OINumber": "0321821",
            "Supplier": "SWAGELOK WA",
            "SupplierNumber": "SS-600-1-8RS"
        },
        {
            "OINumber": "0321827",
            "Supplier": "SWAGELOK WA",
            "SupplierNumber": "SS-400-2-2PR"
        },
        {
            "OINumber": "0321831",
            "Supplier": "SWAGELOK WA",
            "SupplierNumber": "SS-400-1-6RS"
        },
        {
            "OINumber": "0327072",
            "Supplier": "SWAGELOK WA",
            "SupplierNumber": "SS-4C-1"
        },
        {
            "OINumber": "0348222",
            "Supplier": "SWAGELOK WA",
            "SupplierNumber": "SS-4-SAE-1-4"
        },
        {
            "OINumber": "0354600",
            "Supplier": "SWAGELOK WA",
            "SupplierNumber": "SS-4CP2-1"
        },
        {
            "OINumber": "0393134",
            "Supplier": "SWAGELOK WA",
            "SupplierNumber": "SS-1210-2-12"
        },
        {
            "OINumber": "0401187",
            "Supplier": "SWAGELOK WA",
            "SupplierNumber": "SS-T12-S-109-6ME"
        },
        {
            "OINumber": "0415698",
            "Supplier": "SWAGELOK WA",
            "SupplierNumber": "NV4N1VE15-HD2"
        },
        {
            "OINumber": "0415698-KT",
            "Supplier": "SWAGELOK WA",
            "SupplierNumber": "RK-NVEV-WHO"
        },
        {
            "OINumber": "0428883",
            "Supplier": "SWAGELOK WA",
            "SupplierNumber": "SS-810-7-8RG"
        },
        {
            "OINumber": "0472679",
            "Supplier": "SWAGELOK WA",
            "SupplierNumber": "SS-4CPA2-3"
        },
        {
            "OINumber": "0472884",
            "Supplier": "SWAGELOK WA",
            "SupplierNumber": "SS-AM-FT4-AN4"
        },
        {
            "OINumber": "0474757",
            "Supplier": "SWAGELOK WA",
            "SupplierNumber": "SS-CF-ML6-NS4"
        },
        {
            "OINumber": "0478048",
            "Supplier": "SWAGELOK WA",
            "SupplierNumber": "TU6M20"
        },
        {
            "OINumber": "0520821",
            "Supplier": "SWAGELOK WA",
            "SupplierNumber": "SS-6M0-2R-6M"
        },
        {
            "OINumber": "0520914",
            "Supplier": "SWAGELOK WA",
            "SupplierNumber": "SS-TH4TM6TM6-155CM-W"
        },
        {
            "OINumber": "0520915",
            "Supplier": "SWAGELOK WA",
            "SupplierNumber": "SS-TH4TM6TM6-95CM-W"
        },
        {
            "OINumber": "0520916",
            "Supplier": "SWAGELOK WA",
            "SupplierNumber": "SS-TH4TM6TM6-107CM-W"
        },
        {
            "OINumber": "0520917",
            "Supplier": "SWAGELOK WA"
        },
        {
            "OINumber": "0523167",
            "Supplier": "SWAGELOK WA",
            "SupplierNumber": "SS-6FK0-3"
        },
        {
            "OINumber": "0523168",
            "Supplier": "SWAGELOK WA",
            "SupplierNumber": "SS-6FK0-7-4"
        },
        {
            "OINumber": "0523169",
            "Supplier": "SWAGELOK WA",
            "SupplierNumber": "SS-6FK0-1-6"
        },
        {
            "OINumber": "0523171",
            "Supplier": "SWAGELOK WA",
            "SupplierNumber": "SS-6FK0-1-8"
        },
        {
            "OINumber": "100002-0808N",
            "Supplier": "SWAGELOK WA",
            "SupplierNumber": "SS-810-2-8"
        },
        {
            "OINumber": "100142-08",
            "Supplier": "SWAGELOK WA",
            "SupplierNumber": "SS-810-3"
        },
        {
            "OINumber": "100259-0608",
            "Supplier": "SWAGELOK WA",
            "SupplierNumber": "SS-600-R-8"
        },
        {
            "OINumber": "100582-08",
            "Supplier": "SWAGELOK WA",
            "SupplierNumber": "SS-811-PC"
        },
        {
            "OINumber": "100600-0404",
            "Supplier": "SWAGELOK WA",
            "SupplierNumber": "SS-400-3TTS"
        },
        {
            "OINumber": "957164090",
            "Supplier": "SWAGELOK WA",
            "SupplierNumber": "304-S1T-PP-6T"
        },
        {
            "OINumber": "957165758",
            "Supplier": "SWAGELOK WA",
            "SupplierNumber": "SS-6FK0-4"
        },
        {
            "OINumber": "970340368",
            "Supplier": "SWAGELOK WA",
            "SupplierNumber": "SS-600-2-8"
        },
        {
            "OINumber": "970343023",
            "Supplier": "SWAGELOK WA",
            "SupplierNumber": "SS-T4-S-035-6ME"
        },
        {
            "OINumber": "970396125",
            "Supplier": "SWAGELOK WA",
            "SupplierNumber": "SS-600-NFSET"
        },
        {
            "OINumber": "980107850",
            "Supplier": "SWAGELOK WA",
            "SupplierNumber": "SS-4-TA-1-6R"
        },
        {
            "OINumber": "980168753",
            "Supplier": "SWAGELOK WA",
            "SupplierNumber": "SS-810-7-8RJ"
        },
        {
            "OINumber": "990074932",
            "Supplier": "SWAGELOK WA",
            "SupplierNumber": "SS-1610-1-16STH"
        },
        {
            "OINumber": "990078796",
            "Supplier": "SWAGELOK WA",
            "SupplierNumber": "SS-1210-1-12"
        },
        {
            "OINumber": "990091067",
            "Supplier": "SWAGELOK WA",
            "SupplierNumber": "SS-810-1-8"
        },
        {
            "OINumber": "990098124",
            "Supplier": "SWAGELOK WA",
            "SupplierNumber": "SS-12-TA-1-12AN"
        },
        {
            "OINumber": "990127015",
            "Supplier": "SWAGELOK WA",
            "SupplierNumber": "SS-AFSS8"
        },
        {
            "OINumber": "990127044",
            "Supplier": "SWAGELOK WA",
            "SupplierNumber": "SS-43GS6"
        },
        {
            "OINumber": "990168159",
            "Supplier": "SWAGELOK WA"
        },
        {
            "OINumber": "990219409",
            "Supplier": "SWAGELOK WA",
            "SupplierNumber": "CS-2105301-TB-990219409"
        },
        {
            "OINumber": "990219416",
            "Supplier": "SWAGELOK WA",
            "SupplierNumber": "CS-2105301-TB-990219416"
        },
        {
            "OINumber": "990324300",
            "Supplier": "SWAGELOK WA",
            "SupplierNumber": "CS-2105301-TB-990324300"
        },
        {
            "OINumber": "990324303",
            "Supplier": "SWAGELOK WA",
            "SupplierNumber": "CS-2105301-TB-990324303"
        },
        {
            "OINumber": "990332558",
            "Supplier": "SWAGELOK WA",
            "SupplierNumber": "SS-400-11-0023"
        },
        {
            "OINumber": "AHF1S-AFID-HFIG",
            "Supplier": "SWAGELOK WA",
            "SupplierNumber": "SS-400-7-8RJ"
        },
        {
            "OINumber": "AHF7S-AFID2-010",
            "Supplier": "SWAGELOK WA",
            "SupplierNumber": "SS-4C-10"
        },
        {
            "OINumber": "CA111-010-01",
            "Supplier": "SWAGELOK WA",
            "SupplierNumber": "PN# MS-PTS-50"
        },
        {
            "OINumber": "HN011-002-01",
            "Supplier": "SWAGELOK WA",
            "SupplierNumber": "SS-4-TA-1-4"
        },
        {
            "OINumber": "HN011-003-01",
            "Supplier": "SWAGELOK WA",
            "SupplierNumber": "SS-4-TA-1-4AN"
        },
        {
            "OINumber": "HN011-010-01",
            "Supplier": "SWAGELOK WA",
            "SupplierNumber": "SS-6-TA-1-4AN"
        },
        {
            "OINumber": "HN011-014-01",
            "Supplier": "SWAGELOK WA",
            "SupplierNumber": "SS-600-A-6ANF"
        },
        {
            "OINumber": "HN011-016-01",
            "Supplier": "SWAGELOK WA",
            "SupplierNumber": "SS-810-A-8ANF"
        },
        {
            "OINumber": "HN011-019-01",
            "Supplier": "SWAGELOK WA",
            "SupplierNumber": "SS-12-HC-A-1211"
        },
        {
            "OINumber": "HN031-002-01",
            "Supplier": "SWAGELOK WA",
            "SupplierNumber": "SS-810-C"
        },
        {
            "OINumber": "HN031-011-01",
            "Supplier": "SWAGELOK WA",
            "SupplierNumber": "SS-1610-C"
        },
        {
            "OINumber": "HN031-012-01",
            "Supplier": "SWAGELOK WA",
            "SupplierNumber": "SS-400-C"
        },
        {
            "OINumber": "HN031-013-01",
            "Supplier": "SWAGELOK WA",
            "SupplierNumber": "SS-600-C"
        },
        {
            "OINumber": "HN031-014-01",
            "Supplier": "SWAGELOK WA",
            "SupplierNumber": "SS-1210-C"
        },
        {
            "OINumber": "HN031-017-01",
            "Supplier": "SWAGELOK WA",
            "SupplierNumber": "SS-8-CP"
        },
        {
            "OINumber": "HN031-018-01",
            "Supplier": "SWAGELOK WA",
            "SupplierNumber": "SS-4-CP"
        },
        {
            "OINumber": "HN031-019-01",
            "Supplier": "SWAGELOK WA",
            "SupplierNumber": "SS-12-CP"
        },
        {
            "OINumber": "HN031-020-01",
            "Supplier": "SWAGELOK WA",
            "SupplierNumber": "SS-6-CP"
        },
        {
            "OINumber": "HN04-0003AB",
            "Supplier": "SWAGELOK WA",
            "SupplierNumber": "SS-810-1-8RS"
        },
        {
            "OINumber": "HN041-006-01",
            "Supplier": "SWAGELOK WA",
            "SupplierNumber": "SS-400-1-12"
        },
        {
            "OINumber": "HN041-008-01",
            "Supplier": "SWAGELOK WA",
            "SupplierNumber": "SS-810-1-6ST"
        },
        {
            "OINumber": "HN041-009-01",
            "Supplier": "SWAGELOK WA",
            "SupplierNumber": "SS-400-1-2"
        },
        {
            "OINumber": "HN041-010-01",
            "Supplier": "SWAGELOK WA",
            "SupplierNumber": "SS-600-1-6"
        },
        {
            "OINumber": "HN041-013-01",
            "Supplier": "SWAGELOK WA",
            "SupplierNumber": "SS-401-PC"
        },
        {
            "OINumber": "HN041-017-01",
            "Supplier": "SWAGELOK WA",
            "SupplierNumber": "SS-601-PC"
        },
        {
            "OINumber": "HN041-027-01",
            "Supplier": "SWAGELOK WA",
            "SupplierNumber": "SS-811-PC-4"
        },
        {
            "OINumber": "HN041-029-01",
            "Supplier": "SWAGELOK WA",
            "SupplierNumber": "SS-600-1-6ST"
        },
        {
            "OINumber": "HN041-030-01",
            "Supplier": "SWAGELOK WA",
            "SupplierNumber": "SS-400-1-6ST"
        },
        {
            "OINumber": "HN041-037-01",
            "Supplier": "SWAGELOK WA",
            "SupplierNumber": "SS-1211-PC"
        },
        {
            "OINumber": "HN041-039-01",
            "Supplier": "SWAGELOK WA",
            "SupplierNumber": "SS-1610-1-16ST"
        },
        {
            "OINumber": "HN041-040-01",
            "Supplier": "SWAGELOK WA",
            "SupplierNumber": "SS-810-1-12ST"
        },
        {
            "OINumber": "HN041-041-01",
            "Supplier": "SWAGELOK WA",
            "SupplierNumber": "SS-400-1-2RS"
        },
        {
            "OINumber": "HN041-042-01",
            "Supplier": "SWAGELOK WA",
            "SupplierNumber": "SS-1610-1-12ST"
        },
        {
            "OINumber": "HN041-045-01",
            "Supplier": "SWAGELOK WA",
            "SupplierNumber": "SS-600-1-8ST"
        },
        {
            "OINumber": "HN041-049-02",
            "Supplier": "SWAGELOK WA",
            "SupplierNumber": "SS-6-AN-1-6"
        },
        {
            "OINumber": "HN041-051-01",
            "Supplier": "SWAGELOK WA",
            "SupplierNumber": "SS-400-1-4"
        },
        {
            "OINumber": "HN041-052-01",
            "Supplier": "SWAGELOK WA",
            "SupplierNumber": "SS-400-7-4"
        },
        {
            "OINumber": "HN041-053-01",
            "Supplier": "SWAGELOK WA",
            "SupplierNumber": "SS-1210-1-8ST"
        },
        {
            "OINumber": "HN041-059-01",
            "Supplier": "SWAGELOK WA",
            "SupplierNumber": "SS-810-1-8"
        },
        {
            "OINumber": "HN041-061-01",
            "Supplier": "SWAGELOK WA",
            "SupplierNumber": "SS-600-1-4ST"
        },
        {
            "OINumber": "HN041-062-01",
            "Supplier": "SWAGELOK WA",
            "SupplierNumber": "SS-1210-1-12ST"
        },
        {
            "OINumber": "HN041-066-01",
            "Supplier": "SWAGELOK WA",
            "SupplierNumber": "SS-400-1-8ST"
        },
        {
            "OINumber": "HN041-068-01",
            "Supplier": "SWAGELOK WA",
            "SupplierNumber": "SS-811-PC"
        },
        {
            "OINumber": "HN041-069-01",
            "Supplier": "SWAGELOK WA",
            "SupplierNumber": "SS-810-1-12"
        },
        {
            "OINumber": "HN041-071-01",
            "Supplier": "SWAGELOK WA",
            "SupplierNumber": "SS-400-1-4ST"
        },
        {
            "OINumber": "HN041-074-01",
            "Supplier": "SWAGELOK WA",
            "SupplierNumber": "SS-6-SAE-7-4-06575"
        },
        {
            "OINumber": "HN041-075-01",
            "Supplier": "SWAGELOK WA",
            "SupplierNumber": "SS-1210-1-12"
        },
        {
            "OINumber": "HN041-079-01",
            "Supplier": "SWAGELOK WA",
            "SupplierNumber": "SS-810-1-10ST"
        },
        {
            "OINumber": "HN041-080-01",
            "Supplier": "SWAGELOK WA",
            "SupplierNumber": "SS-600-1-4"
        },
        {
            "OINumber": "HN041-081-01",
            "Supplier": "SWAGELOK WA",
            "SupplierNumber": "SS-2000-1-20ST"
        },
        {
            "OINumber": "HN041-082-01",
            "Supplier": "SWAGELOK WA",
            "SupplierNumber": "SS-810-1-8ST"
        },
        {
            "OINumber": "HN041-091-01",
            "Supplier": "SWAGELOK WA",
            "SupplierNumber": "SS-400-71-4"
        },
        {
            "OINumber": "HN041-092-01",
            "Supplier": "SWAGELOK WA",
            "SupplierNumber": "SS-600-1-6RS"
        },
        {
            "OINumber": "HN041-094-01",
            "Supplier": "SWAGELOK WA",
            "SupplierNumber": "SS-600-7-4"
        },
        {
            "OINumber": "HN041-096-01",
            "Supplier": "SWAGELOK WA",
            "SupplierNumber": "SS-601-PC-4"
        },
        {
            "OINumber": "HN041-097-01",
            "Supplier": "SWAGELOK WA",
            "SupplierNumber": "SS-811-PC-6"
        },
        {
            "OINumber": "HN041-098-01",
            "Supplier": "SWAGELOK WA",
            "SupplierNumber": "SS-1210-1-12RS"
        },
        {
            "OINumber": "HN041-100-01",
            "Supplier": "SWAGELOK WA",
            "SupplierNumber": "SS-1211-PC-8"
        },
        {
            "OINumber": "HN041-105-01",
            "Supplier": "SWAGELOK WA",
            "SupplierNumber": "SS-810-1-16ST"
        },
        {
            "OINumber": "HN041-107-01",
            "Supplier": "SWAGELOK WA",
            "SupplierNumber": "SS-1210-1-16"
        },
        {
            "OINumber": "HN041-111-01",
            "Supplier": "SWAGELOK WA",
            "SupplierNumber": "SS-4-AN-1-4"
        },
        {
            "OINumber": "HN051-001-01",
            "Supplier": "SWAGELOK WA",
            "SupplierNumber": "SS-4-HCG"
        },
        {
            "OINumber": "HN051-006-01",
            "Supplier": "SWAGELOK WA",
            "SupplierNumber": "SS-8-HRCG-6"
        },
        {
            "OINumber": "HN051-007-01",
            "Supplier": "SWAGELOK WA",
            "SupplierNumber": "SS-8-HRCG-4"
        },
        {
            "OINumber": "HN051-008-01",
            "Supplier": "SWAGELOK WA",
            "SupplierNumber": "SS-6-HRCG-4"
        },
        {
            "OINumber": "HN071-001-01",
            "Supplier": "SWAGELOK WA",
            "SupplierNumber": "SS-600-2-4"
        },
        {
            "OINumber": "HN071-004-01",
            "Supplier": "SWAGELOK WA",
            "SupplierNumber": "SS-1210-2-12ST"
        },
        {
            "OINumber": "HN071-005-01",
            "Supplier": "SWAGELOK WA",
            "SupplierNumber": "SS-600-2-8ST"
        },
        {
            "OINumber": "HN071-026-01",
            "Supplier": "SWAGELOK WA",
            "SupplierNumber": "SS-4-E"
        },
        {
            "OINumber": "HN071-027-01",
            "Supplier": "SWAGELOK WA",
            "SupplierNumber": "SS-4-ME"
        },
        {
            "OINumber": "HN071-029-01",
            "Supplier": "SWAGELOK WA",
            "SupplierNumber": "SS-400-8-4"
        },
        {
            "OINumber": "HN071-034-01",
            "Supplier": "SWAGELOK WA",
            "SupplierNumber": "SS-1610-2-16ST"
        },
        {
            "OINumber": "HN071-038-01",
            "Supplier": "SWAGELOK WA",
            "SupplierNumber": "SS-810-2-8ST"
        },
        {
            "OINumber": "HN071-040-01",
            "Supplier": "SWAGELOK WA",
            "SupplierNumber": "SS-600-2-6ST"
        },
        {
            "OINumber": "HN071-045-01",
            "Supplier": "SWAGELOK WA",
            "SupplierNumber": "SS-810-2-8"
        },
        {
            "OINumber": "HN071-052-01",
            "Supplier": "SWAGELOK WA",
            "SupplierNumber": "SS-400-2-2"
        },
        {
            "OINumber": "HN071-055-01",
            "Supplier": "SWAGELOK WA",
            "SupplierNumber": "SS-400-2-4"
        },
        {
            "OINumber": "HN071-056-01",
            "Supplier": "SWAGELOK WA",
            "SupplierNumber": "SS-400-5-4"
        },
        {
            "OINumber": "HN071-062-01",
            "Supplier": "SWAGELOK WA",
            "SupplierNumber": "SS-400-2-4ST"
        },
        {
            "OINumber": "HN071-063-01",
            "Supplier": "SWAGELOK WA",
            "SupplierNumber": "SS-810-2-6"
        },
        {
            "OINumber": "HN071-073-01",
            "Supplier": "SWAGELOK WA",
            "SupplierNumber": "SS-8-E"
        },
        {
            "OINumber": "HN071-074-01",
            "Supplier": "SWAGELOK WA",
            "SupplierNumber": "SS-8-ME"
        },
        {
            "OINumber": "HN071-076-01",
            "Supplier": "SWAGELOK WA",
            "SupplierNumber": "SS-4-SE"
        },
        {
            "OINumber": "HN071-077-01",
            "Supplier": "SWAGELOK WA",
            "SupplierNumber": "SS-4-ME"
        },
        {
            "OINumber": "HN071-078-01",
            "Supplier": "SWAGELOK WA",
            "SupplierNumber": "SS-12-E"
        },
        {
            "OINumber": "HN071-082-01",
            "Supplier": "SWAGELOK WA",
            "SupplierNumber": "SS-600-2-6"
        },
        {
            "OINumber": "HN071-084-01",
            "Supplier": "SWAGELOK WA",
            "SupplierNumber": "SS-400-2-6ST"
        },
        {
            "OINumber": "HN071-086-01",
            "Supplier": "SWAGELOK WA",
            "SupplierNumber": "SS-600-8-4"
        },
        {
            "OINumber": "HN071-093-01",
            "Supplier": "SWAGELOK WA",
            "SupplierNumber": "SS-400-2-2ST"
        },
        {
            "OINumber": "HN081-001-01",
            "Supplier": "SWAGELOK WA",
            "SupplierNumber": "SS-1214-1"
        },
        {
            "OINumber": "HN081-002-01",
            "Supplier": "SWAGELOK WA",
            "SupplierNumber": "SS-600-SET"
        },
        {
            "OINumber": "HN081-004-01",
            "Supplier": "SWAGELOK WA",
            "SupplierNumber": "SS-1213-1"
        },
        {
            "OINumber": "HN081-006-01",
            "Supplier": "SWAGELOK WA",
            "SupplierNumber": "SS-400-SET"
        },
        {
            "OINumber": "HN081-007-01",
            "Supplier": "SWAGELOK WA",
            "SupplierNumber": "SS-810-SET"
        },
        {
            "OINumber": "HN081-009-01",
            "Supplier": "SWAGELOK WA",
            "SupplierNumber": "SS-1614-1"
        },
        {
            "OINumber": "HN131-008-01",
            "Supplier": "SWAGELOK WA",
            "SupplierNumber": "94345"
        },
        {
            "OINumber": "HN131-012-01",
            "Supplier": "SWAGELOK WA",
            "SupplierNumber": "SS-12-HN"
        },
        {
            "OINumber": "HN131-014-01",
            "Supplier": "SWAGELOK WA",
            "SupplierNumber": "SS-4-HLN-2.00"
        },
        {
            "OINumber": "HN131-015-01",
            "Supplier": "SWAGELOK WA",
            "SupplierNumber": "SS-4-HN"
        },
        {
            "OINumber": "HN131-016-01",
            "Supplier": "SWAGELOK WA",
            "SupplierNumber": "SS-4-HRN-2"
        },
        {
            "OINumber": "HN141-004-01",
            "Supplier": "SWAGELOK WA",
            "SupplierNumber": "SS-810-P"
        },
        {
            "OINumber": "HN141-006-01",
            "Supplier": "SWAGELOK WA",
            "SupplierNumber": "SS-6-PST"
        },
        {
            "OINumber": "HN141-008-01",
            "Supplier": "SWAGELOK WA",
            "SupplierNumber": "SS-1210-P"
        },
        {
            "OINumber": "HN141-012-01",
            "Supplier": "SWAGELOK WA",
            "SupplierNumber": "SS-8-PST"
        },
        {
            "OINumber": "HN141-014-01",
            "Supplier": "SWAGELOK WA",
            "SupplierNumber": "SS-400-P"
        },
        {
            "OINumber": "HN141-015-01",
            "Supplier": "SWAGELOK WA",
            "SupplierNumber": "SS-600-P"
        },
        {
            "OINumber": "HN141-019-01",
            "Supplier": "SWAGELOK WA",
            "SupplierNumber": "SS-6-P"
        },
        {
            "OINumber": "HN141-021-01",
            "Supplier": "SWAGELOK WA",
            "SupplierNumber": "SS-16-PST"
        },
        {
            "OINumber": "HN141-023-01",
            "Supplier": "SWAGELOK WA",
            "SupplierNumber": "SS-2-P-RP"
        },
        {
            "OINumber": "HN141-024-01",
            "Supplier": "SWAGELOK WA",
            "SupplierNumber": "SS-12-PST"
        },
        {
            "OINumber": "HN141-031-01",
            "Supplier": "SWAGELOK WA",
            "SupplierNumber": "SS-12-P"
        },
        {
            "OINumber": "HN141-032-01",
            "Supplier": "SWAGELOK WA",
            "SupplierNumber": "SS-4-HPST"
        },
        {
            "OINumber": "HN141-034-01",
            "Supplier": "SWAGELOK WA",
            "SupplierNumber": "SS-1610-P"
        },
        {
            "OINumber": "HN141-036-01",
            "Supplier": "SWAGELOK WA",
            "SupplierNumber": "SS-4-P"
        },
        {
            "OINumber": "HN141-038-01",
            "Supplier": "SWAGELOK WA",
            "SupplierNumber": "SS-4-HP"
        },
        {
            "OINumber": "HN141-041-01",
            "Supplier": "SWAGELOK WA",
            "SupplierNumber": "SS-2-P-RS"
        },
        {
            "OINumber": "HN141-044-01",
            "Supplier": "SWAGELOK WA",
            "SupplierNumber": "SS-24-P"
        },
        {
            "OINumber": "HN161-001-01",
            "Supplier": "SWAGELOK WA",
            "SupplierNumber": "SS-810-R-12"
        },
        {
            "OINumber": "HN161-003-01",
            "Supplier": "SWAGELOK WA",
            "SupplierNumber": "SS-400-R-4"
        },
        {
            "OINumber": "HN161-005-01",
            "Supplier": "SWAGELOK WA",
            "SupplierNumber": "SS-12-RA-8"
        },
        {
            "OINumber": "HN161-006-01",
            "Supplier": "SWAGELOK WA",
            "SupplierNumber": "1/2 X 1/4 PTR-SS"
        },
        {
            "OINumber": "HN161-008-01",
            "Supplier": "SWAGELOK WA",
            "SupplierNumber": "SS-810-R-16"
        },
        {
            "OINumber": "HN161-009-01",
            "Supplier": "SWAGELOK WA",
            "SupplierNumber": "SS-810-R-6"
        },
        {
            "OINumber": "HN161-011-01",
            "Supplier": "SWAGELOK WA",
            "SupplierNumber": "SS-400-R-12"
        },
        {
            "OINumber": "HN161-013-01",
            "Supplier": "SWAGELOK WA",
            "SupplierNumber": "SS-400-R-6"
        },
        {
            "OINumber": "HN161-015-01",
            "Supplier": "SWAGELOK WA",
            "SupplierNumber": "SS-6-RB-4"
        },
        {
            "OINumber": "HN161-020-01",
            "Supplier": "SWAGELOK WA",
            "SupplierNumber": "SS-600-R-12"
        },
        {
            "OINumber": "HN161-023-01",
            "Supplier": "SWAGELOK WA",
            "SupplierNumber": "SS-600-R-8"
        },
        {
            "OINumber": "HN161-026-01",
            "Supplier": "SWAGELOK WA",
            "SupplierNumber": "SS-400-R-8"
        },
        {
            "OINumber": "HN161-027-01",
            "Supplier": "SWAGELOK WA",
            "SupplierNumber": "SS-810-R-8"
        },
        {
            "OINumber": "HN161-035-01",
            "Supplier": "SWAGELOK WA",
            "SupplierNumber": "SS-6-RA-4"
        },
        {
            "OINumber": "HN181-002-01",
            "Supplier": "SWAGELOK WA",
            "SupplierNumber": "SS-1210-3"
        },
        {
            "OINumber": "HN181-004-01",
            "Supplier": "SWAGELOK WA",
            "SupplierNumber": "1/4 RRS-SS"
        },
        {
            "OINumber": "HN181-006-01",
            "Supplier": "SWAGELOK WA",
            "SupplierNumber": "SS-4-T"
        },
        {
            "OINumber": "HN181-008-01",
            "Supplier": "SWAGELOK WA",
            "SupplierNumber": "SS-400-3"
        },
        {
            "OINumber": "HN181-012-01",
            "Supplier": "SWAGELOK WA",
            "SupplierNumber": "SS-600-3"
        },
        {
            "OINumber": "HN181-014-01",
            "Supplier": "SWAGELOK WA",
            "SupplierNumber": "SS-400-3TTF"
        },
        {
            "OINumber": "HN181-015-01",
            "Supplier": "SWAGELOK WA",
            "SupplierNumber": "SS-400-3-4TTM"
        },
        {
            "OINumber": "HN181-018-01",
            "Supplier": "SWAGELOK WA",
            "SupplierNumber": "SS-400-3-4TTF"
        },
        {
            "OINumber": "HN181-020-01",
            "Supplier": "SWAGELOK WA",
            "SupplierNumber": "SS-1610-3"
        },
        {
            "OINumber": "HN181-023-01",
            "Supplier": "SWAGELOK WA",
            "SupplierNumber": "SS-810-3"
        },
        {
            "OINumber": "HN181-027-01",
            "Supplier": "SWAGELOK WA",
            "SupplierNumber": "SS-1210-3TTS"
        },
        {
            "OINumber": "HN181-029-01",
            "Supplier": "SWAGELOK WA",
            "SupplierNumber": "SS-810-3-8TTM"
        },
        {
            "OINumber": "HN181-032-01",
            "Supplier": "SWAGELOK WA",
            "SupplierNumber": "SS-8-T"
        },
        {
            "OINumber": "HN181-034-01",
            "Supplier": "SWAGELOK WA",
            "SupplierNumber": "SS-12-T"
        },
        {
            "OINumber": "HN191-001-01",
            "Supplier": "SWAGELOK WA",
            "SupplierNumber": "SS-810-6-8AN"
        },
        {
            "OINumber": "HN191-003-01",
            "Supplier": "SWAGELOK WA",
            "SupplierNumber": "SS-810-6"
        },
        {
            "OINumber": "HN191-005-01",
            "Supplier": "SWAGELOK WA",
            "SupplierNumber": "SS-400-61"
        },
        {
            "OINumber": "HN191-007-01",
            "Supplier": "SWAGELOK WA",
            "SupplierNumber": "SS-810-4"
        },
        {
            "OINumber": "HN191-008-01",
            "Supplier": "SWAGELOK WA",
            "SupplierNumber": "SS-400-9"
        },
        {
            "OINumber": "HN191-010-01",
            "Supplier": "SWAGELOK WA",
            "SupplierNumber": "SS-810-9"
        },
        {
            "OINumber": "HN191-011-01",
            "Supplier": "SWAGELOK WA",
            "SupplierNumber": "SS-400-6"
        },
        {
            "OINumber": "HN191-012-01",
            "Supplier": "SWAGELOK WA",
            "SupplierNumber": "SS-810-6-4"
        },
        {
            "OINumber": "HN191-014-01",
            "Supplier": "SWAGELOK WA",
            "SupplierNumber": "SS-400-61-4AN"
        },
        {
            "OINumber": "HN191-015-01",
            "Supplier": "SWAGELOK WA",
            "SupplierNumber": "SS-600-9"
        },
        {
            "OINumber": "HN191-016-01",
            "Supplier": "SWAGELOK WA",
            "SupplierNumber": "SS-810-6-6"
        },
        {
            "OINumber": "HN191-017-01",
            "Supplier": "SWAGELOK WA",
            "SupplierNumber": "SS-810-61-8AN"
        },
        {
            "OINumber": "HN191-020-01",
            "Supplier": "SWAGELOK WA",
            "SupplierNumber": "SS-600-6"
        },
        {
            "OINumber": "HN191-022-01",
            "Supplier": "SWAGELOK WA",
            "SupplierNumber": "SS-600-6-6AN"
        },
        {
            "OINumber": "HN191-023-01",
            "Supplier": "SWAGELOK WA",
            "SupplierNumber": "SS-1210-6-8"
        },
        {
            "OINumber": "HN191-024-01",
            "Supplier": "SWAGELOK WA",
            "SupplierNumber": "SS-600-4"
        },
        {
            "OINumber": "HN191-025-01",
            "Supplier": "SWAGELOK WA",
            "SupplierNumber": "SS-400-4"
        },
        {
            "OINumber": "HN191-026-01",
            "Supplier": "SWAGELOK WA",
            "SupplierNumber": "SS-400-6-4AN"
        },
        {
            "OINumber": "HN191-032-01",
            "Supplier": "SWAGELOK WA",
            "SupplierNumber": "SS-600-6-4AN"
        },
        {
            "OINumber": "HN191-033-01",
            "Supplier": "SWAGELOK WA",
            "SupplierNumber": "SS-1210-6"
        },
        {
            "OINumber": "HN191-035-01",
            "Supplier": "SWAGELOK WA"
        },
        {
            "OINumber": "HN201-002-01",
            "Supplier": "SWAGELOK WA",
            "SupplierNumber": "SS-1212-1"
        },
        {
            "OINumber": "HN201-003-01",
            "Supplier": "SWAGELOK WA",
            "SupplierNumber": "SS-812-1"
        },
        {
            "OINumber": "HN201-004-01",
            "Supplier": "SWAGELOK WA",
            "SupplierNumber": "SS-602-1"
        },
        {
            "OINumber": "HN201-005-01",
            "Supplier": "SWAGELOK WA",
            "SupplierNumber": "SS-402-1"
        },
        {
            "OINumber": "HT051-002-01",
            "Supplier": "SWAGELOK WA",
            "SupplierNumber": "SS-T8-S-065"
        },
        {
            "OINumber": "HT051-003-01",
            "Supplier": "SWAGELOK WA",
            "SupplierNumber": "SS-T4-S-035"
        },
        {
            "OINumber": "HT051-004-01",
            "Supplier": "SWAGELOK WA",
            "SupplierNumber": "SS-T6-S-049"
        },
        {
            "OINumber": "HT051-006-01",
            "Supplier": "SWAGELOK WA",
            "SupplierNumber": "SS-T12-S-065"
        },
        {
            "OINumber": "HT051-009-01",
            "Supplier": "SWAGELOK WA",
            "SupplierNumber": "SS-T4-S-065-20"
        },
        {
            "OINumber": "HV041-004-01",
            "Supplier": "SWAGELOK WA",
            "SupplierNumber": "SS-CHS8-10"
        },
        {
            "OINumber": "HV041-005-01",
            "Supplier": "SWAGELOK WA",
            "SupplierNumber": "SS-CHS8-1"
        },
        {
            "OINumber": "HV041-010-01",
            "Supplier": "SWAGELOK WA",
            "SupplierNumber": "SS-CHS12-10"
        },
        {
            "OINumber": "HV041-011-01",
            "Supplier": "SWAGELOK WA",
            "SupplierNumber": "76519"
        },
        {
            "OINumber": "HV041-021-01",
            "Supplier": "SWAGELOK WA",
            "SupplierNumber": "SS-CHS12-25"
        },
        {
            "OINumber": "HV071-001-01",
            "Supplier": "SWAGELOK WA",
            "SupplierNumber": "SS-6P6T-OC"
        },
        {
            "OINumber": "HV071-002-01",
            "Supplier": "SWAGELOK WA",
            "SupplierNumber": "SS-4P4T-OC"
        },
        {
            "OINumber": "HV071-005-01",
            "Supplier": "SWAGELOK WA",
            "SupplierNumber": "SS-6P6T"
        },
        {
            "OINumber": "HV161-002-01",
            "Supplier": "SWAGELOK WA",
            "SupplierNumber": "SS-QC8-B1-6PM"
        },
        {
            "OINumber": "HV161-003-01",
            "Supplier": "SWAGELOK WA",
            "SupplierNumber": "SS-QC6-B-600"
        },
        {
            "OINumber": "HV161-005-01",
            "Supplier": "SWAGELOK WA",
            "SupplierNumber": "SS-QC4-B-400"
        },
        {
            "OINumber": "HV161-006-01",
            "Supplier": "SWAGELOK WA",
            "SupplierNumber": "SS-QC4-B1-400"
        },
        {
            "OINumber": "HV161-007-01",
            "Supplier": "SWAGELOK WA",
            "SupplierNumber": "SS-QC6-D-600"
        },
        {
            "OINumber": "HV161-008-01",
            "Supplier": "SWAGELOK WA",
            "SupplierNumber": "SS-QC4-BP"
        },
        {
            "OINumber": "HV161-015-01",
            "Supplier": "SWAGELOK WA",
            "SupplierNumber": "SS-QC4-D-400"
        },
        {
            "OINumber": "HV161-016-01",
            "Supplier": "SWAGELOK WA",
            "SupplierNumber": "SS-QC6-BP"
        },
        {
            "OINumber": "HV161-020-01",
            "Supplier": "SWAGELOK WA",
            "SupplierNumber": "SS-QC6-B1-600"
        },
        {
            "OINumber": "HV161-022-01",
            "Supplier": "SWAGELOK WA",
            "SupplierNumber": "SS-QC4-B-4PM"
        },
        {
            "OINumber": "HV161-026-01",
            "Supplier": "SWAGELOK WA",
            "SupplierNumber": "SS-QC6-S-600"
        },
        {
            "OINumber": "HV181-002-01",
            "Supplier": "SWAGELOK WA",
            "SupplierNumber": "SS-63TF8"
        },
        {
            "OINumber": "HV201-005-01",
            "Supplier": "SWAGELOK WA",
            "SupplierNumber": "SS-3K-CH4-VI"
        },
        {
            "OINumber": "LC011-019-01",
            "Supplier": "SWAGELOK WA",
            "SupplierNumber": "MS-13-58"
        },
        {
            "OINumber": "MB03-0001AB",
            "Supplier": "SWAGELOK WA",
            "SupplierNumber": "SS-8-RS-2V"
        },
        {
            "OINumber": "MB031-001-01",
            "Supplier": "SWAGELOK WA",
            "SupplierNumber": "SS-12-RS-2V"
        },
        {
            "OINumber": "MB031-004-01",
            "Supplier": "SWAGELOK WA",
            "SupplierNumber": "SS-4-RS-2V"
        },
        {
            "OINumber": "MB031-005-01",
            "Supplier": "SWAGELOK WA",
            "SupplierNumber": "SS-2-RS-2V"
        },
        {
            "OINumber": "TM021-001-01",
            "Supplier": "SWAGELOK WA",
            "SupplierNumber": "MS-HTB-4"
        },
        {
            "OINumber": "TM021-002-01",
            "Supplier": "SWAGELOK WA",
            "SupplierNumber": "MS-HTB-6T"
        },
        {
            "OINumber": "TM021-004-01",
            "Supplier": "SWAGELOK WA",
            "SupplierNumber": "MS-HTB-8"
        },
        {
            "OINumber": "TM141-003-01",
            "Supplier": "SWAGELOK WA",
            "SupplierNumber": "MS-TC-308"
        },
        {
            "OINumber": "TM641-001-01",
            "Supplier": "SWAGELOK WA",
            "SupplierNumber": "MS-ST-400"
        },
        {
            "OINumber": "TM641-002-01",
            "Supplier": "SWAGELOK WA",
            "SupplierNumber": "MS-ST-600"
        },
        {
            "OINumber": "TM641-003-01",
            "Supplier": "SWAGELOK WA",
            "SupplierNumber": "MS-ST-1210"
        },
        {
            "OINumber": "TM641-004-01",
            "Supplier": "SWAGELOK WA",
            "SupplierNumber": "MS-ST-1610"
        },
        {
            "OINumber": "TM641-005-01",
            "Supplier": "SWAGELOK WA",
            "SupplierNumber": "MS-ST-810"
        },
        {
            "OINumber": "TM741-012-01",
            "Supplier": "SWAGELOK WA",
            "SupplierNumber": "MS-TCW-308"
        }
    ]