﻿[
        {
            "OINumber": "0016468",
            "Supplier": "Swagelok Fluid System",
            "SupplierNumber": "2507-T8-S-065-20-CP"
        },
        {
            "OINumber": "0031733",
            "Supplier": "Swagelok Fluid System",
            "SupplierNumber": "SS-400-R-5"
        },
        {
            "OINumber": "0269771",
            "Supplier": "Swagelok Fluid System",
            "SupplierNumber": "302-13K-CH8-5"
        },
        {
            "OINumber": "0303482",
            "Supplier": "Swagelok Fluid System",
            "SupplierNumber": "SS-600-7-4"
        },
        {
            "OINumber": "0316734",
            "Supplier": "Swagelok Fluid System",
            "SupplierNumber": "MS-TDT-24"
        },
        {
            "OINumber": "0462753",
            "Supplier": "Swagelok Fluid System",
            "SupplierNumber": "SK-HD2"
        },
        {
            "OINumber": "970024776",
            "Supplier": "Swagelok Fluid System",
            "SupplierNumber": "SS-810-11-8"
        },
        {
            "OINumber": "990072272",
            "Supplier": "Swagelok Fluid System",
            "SupplierNumber": "SS-600-1-8RS"
        },
        {
            "OINumber": "MB011-V39-10",
            "Supplier": "Swagelok Fluid System",
            "SupplierNumber": "VI-OR-0910"
        }
    ]